synthesis/synthesis_2/IICE.vcd
$date
Fri Aug 11 14:54:52 2017
$end
$version
Identify 1.1
$end
$timescale
1 ns
$end
$comment
{Identify created VCD dump}
$end
$scope module m2s010_som $end
$var integer 32 cyc identify_cycle       $end
$var reg     1  clk identify_sampleclock $end
$scope module rtl $end
$scope module CommsFPGA_top_0 $end
$var reg 8 A apb3_addr[7:0] $end
$var reg 8 B apb3_wdata[7:0] $end
$var reg 8 C apb3_rdata[7:0] $end
$var reg 1 D apb3_ready $end
$var reg 1 E drvr_en $end
$var reg 1 F manchester_in $end
$var reg 1 G manch_out_p $end
$scope module behavioral $end
$var reg 1 H tx_fifo_empty $end
$var reg 1 I tx_fifo_full $end
$var reg 1 J tx_fifo_wr_en $end
$var reg 1 K tx_fifo_rd_en $end
$var reg 1 L rx_fifo_rd_en $end
$var reg 1 M rx_fifo_txcoldetdis_wr_en $end
$var reg 9 N rx_fifo_dout[8:0] $end
$var reg 9 O rx_fifo_din_pipe[8:0] $end
$var reg 8 P tx_fifo_dout[7:0] $end
$var reg 1 Q rx_fifo_empty $end
$var reg 1 R rx_fifo_full $end
$var reg 1 S rx_fifo_overflow $end
$var reg 1 T rx_fifo_underrun $end
$var reg 1 U tx_fifo_overflow $end
$var reg 1 V tx_fifo_underrun $end
$var reg 1 W rx_packet_complt $end
$var reg 1 X up_eop_cntdown_en $end
$scope module PROCESSOR_INTERFACE_INST $end
$scope module behavioral $end
$var reg 8 Y control_reg[7:0] $end
$var reg 8 Z status_reg[7:0] $end
$var reg 8 AB int_reg[7:0] $end
$var reg 1 BB iup_eop $end
$upscope $end
$upscope $end
$scope module FIFOS_INST $end
$scope module behavioral $end
$var reg 2 CB readfifo_write_ptr[1:0] $end
$var reg 2 DB readfifo_read_ptr[1:0] $end
$upscope $end
$upscope $end
$scope module MANCHESTER_ENCODER_INST $end
$scope module behavioral $end
$var reg 8 EB p2s_data[7:0] $end
$scope module TRANSMIT_SM $end
$scope module behavioral $end
$var reg 120 FB tx_state $end
$upscope $end
$upscope $end
$upscope $end
$upscope $end
$scope module MANCHESTER_DECODER_INST $end
$scope module v1 $end
$scope module MANCHESTER_DECODER_ADAPTER_INST $end
$scope module v1 $end
$var reg 1 GB iidle_line $end
$var reg 1 HB inrz_data $end
$var reg 8 IB s2p_data[7:0] $end
$var reg 1 JB clock_adjust $end
$upscope $end
$upscope $end
$scope module AFE_RX_STATE_MACHINE $end
$scope module behavioral $end
$var reg 136 KB afe_rx_state $end
$upscope $end
$upscope $end
$scope module ReadFIFO_Write_SM_PROC $end
$scope module behavioral $end
$var reg 112 LB readfifo_wr_state $end
$upscope $end
$upscope $end
$upscope $end
$upscope $end
$upscope $end
$upscope $end
$upscope $end
$upscope $end
$enddefinitions $end
#0
1clk
b11111111111111111111100000000010 cyc
b00010000 A
b00100000 B
b11111111 C
0D
1E
0F
0G
0H
0I
0J
0K
0L
0M
b101001110 N
b000000000 O
b00000000 P
1Q
0R
0S
0T
0U
0V
0W
0X
b00000000 Y
b00000001 Z
b00000000 AB
0BB
b10 CB
b10 DB
b00000000 EB
b011101000111100001011111011001000110000101110100011000010101111101110011011101000010000000100000001000000010000000100000 FB
0GB
0HB
b00000000 IB
0JB
b0111000001100001011000110110101101100101011101000101111101101001011011100101111101110011011101000010000000100000001000000010000000100000 KB
b0110010001100001011101000110000101011111011000100111100101110100011001010111001100100000001000000010000000100000 LB
#10
0clk
#20
1clk
b11111111111111111111100000000011 cyc
#30
0clk
#40
1clk
b11111111111111111111100000000100 cyc
#50
0clk
#60
1clk
b11111111111111111111100000000101 cyc
#70
0clk
#80
1clk
b11111111111111111111100000000110 cyc
#90
0clk
#100
1clk
b11111111111111111111100000000111 cyc
1F
1G
#110
0clk
#120
1clk
b11111111111111111111100000001000 cyc
#130
0clk
#140
1clk
b11111111111111111111100000001001 cyc
#150
0clk
#160
1clk
b11111111111111111111100000001010 cyc
#170
0clk
#180
1clk
b11111111111111111111100000001011 cyc
#190
0clk
#200
1clk
b11111111111111111111100000001100 cyc
#210
0clk
#220
1clk
b11111111111111111111100000001101 cyc
#230
0clk
#240
1clk
b11111111111111111111100000001110 cyc
#250
0clk
#260
1clk
b11111111111111111111100000001111 cyc
#270
0clk
#280
1clk
b11111111111111111111100000010000 cyc
0F
0G
#290
0clk
#300
1clk
b11111111111111111111100000010001 cyc
#310
0clk
#320
1clk
b11111111111111111111100000010010 cyc
#330
0clk
#340
1clk
b11111111111111111111100000010011 cyc
#350
0clk
#360
1clk
b11111111111111111111100000010100 cyc
1JB
#370
0clk
#380
1clk
b11111111111111111111100000010101 cyc
0JB
#390
0clk
#400
1clk
b11111111111111111111100000010110 cyc
#410
0clk
#420
1clk
b11111111111111111111100000010111 cyc
1F
#430
0clk
#440
1clk
b11111111111111111111100000011000 cyc
1G
#450
0clk
#460
1clk
b11111111111111111111100000011001 cyc
#470
0clk
#480
1clk
b11111111111111111111100000011010 cyc
#490
0clk
#500
1clk
b11111111111111111111100000011011 cyc
#510
0clk
#520
1clk
b11111111111111111111100000011100 cyc
#530
0clk
#540
1clk
b11111111111111111111100000011101 cyc
#550
0clk
#560
1clk
b11111111111111111111100000011110 cyc
#570
0clk
#580
1clk
b11111111111111111111100000011111 cyc
#590
0clk
#600
1clk
b11111111111111111111100000100000 cyc
0F
0G
#610
0clk
#620
1clk
b11111111111111111111100000100001 cyc
#630
0clk
#640
1clk
b11111111111111111111100000100010 cyc
#650
0clk
#660
1clk
b11111111111111111111100000100011 cyc
#670
0clk
#680
1clk
b11111111111111111111100000100100 cyc
#690
0clk
#700
1clk
b11111111111111111111100000100101 cyc
#710
0clk
#720
1clk
b11111111111111111111100000100110 cyc
#730
0clk
#740
1clk
b11111111111111111111100000100111 cyc
#750
0clk
#760
1clk
b11111111111111111111100000101000 cyc
1F
1G
#770
0clk
#780
1clk
b11111111111111111111100000101001 cyc
#790
0clk
#800
1clk
b11111111111111111111100000101010 cyc
#810
0clk
#820
1clk
b11111111111111111111100000101011 cyc
#830
0clk
#840
1clk
b11111111111111111111100000101100 cyc
#850
0clk
#860
1clk
b11111111111111111111100000101101 cyc
#870
0clk
#880
1clk
b11111111111111111111100000101110 cyc
#890
0clk
#900
1clk
b11111111111111111111100000101111 cyc
#910
0clk
#920
1clk
b11111111111111111111100000110000 cyc
0F
0G
#930
0clk
#940
1clk
b11111111111111111111100000110001 cyc
#950
0clk
#960
1clk
b11111111111111111111100000110010 cyc
#970
0clk
#980
1clk
b11111111111111111111100000110011 cyc
#990
0clk
#1000
1clk
b11111111111111111111100000110100 cyc
#1010
0clk
#1020
1clk
b11111111111111111111100000110101 cyc
#1030
0clk
#1040
1clk
b11111111111111111111100000110110 cyc
#1050
0clk
#1060
1clk
b11111111111111111111100000110111 cyc
#1070
0clk
#1080
1clk
b11111111111111111111100000111000 cyc
1F
1G
#1090
0clk
#1100
1clk
b11111111111111111111100000111001 cyc
#1110
0clk
#1120
1clk
b11111111111111111111100000111010 cyc
#1130
0clk
#1140
1clk
b11111111111111111111100000111011 cyc
#1150
0clk
#1160
1clk
b11111111111111111111100000111100 cyc
#1170
0clk
#1180
1clk
b11111111111111111111100000111101 cyc
#1190
0clk
#1200
1clk
b11111111111111111111100000111110 cyc
#1210
0clk
#1220
1clk
b11111111111111111111100000111111 cyc
#1230
0clk
#1240
1clk
b11111111111111111111100001000000 cyc
#1250
0clk
#1260
1clk
b11111111111111111111100001000001 cyc
0F
0G
1K
#1270
0clk
#1280
1clk
b11111111111111111111100001000010 cyc
#1290
0clk
#1300
1clk
b11111111111111111111100001000011 cyc
#1310
0clk
#1320
1clk
b11111111111111111111100001000100 cyc
#1330
0clk
#1340
1clk
b11111111111111111111100001000101 cyc
1JB
#1350
0clk
#1360
1clk
b11111111111111111111100001000110 cyc
0JB
#1370
0clk
#1380
1clk
b11111111111111111111100001000111 cyc
#1390
0clk
#1400
1clk
b11111111111111111111100001001000 cyc
1F
#1410
0clk
#1420
1clk
b11111111111111111111100001001001 cyc
1G
#1430
0clk
#1440
1clk
b11111111111111111111100001001010 cyc
#1450
0clk
#1460
1clk
b11111111111111111111100001001011 cyc
#1470
0clk
#1480
1clk
b11111111111111111111100001001100 cyc
#1490
0clk
#1500
1clk
b11111111111111111111100001001101 cyc
#1510
0clk
#1520
1clk
b11111111111111111111100001001110 cyc
#1530
0clk
#1540
1clk
b11111111111111111111100001001111 cyc
#1550
0clk
#1560
1clk
b11111111111111111111100001010000 cyc
#1570
0clk
#1580
1clk
b11111111111111111111100001010001 cyc
0F
0G
1H
0K
b00000101 Z
b011101000111100001011111011001000110000101110100011000010101111101100101011011100110010001011111011100110111010000110001 FB
#1590
0clk
#1600
1clk
b11111111111111111111100001010010 cyc
#1610
0clk
#1620
1clk
b11111111111111111111100001010011 cyc
#1630
0clk
#1640
1clk
b11111111111111111111100001010100 cyc
#1650
0clk
#1660
1clk
b11111111111111111111100001010101 cyc
#1670
0clk
#1680
1clk
b11111111111111111111100001010110 cyc
#1690
0clk
#1700
1clk
b11111111111111111111100001010111 cyc
#1710
0clk
#1720
1clk
b11111111111111111111100001011000 cyc
#1730
0clk
#1740
1clk
b11111111111111111111100001011001 cyc
1F
1G
#1750
0clk
#1760
1clk
b11111111111111111111100001011010 cyc
#1770
0clk
#1780
1clk
b11111111111111111111100001011011 cyc
#1790
0clk
#1800
1clk
b11111111111111111111100001011100 cyc
#1810
0clk
#1820
1clk
b11111111111111111111100001011101 cyc
#1830
0clk
#1840
1clk
b11111111111111111111100001011110 cyc
#1850
0clk
#1860
1clk
b11111111111111111111100001011111 cyc
#1870
0clk
#1880
1clk
b11111111111111111111100001100000 cyc
#1890
0clk
#1900
1clk
b11111111111111111111100001100001 cyc
0F
0G
#1910
0clk
#1920
1clk
b11111111111111111111100001100010 cyc
#1930
0clk
#1940
1clk
b11111111111111111111100001100011 cyc
#1950
0clk
#1960
1clk
b11111111111111111111100001100100 cyc
#1970
0clk
#1980
1clk
b11111111111111111111100001100101 cyc
#1990
0clk
#2000
1clk
b11111111111111111111100001100110 cyc
#2010
0clk
#2020
1clk
b11111111111111111111100001100111 cyc
#2030
0clk
#2040
1clk
b11111111111111111111100001101000 cyc
#2050
0clk
#2060
1clk
b11111111111111111111100001101001 cyc
1F
1G
#2070
0clk
#2080
1clk
b11111111111111111111100001101010 cyc
#2090
0clk
#2100
1clk
b11111111111111111111100001101011 cyc
#2110
0clk
#2120
1clk
b11111111111111111111100001101100 cyc
#2130
0clk
#2140
1clk
b11111111111111111111100001101101 cyc
#2150
0clk
#2160
1clk
b11111111111111111111100001101110 cyc
#2170
0clk
#2180
1clk
b11111111111111111111100001101111 cyc
#2190
0clk
#2200
1clk
b11111111111111111111100001110000 cyc
#2210
0clk
#2220
1clk
b11111111111111111111100001110001 cyc
#2230
0clk
#2240
1clk
b11111111111111111111100001110010 cyc
0F
0G
#2250
0clk
#2260
1clk
b11111111111111111111100001110011 cyc
#2270
0clk
#2280
1clk
b11111111111111111111100001110100 cyc
#2290
0clk
#2300
1clk
b11111111111111111111100001110101 cyc
#2310
0clk
#2320
1clk
b11111111111111111111100001110110 cyc
1JB
#2330
0clk
#2340
1clk
b11111111111111111111100001110111 cyc
0JB
#2350
0clk
#2360
1clk
b11111111111111111111100001111000 cyc
#2370
0clk
#2380
1clk
b11111111111111111111100001111001 cyc
1F
#2390
0clk
#2400
1clk
b11111111111111111111100001111010 cyc
1G
#2410
0clk
#2420
1clk
b11111111111111111111100001111011 cyc
#2430
0clk
#2440
1clk
b11111111111111111111100001111100 cyc
#2450
0clk
#2460
1clk
b11111111111111111111100001111101 cyc
#2470
0clk
#2480
1clk
b11111111111111111111100001111110 cyc
#2490
0clk
#2500
1clk
b11111111111111111111100001111111 cyc
#2510
0clk
#2520
1clk
b11111111111111111111100010000000 cyc
#2530
0clk
#2540
1clk
b11111111111111111111100010000001 cyc
#2550
0clk
#2560
1clk
b11111111111111111111100010000010 cyc
0F
0G
#2570
0clk
#2580
1clk
b11111111111111111111100010000011 cyc
#2590
0clk
#2600
1clk
b11111111111111111111100010000100 cyc
#2610
0clk
#2620
1clk
b11111111111111111111100010000101 cyc
#2630
0clk
#2640
1clk
b11111111111111111111100010000110 cyc
#2650
0clk
#2660
1clk
b11111111111111111111100010000111 cyc
#2670
0clk
#2680
1clk
b11111111111111111111100010001000 cyc
#2690
0clk
#2700
1clk
b11111111111111111111100010001001 cyc
#2710
0clk
#2720
1clk
b11111111111111111111100010001010 cyc
1F
1G
#2730
0clk
#2740
1clk
b11111111111111111111100010001011 cyc
#2750
0clk
#2760
1clk
b11111111111111111111100010001100 cyc
#2770
0clk
#2780
1clk
b11111111111111111111100010001101 cyc
#2790
0clk
#2800
1clk
b11111111111111111111100010001110 cyc
#2810
0clk
#2820
1clk
b11111111111111111111100010001111 cyc
#2830
0clk
#2840
1clk
b11111111111111111111100010010000 cyc
#2850
0clk
#2860
1clk
b11111111111111111111100010010001 cyc
#2870
0clk
#2880
1clk
b11111111111111111111100010010010 cyc
0F
0G
#2890
0clk
#2900
1clk
b11111111111111111111100010010011 cyc
#2910
0clk
#2920
1clk
b11111111111111111111100010010100 cyc
#2930
0clk
#2940
1clk
b11111111111111111111100010010101 cyc
#2950
0clk
#2960
1clk
b11111111111111111111100010010110 cyc
#2970
0clk
#2980
1clk
b11111111111111111111100010010111 cyc
#2990
0clk
#3000
1clk
b11111111111111111111100010011000 cyc
#3010
0clk
#3020
1clk
b11111111111111111111100010011001 cyc
#3030
0clk
#3040
1clk
b11111111111111111111100010011010 cyc
1F
1G
#3050
0clk
#3060
1clk
b11111111111111111111100010011011 cyc
#3070
0clk
#3080
1clk
b11111111111111111111100010011100 cyc
#3090
0clk
#3100
1clk
b11111111111111111111100010011101 cyc
#3110
0clk
#3120
1clk
b11111111111111111111100010011110 cyc
#3130
0clk
#3140
1clk
b11111111111111111111100010011111 cyc
#3150
0clk
#3160
1clk
b11111111111111111111100010100000 cyc
#3170
0clk
#3180
1clk
b11111111111111111111100010100001 cyc
#3190
0clk
#3200
1clk
b11111111111111111111100010100010 cyc
#3210
0clk
#3220
1clk
b11111111111111111111100010100011 cyc
0F
0G
#3230
0clk
#3240
1clk
b11111111111111111111100010100100 cyc
#3250
0clk
#3260
1clk
b11111111111111111111100010100101 cyc
#3270
0clk
#3280
1clk
b11111111111111111111100010100110 cyc
#3290
0clk
#3300
1clk
b11111111111111111111100010100111 cyc
1JB
#3310
0clk
#3320
1clk
b11111111111111111111100010101000 cyc
0JB
#3330
0clk
#3340
1clk
b11111111111111111111100010101001 cyc
#3350
0clk
#3360
1clk
b11111111111111111111100010101010 cyc
1F
#3370
0clk
#3380
1clk
b11111111111111111111100010101011 cyc
1G
#3390
0clk
#3400
1clk
b11111111111111111111100010101100 cyc
#3410
0clk
#3420
1clk
b11111111111111111111100010101101 cyc
#3430
0clk
#3440
1clk
b11111111111111111111100010101110 cyc
#3450
0clk
#3460
1clk
b11111111111111111111100010101111 cyc
#3470
0clk
#3480
1clk
b11111111111111111111100010110000 cyc
#3490
0clk
#3500
1clk
b11111111111111111111100010110001 cyc
#3510
0clk
#3520
1clk
b11111111111111111111100010110010 cyc
#3530
0clk
#3540
1clk
b11111111111111111111100010110011 cyc
0F
0G
#3550
0clk
#3560
1clk
b11111111111111111111100010110100 cyc
#3570
0clk
#3580
1clk
b11111111111111111111100010110101 cyc
#3590
0clk
#3600
1clk
b11111111111111111111100010110110 cyc
#3610
0clk
#3620
1clk
b11111111111111111111100010110111 cyc
#3630
0clk
#3640
1clk
b11111111111111111111100010111000 cyc
#3650
0clk
#3660
1clk
b11111111111111111111100010111001 cyc
#3670
0clk
#3680
1clk
b11111111111111111111100010111010 cyc
#3690
0clk
#3700
1clk
b11111111111111111111100010111011 cyc
1F
1G
#3710
0clk
#3720
1clk
b11111111111111111111100010111100 cyc
#3730
0clk
#3740
1clk
b11111111111111111111100010111101 cyc
#3750
0clk
#3760
1clk
b11111111111111111111100010111110 cyc
#3770
0clk
#3780
1clk
b11111111111111111111100010111111 cyc
#3790
0clk
#3800
1clk
b11111111111111111111100011000000 cyc
#3810
0clk
#3820
1clk
b11111111111111111111100011000001 cyc
#3830
0clk
#3840
1clk
b11111111111111111111100011000010 cyc
#3850
0clk
#3860
1clk
b11111111111111111111100011000011 cyc
0F
0G
#3870
0clk
#3880
1clk
b11111111111111111111100011000100 cyc
#3890
0clk
#3900
1clk
b11111111111111111111100011000101 cyc
#3910
0clk
#3920
1clk
b11111111111111111111100011000110 cyc
#3930
0clk
#3940
1clk
b11111111111111111111100011000111 cyc
#3950
0clk
#3960
1clk
b11111111111111111111100011001000 cyc
#3970
0clk
#3980
1clk
b11111111111111111111100011001001 cyc
#3990
0clk
#4000
1clk
b11111111111111111111100011001010 cyc
#4010
0clk
#4020
1clk
b11111111111111111111100011001011 cyc
1F
1G
#4030
0clk
#4040
1clk
b11111111111111111111100011001100 cyc
#4050
0clk
#4060
1clk
b11111111111111111111100011001101 cyc
#4070
0clk
#4080
1clk
b11111111111111111111100011001110 cyc
#4090
0clk
#4100
1clk
b11111111111111111111100011001111 cyc
#4110
0clk
#4120
1clk
b11111111111111111111100011010000 cyc
#4130
0clk
#4140
1clk
b11111111111111111111100011010001 cyc
#4150
0clk
#4160
1clk
b11111111111111111111100011010010 cyc
#4170
0clk
#4180
1clk
b11111111111111111111100011010011 cyc
#4190
0clk
#4200
1clk
b11111111111111111111100011010100 cyc
0F
0G
b011101000111100001011111011001000110000101110100011000010101111101100101011011100110010001011111011100110111010000110010 FB
#4210
0clk
#4220
1clk
b11111111111111111111100011010101 cyc
#4230
0clk
#4240
1clk
b11111111111111111111100011010110 cyc
#4250
0clk
#4260
1clk
b11111111111111111111100011010111 cyc
#4270
0clk
#4280
1clk
b11111111111111111111100011011000 cyc
1JB
#4290
0clk
#4300
1clk
b11111111111111111111100011011001 cyc
0JB
#4310
0clk
#4320
1clk
b11111111111111111111100011011010 cyc
#4330
0clk
#4340
1clk
b11111111111111111111100011011011 cyc
1F
#4350
0clk
#4360
1clk
b11111111111111111111100011011100 cyc
1G
#4370
0clk
#4380
1clk
b11111111111111111111100011011101 cyc
#4390
0clk
#4400
1clk
b11111111111111111111100011011110 cyc
#4410
0clk
#4420
1clk
b11111111111111111111100011011111 cyc
#4430
0clk
#4440
1clk
b11111111111111111111100011100000 cyc
#4450
0clk
#4460
1clk
b11111111111111111111100011100001 cyc
#4470
0clk
#4480
1clk
b11111111111111111111100011100010 cyc
#4490
0clk
#4500
1clk
b11111111111111111111100011100011 cyc
#4510
0clk
#4520
1clk
b11111111111111111111100011100100 cyc
0F
0G
b00101100 EB
#4530
0clk
#4540
1clk
b11111111111111111111100011100101 cyc
#4550
0clk
#4560
1clk
b11111111111111111111100011100110 cyc
#4570
0clk
#4580
1clk
b11111111111111111111100011100111 cyc
#4590
0clk
#4600
1clk
b11111111111111111111100011101000 cyc
#4610
0clk
#4620
1clk
b11111111111111111111100011101001 cyc
#4630
0clk
#4640
1clk
b11111111111111111111100011101010 cyc
#4650
0clk
#4660
1clk
b11111111111111111111100011101011 cyc
#4670
0clk
#4680
1clk
b11111111111111111111100011101100 cyc
1F
1G
#4690
0clk
#4700
1clk
b11111111111111111111100011101101 cyc
#4710
0clk
#4720
1clk
b11111111111111111111100011101110 cyc
#4730
0clk
#4740
1clk
b11111111111111111111100011101111 cyc
#4750
0clk
#4760
1clk
b11111111111111111111100011110000 cyc
#4770
0clk
#4780
1clk
b11111111111111111111100011110001 cyc
#4790
0clk
#4800
1clk
b11111111111111111111100011110010 cyc
#4810
0clk
#4820
1clk
b11111111111111111111100011110011 cyc
#4830
0clk
#4840
1clk
b11111111111111111111100011110100 cyc
0F
0G
#4850
0clk
#4860
1clk
b11111111111111111111100011110101 cyc
b01011000 EB
#4870
0clk
#4880
1clk
b11111111111111111111100011110110 cyc
#4890
0clk
#4900
1clk
b11111111111111111111100011110111 cyc
#4910
0clk
#4920
1clk
b11111111111111111111100011111000 cyc
#4930
0clk
#4940
1clk
b11111111111111111111100011111001 cyc
#4950
0clk
#4960
1clk
b11111111111111111111100011111010 cyc
#4970
0clk
#4980
1clk
b11111111111111111111100011111011 cyc
#4990
0clk
#5000
1clk
b11111111111111111111100011111100 cyc
1F
1G
#5010
0clk
#5020
1clk
b11111111111111111111100011111101 cyc
#5030
0clk
#5040
1clk
b11111111111111111111100011111110 cyc
#5050
0clk
#5060
1clk
b11111111111111111111100011111111 cyc
#5070
0clk
#5080
1clk
b11111111111111111111100100000000 cyc
#5090
0clk
#5100
1clk
b11111111111111111111100100000001 cyc
#5110
0clk
#5120
1clk
b11111111111111111111100100000010 cyc
#5130
0clk
#5140
1clk
b11111111111111111111100100000011 cyc
#5150
0clk
#5160
1clk
b11111111111111111111100100000100 cyc
#5170
0clk
#5180
1clk
b11111111111111111111100100000101 cyc
0F
0G
b10110000 EB
#5190
0clk
#5200
1clk
b11111111111111111111100100000110 cyc
#5210
0clk
#5220
1clk
b11111111111111111111100100000111 cyc
#5230
0clk
#5240
1clk
b11111111111111111111100100001000 cyc
#5250
0clk
#5260
1clk
b11111111111111111111100100001001 cyc
1JB
#5270
0clk
#5280
1clk
b11111111111111111111100100001010 cyc
0JB
#5290
0clk
#5300
1clk
b11111111111111111111100100001011 cyc
#5310
0clk
#5320
1clk
b11111111111111111111100100001100 cyc
1F
#5330
0clk
#5340
1clk
b11111111111111111111100100001101 cyc
#5350
0clk
#5360
1clk
b11111111111111111111100100001110 cyc
#5370
0clk
#5380
1clk
b11111111111111111111100100001111 cyc
#5390
0clk
#5400
1clk
b11111111111111111111100100010000 cyc
#5410
0clk
#5420
1clk
b11111111111111111111100100010001 cyc
#5430
0clk
#5440
1clk
b11111111111111111111100100010010 cyc
#5450
0clk
#5460
1clk
b11111111111111111111100100010011 cyc
#5470
0clk
#5480
1clk
b11111111111111111111100100010100 cyc
#5490
0clk
#5500
1clk
b11111111111111111111100100010101 cyc
1G
b01100000 EB
#5510
0clk
#5520
1clk
b11111111111111111111100100010110 cyc
#5530
0clk
#5540
1clk
b11111111111111111111100100010111 cyc
#5550
0clk
#5560
1clk
b11111111111111111111100100011000 cyc
#5570
0clk
#5580
1clk
b11111111111111111111100100011001 cyc
#5590
0clk
#5600
1clk
b11111111111111111111100100011010 cyc
1HB
#5610
0clk
#5620
1clk
b11111111111111111111100100011011 cyc
#5630
0clk
#5640
1clk
b11111111111111111111100100011100 cyc
#5650
0clk
#5660
1clk
b11111111111111111111100100011101 cyc
0F
#5670
0clk
#5680
1clk
b11111111111111111111100100011110 cyc
#5690
0clk
#5700
1clk
b11111111111111111111100100011111 cyc
#5710
0clk
#5720
1clk
b11111111111111111111100100100000 cyc
#5730
0clk
#5740
1clk
b11111111111111111111100100100001 cyc
#5750
0clk
#5760
1clk
b11111111111111111111100100100010 cyc
#5770
0clk
#5780
1clk
b11111111111111111111100100100011 cyc
#5790
0clk
#5800
1clk
b11111111111111111111100100100100 cyc
#5810
0clk
#5820
1clk
b11111111111111111111100100100101 cyc
0G
b00000001 IB
#5830
0clk
#5840
1clk
b11111111111111111111100100100110 cyc
b11000000 EB
#5850
0clk
#5860
1clk
b11111111111111111111100100100111 cyc
#5870
0clk
#5880
1clk
b11111111111111111111100100101000 cyc
#5890
0clk
#5900
1clk
b11111111111111111111100100101001 cyc
#5910
0clk
#5920
1clk
b11111111111111111111100100101010 cyc
0HB
#5930
0clk
#5940
1clk
b11111111111111111111100100101011 cyc
#5950
0clk
#5960
1clk
b11111111111111111111100100101100 cyc
#5970
0clk
#5980
1clk
b11111111111111111111100100101101 cyc
1F
#5990
0clk
#6000
1clk
b11111111111111111111100100101110 cyc
#6010
0clk
#6020
1clk
b11111111111111111111100100101111 cyc
#6030
0clk
#6040
1clk
b11111111111111111111100100110000 cyc
#6050
0clk
#6060
1clk
b11111111111111111111100100110001 cyc
#6070
0clk
#6080
1clk
b11111111111111111111100100110010 cyc
#6090
0clk
#6100
1clk
b11111111111111111111100100110011 cyc
#6110
0clk
#6120
1clk
b11111111111111111111100100110100 cyc
#6130
0clk
#6140
1clk
b11111111111111111111100100110101 cyc
b00000010 IB
#6150
0clk
#6160
1clk
b11111111111111111111100100110110 cyc
1G
b10000000 EB
#6170
0clk
#6180
1clk
b11111111111111111111100100110111 cyc
#6190
0clk
#6200
1clk
b11111111111111111111100100111000 cyc
#6210
0clk
#6220
1clk
b11111111111111111111100100111001 cyc
#6230
0clk
#6240
1clk
b11111111111111111111100100111010 cyc
1HB
#6250
0clk
#6260
1clk
b11111111111111111111100100111011 cyc
#6270
0clk
#6280
1clk
b11111111111111111111100100111100 cyc
#6290
0clk
#6300
1clk
b11111111111111111111100100111101 cyc
#6310
0clk
#6320
1clk
b11111111111111111111100100111110 cyc
0F
0G
#6330
0clk
#6340
1clk
b11111111111111111111100100111111 cyc
#6350
0clk
#6360
1clk
b11111111111111111111100101000000 cyc
#6370
0clk
#6380
1clk
b11111111111111111111100101000001 cyc
#6390
0clk
#6400
1clk
b11111111111111111111100101000010 cyc
#6410
0clk
#6420
1clk
b11111111111111111111100101000011 cyc
#6430
0clk
#6440
1clk
b11111111111111111111100101000100 cyc
#6450
0clk
#6460
1clk
b11111111111111111111100101000101 cyc
b00000101 IB
#6470
0clk
#6480
1clk
b11111111111111111111100101000110 cyc
1F
1G
b00000000 EB
#6490
0clk
#6500
1clk
b11111111111111111111100101000111 cyc
#6510
0clk
#6520
1clk
b11111111111111111111100101001000 cyc
#6530
0clk
#6540
1clk
b11111111111111111111100101001001 cyc
#6550
0clk
#6560
1clk
b11111111111111111111100101001010 cyc
1JB
#6570
0clk
#6580
1clk
b11111111111111111111100101001011 cyc
0JB
#6590
0clk
#6600
1clk
b11111111111111111111100101001100 cyc
#6610
0clk
#6620
1clk
b11111111111111111111100101001101 cyc
#6630
0clk
#6640
1clk
b11111111111111111111100101001110 cyc
0F
#6650
0clk
#6660
1clk
b11111111111111111111100101001111 cyc
#6670
0clk
#6680
1clk
b11111111111111111111100101010000 cyc
#6690
0clk
#6700
1clk
b11111111111111111111100101010001 cyc
#6710
0clk
#6720
1clk
b11111111111111111111100101010010 cyc
#6730
0clk
#6740
1clk
b11111111111111111111100101010011 cyc
#6750
0clk
#6760
1clk
b11111111111111111111100101010100 cyc
#6770
0clk
#6780
1clk
b11111111111111111111100101010101 cyc
#6790
0clk
#6800
1clk
b11111111111111111111100101010110 cyc
0G
b00001011 IB
#6810
0clk
#6820
1clk
b11111111111111111111100101010111 cyc
b011101000111100001011111011100000110111101110011011101000110000101101101011000100110110001100101010111110111001101110100 FB
#6830
0clk
#6840
1clk
b11111111111111111111100101011000 cyc
#6850
0clk
#6860
1clk
b11111111111111111111100101011001 cyc
#6870
0clk
#6880
1clk
b11111111111111111111100101011010 cyc
#6890
0clk
#6900
1clk
b11111111111111111111100101011011 cyc
0HB
#6910
0clk
#6920
1clk
b11111111111111111111100101011100 cyc
#6930
0clk
#6940
1clk
b11111111111111111111100101011101 cyc
#6950
0clk
#6960
1clk
b11111111111111111111100101011110 cyc
1F
1G
#6970
0clk
#6980
1clk
b11111111111111111111100101011111 cyc
#6990
0clk
#7000
1clk
b11111111111111111111100101100000 cyc
#7010
0clk
#7020
1clk
b11111111111111111111100101100001 cyc
#7030
0clk
#7040
1clk
b11111111111111111111100101100010 cyc
#7050
0clk
#7060
1clk
b11111111111111111111100101100011 cyc
#7070
0clk
#7080
1clk
b11111111111111111111100101100100 cyc
#7090
0clk
#7100
1clk
b11111111111111111111100101100101 cyc
#7110
0clk
#7120
1clk
b11111111111111111111100101100110 cyc
b00010110 IB
#7130
0clk
#7140
1clk
b11111111111111111111100101100111 cyc
0F
0G
b10110001 EB
#7150
0clk
#7160
1clk
b11111111111111111111100101101000 cyc
#7170
0clk
#7180
1clk
b11111111111111111111100101101001 cyc
#7190
0clk
#7200
1clk
b11111111111111111111100101101010 cyc
#7210
0clk
#7220
1clk
b11111111111111111111100101101011 cyc
1JB
#7230
0clk
#7240
1clk
b11111111111111111111100101101100 cyc
0JB
#7250
0clk
#7260
1clk
b11111111111111111111100101101101 cyc
#7270
0clk
#7280
1clk
b11111111111111111111100101101110 cyc
1F
#7290
0clk
#7300
1clk
b11111111111111111111100101101111 cyc
#7310
0clk
#7320
1clk
b11111111111111111111100101110000 cyc
#7330
0clk
#7340
1clk
b11111111111111111111100101110001 cyc
#7350
0clk
#7360
1clk
b11111111111111111111100101110010 cyc
#7370
0clk
#7380
1clk
b11111111111111111111100101110011 cyc
#7390
0clk
#7400
1clk
b11111111111111111111100101110100 cyc
#7410
0clk
#7420
1clk
b11111111111111111111100101110101 cyc
#7430
0clk
#7440
1clk
b11111111111111111111100101110110 cyc
#7450
0clk
#7460
1clk
b11111111111111111111100101110111 cyc
1G
b01100010 EB
b00101100 IB
#7470
0clk
#7480
1clk
b11111111111111111111100101111000 cyc
#7490
0clk
#7500
1clk
b11111111111111111111100101111001 cyc
#7510
0clk
#7520
1clk
b11111111111111111111100101111010 cyc
#7530
0clk
#7540
1clk
b11111111111111111111100101111011 cyc
#7550
0clk
#7560
1clk
b11111111111111111111100101111100 cyc
1HB
#7570
0clk
#7580
1clk
b11111111111111111111100101111101 cyc
#7590
0clk
#7600
1clk
b11111111111111111111100101111110 cyc
#7610
0clk
#7620
1clk
b11111111111111111111100101111111 cyc
0F
#7630
0clk
#7640
1clk
b11111111111111111111100110000000 cyc
#7650
0clk
#7660
1clk
b11111111111111111111100110000001 cyc
#7670
0clk
#7680
1clk
b11111111111111111111100110000010 cyc
#7690
0clk
#7700
1clk
b11111111111111111111100110000011 cyc
#7710
0clk
#7720
1clk
b11111111111111111111100110000100 cyc
#7730
0clk
#7740
1clk
b11111111111111111111100110000101 cyc
