synthesis/rev_debug1/IICE.vcd
$date
Fri Aug 25 14:17:20 2017
$end
$version
Identify 1.1
$end
$timescale
1 ns
$end
$comment
{Identify created VCD dump}
$end
$scope module m2s010_som $end
$var integer 32 cyc identify_cycle       $end
$var reg     1  clk identify_sampleclock $end
$scope module rtl $end
$scope module CommsFPGA_top_0 $end
$var reg 1 A manchester_in $end
$var reg 1 B manch_out_p $end
$scope module behavioral $end
$var reg 9 C rx_fifo_dout[8:0] $end
$var reg 9 D rx_fifo_din_pipe[8:0] $end
$var reg 1 E rx_fifo_overflow $end
$scope module PROCESSOR_INTERFACE_INST $end
$var reg 1 F apb3_clk $end
$var reg 1 G apb3_sel $end
$var reg 1 H apb3_enable $end
$var reg 8 I apb3_addr[7:0] $end
$var reg 8 J apb3_wdata[7:0] $end
$var reg 8 K apb3_rdata[7:0] $end
$var reg 1 L apb3_ready $end
$var reg 1 M apb3_write $end
$var reg 1 N rx_crc_error $end
$var reg 1 O int $end
$var reg 1 P tx_packet_complt $end
$var reg 1 Q col_detect $end
$var reg 1 R rx_packet_avail_int $end
$scope module behavioral $end
$var reg 1 S irx_fifo_rd_en $end
$var reg 8 T int_reg[7:0] $end
$var reg 3 U up_eop_sync[2:0] $end
$var reg 8 V rx_packet_depth[7:0] $end
$var reg 1 W rx_packet_depth_status $end
$scope module INTERRUPT_INST $end
$var reg 1 X tx_fifo_underrun $end
$var reg 1 Y tx_fifo_overflow $end
$var reg 1 Z rx_fifo_underrun $end
$scope module behavioral $end
$var reg 1 AB irx_packet_avail_int $end
$var reg 1 BB block_int_until_rd $end
$upscope $end
$upscope $end
$upscope $end
$upscope $end
$scope module FIFOS_INST $end
$var reg 9 CB rx_fifo_dout[8:0] $end
$var reg 1 DB rx_fifo_empty $end
$var reg 1 EB rx_fifo_full $end
$var reg 1 FB rx_fifo_overflow $end
$var reg 1 GB rx_fifo_underrun $end
$scope module behavioral $end
$var reg 2 HB readfifo_write_ptr[1:0] $end
$var reg 2 IB readfifo_read_ptr[1:0] $end
$var reg 4 JB irx_fifo_wr_en[3:0] $end
$var reg 4 KB irx_fifo_rd_en[3:0] $end
$upscope $end
$upscope $end
$scope module MANCHESTER_ENCODER_INST $end
$scope module behavioral $end
$var reg 1 LB man_data $end
$scope module TRANSMIT_SM $end
$scope module behavioral $end
$var reg 120 MB tx_state $end
$upscope $end
$upscope $end
$upscope $end
$upscope $end
$scope module MANCHESTER_DECODER_INST $end
$scope module v1 $end
$scope module MANCHESTER_DECODER_ADAPTER_INST $end
$scope module v1 $end
$var reg 4 NB clkdiv[3:0] $end
$var reg 1 OB inrz_data $end
$var reg 8 PB s2p_data[7:0] $end
$var reg 1 QB clock_adjust $end
$upscope $end
$upscope $end
$scope module AFE_RX_STATE_MACHINE $end
$scope module behavioral $end
$var reg 136 RB afe_rx_state $end
$upscope $end
$upscope $end
$scope module ReadFIFO_Write_SM_PROC $end
$scope module behavioral $end
$var reg 112 SB readfifo_wr_state $end
$upscope $end
$upscope $end
$upscope $end
$upscope $end
$upscope $end
$upscope $end
$upscope $end
$upscope $end
$enddefinitions $end
#0
1clk
b11111111111111111111111001101000 cyc
0A
0B
b100100100 C
b011111111 D
0E
0F
0G
0H
b00010100 I
b00000000 J
b11111111 K
0L
0M
0N
1O
0P
0Q
1R
0S
b01000000 T
b000 U
b00000111 V
1W
0X
0Y
0Z
1AB
1BB
b100100100 CB
0DB
0EB
0FB
0GB
b11 HB
b00 IB
b0000 JB
b0000 KB
0LB
b011101000111100001011111011100000110111101110011011101000110000101101101011000100110110001100101010111110111001101110100 MB
b1010 NB
1OB
b11111111 PB
0QB
b0111000001100001011000110110101101100101011101000101111101101001011011100101111101110011011101000010000000100000001000000010000000100000 RB
b0111001001111000010111110110010101101110011001000010000000100000001000000010000000100000001000000010000000100000 SB
#10
0clk
#20
1clk
b11111111111111111111111001101001 cyc
1F
b1011 NB
#30
0clk
#40
1clk
b11111111111111111111111001101010 cyc
0F
b1100 NB
#50
0clk
#60
1clk
b11111111111111111111111001101011 cyc
1F
b1101 NB
0OB
#70
0clk
#80
1clk
b11111111111111111111111001101100 cyc
0F
b1110 NB
#90
0clk
#100
1clk
b11111111111111111111111001101101 cyc
b1111 NB
#110
0clk
#120
1clk
b11111111111111111111111001101110 cyc
1F
b0000 NB
#130
0clk
#140
1clk
b11111111111111111111111001101111 cyc
0F
b0001 NB
#150
0clk
#160
1clk
b11111111111111111111111001110000 cyc
1F
b0010 NB
#170
0clk
#180
1clk
b11111111111111111111111001110001 cyc
0F
b0011 NB
#190
0clk
#200
1clk
b11111111111111111111111001110010 cyc
1F
b0100 NB
#210
0clk
#220
1clk
b11111111111111111111111001110011 cyc
0F
b0101 NB
1OB
#230
0clk
#240
1clk
b11111111111111111111111001110100 cyc
1F
b0110 NB
#250
0clk
#260
1clk
b11111111111111111111111001110101 cyc
b0111 NB
#270
0clk
#280
1clk
b11111111111111111111111001110110 cyc
0F
b1000 NB
#290
0clk
#300
1clk
b11111111111111111111111001110111 cyc
1F
b1001 NB
#310
0clk
#320
1clk
b11111111111111111111111001111000 cyc
0F
b1010 NB
#330
0clk
#340
1clk
b11111111111111111111111001111001 cyc
1F
b1011 NB
#350
0clk
#360
1clk
b11111111111111111111111001111010 cyc
0F
b1100 NB
#370
0clk
#380
1clk
b11111111111111111111111001111011 cyc
1F
b1101 NB
0OB
#390
0clk
#400
1clk
b11111111111111111111111001111100 cyc
0F
b1110 NB
#410
0clk
#420
1clk
b11111111111111111111111001111101 cyc
b1111 NB
#430
0clk
#440
1clk
b11111111111111111111111001111110 cyc
1F
b0000 NB
#450
0clk
#460
1clk
b11111111111111111111111001111111 cyc
0F
b0001 NB
#470
0clk
#480
1clk
b11111111111111111111111010000000 cyc
1F
b0010 NB
#490
0clk
#500
1clk
b11111111111111111111111010000001 cyc
0F
b0011 NB
#510
0clk
#520
1clk
b11111111111111111111111010000010 cyc
1F
b0100 NB
#530
0clk
#540
1clk
b11111111111111111111111010000011 cyc
0F
b0101 NB
1OB
#550
0clk
#560
1clk
b11111111111111111111111010000100 cyc
b0110 NB
#570
0clk
#580
1clk
b11111111111111111111111010000101 cyc
1F
b0111 NB
#590
0clk
#600
1clk
b11111111111111111111111010000110 cyc
0F
b1000 NB
#610
0clk
#620
1clk
b11111111111111111111111010000111 cyc
1F
1G
b1001 NB
#630
0clk
#640
1clk
b11111111111111111111111010001000 cyc
0F
b1010 NB
#650
0clk
#660
1clk
b11111111111111111111111010001001 cyc
1F
1H
b1011 NB
#670
0clk
#680
1clk
b11111111111111111111111010001010 cyc
0F
b1100 NB
#690
0clk
#700
1clk
b11111111111111111111111010001011 cyc
1F
b1101 NB
0OB
#710
0clk
#720
1clk
b11111111111111111111111010001100 cyc
b01000000 K
b1110 NB
#730
0clk
#740
1clk
b11111111111111111111111010001101 cyc
0F
b1111 NB
#750
0clk
#760
1clk
b11111111111111111111111010001110 cyc
1F
1L
b0000 NB
#770
0clk
#780
1clk
b11111111111111111111111010001111 cyc
0F
b0001 NB
#790
0clk
#800
1clk
b11111111111111111111111010010000 cyc
1F
0H
b0010 NB
#810
0clk
#820
1clk
b11111111111111111111111010010001 cyc
0F
0G
b11111111 K
0L
b0011 NB
#830
0clk
#840
1clk
b11111111111111111111111010010010 cyc
1F
b0100 NB
#850
0clk
#860
1clk
b11111111111111111111111010010011 cyc
0F
b0101 NB
1OB
#870
0clk
#880
1clk
b11111111111111111111111010010100 cyc
b0110 NB
#890
0clk
#900
1clk
b11111111111111111111111010010101 cyc
1F
b0111 NB
#910
0clk
#920
1clk
b11111111111111111111111010010110 cyc
0F
b1000 NB
#930
0clk
#940
1clk
b11111111111111111111111010010111 cyc
1F
b1001 NB
#950
0clk
#960
1clk
b11111111111111111111111010011000 cyc
0F
b1010 NB
#970
0clk
#980
1clk
b11111111111111111111111010011001 cyc
1F
b1011 NB
#990
0clk
#1000
1clk
b11111111111111111111111010011010 cyc
0F
b1100 NB
#1010
0clk
#1020
1clk
b11111111111111111111111010011011 cyc
b1101 NB
0OB
#1030
0clk
#1040
1clk
b11111111111111111111111010011100 cyc
1F
b1110 NB
#1050
0clk
#1060
1clk
b11111111111111111111111010011101 cyc
0F
b1111 NB
#1070
0clk
#1080
1clk
b11111111111111111111111010011110 cyc
1F
b0000 NB
#1090
0clk
#1100
1clk
b11111111111111111111111010011111 cyc
0F
b0001 NB
#1110
0clk
#1120
1clk
b11111111111111111111111010100000 cyc
1F
b0010 NB
#1130
0clk
#1140
1clk
b11111111111111111111111010100001 cyc
0F
b0011 NB
#1150
0clk
#1160
1clk
b11111111111111111111111010100010 cyc
1F
b0100 NB
#1170
0clk
#1180
1clk
b11111111111111111111111010100011 cyc
b0101 NB
1OB
#1190
0clk
#1200
1clk
b11111111111111111111111010100100 cyc
0F
b0110 NB
#1210
0clk
#1220
1clk
b11111111111111111111111010100101 cyc
1F
b0111 NB
#1230
0clk
#1240
1clk
b11111111111111111111111010100110 cyc
0F
b1000 NB
#1250
0clk
#1260
1clk
b11111111111111111111111010100111 cyc
1F
b1001 NB
#1270
0clk
#1280
1clk
b11111111111111111111111010101000 cyc
0F
b1010 NB
#1290
0clk
#1300
1clk
b11111111111111111111111010101001 cyc
1F
b1011 NB
#1310
0clk
#1320
1clk
b11111111111111111111111010101010 cyc
0F
b1100 NB
#1330
0clk
#1340
1clk
b11111111111111111111111010101011 cyc
b1101 NB
0OB
#1350
0clk
#1360
1clk
b11111111111111111111111010101100 cyc
1F
b1110 NB
#1370
0clk
#1380
1clk
b11111111111111111111111010101101 cyc
0F
b1111 NB
#1390
0clk
#1400
1clk
b11111111111111111111111010101110 cyc
1F
b0000 NB
#1410
0clk
#1420
1clk
b11111111111111111111111010101111 cyc
0F
b0001 NB
#1430
0clk
#1440
1clk
b11111111111111111111111010110000 cyc
1F
b0010 NB
#1450
0clk
#1460
1clk
b11111111111111111111111010110001 cyc
0F
b0011 NB
#1470
0clk
#1480
1clk
b11111111111111111111111010110010 cyc
b0100 NB
#1490
0clk
#1500
1clk
b11111111111111111111111010110011 cyc
1F
b0101 NB
1OB
#1510
0clk
#1520
1clk
b11111111111111111111111010110100 cyc
0F
b0110 NB
#1530
0clk
#1540
1clk
b11111111111111111111111010110101 cyc
1F
b0111 NB
#1550
0clk
#1560
1clk
b11111111111111111111111010110110 cyc
0F
b1000 NB
#1570
0clk
#1580
1clk
b11111111111111111111111010110111 cyc
1F
b1001 NB
#1590
0clk
#1600
1clk
b11111111111111111111111010111000 cyc
0F
b1010 NB
#1610
0clk
#1620
1clk
b11111111111111111111111010111001 cyc
1F
b1011 NB
#1630
0clk
#1640
1clk
b11111111111111111111111010111010 cyc
b1100 NB
#1650
0clk
#1660
1clk
b11111111111111111111111010111011 cyc
0F
b1101 NB
0OB
#1670
0clk
#1680
1clk
b11111111111111111111111010111100 cyc
1F
b1110 NB
#1690
0clk
#1700
1clk
b11111111111111111111111010111101 cyc
0F
b1111 NB
#1710
0clk
#1720
1clk
b11111111111111111111111010111110 cyc
1F
b0000 NB
#1730
0clk
#1740
1clk
b11111111111111111111111010111111 cyc
0F
b0001 NB
#1750
0clk
#1760
1clk
b11111111111111111111111011000000 cyc
1F
b0010 NB
#1770
0clk
#1780
1clk
b11111111111111111111111011000001 cyc
0F
b0011 NB
#1790
0clk
#1800
1clk
b11111111111111111111111011000010 cyc
b0100 NB
#1810
0clk
#1820
1clk
b11111111111111111111111011000011 cyc
1F
b0101 NB
1OB
#1830
0clk
#1840
1clk
b11111111111111111111111011000100 cyc
0F
b0110 NB
#1850
0clk
#1860
1clk
b11111111111111111111111011000101 cyc
1F
b0111 NB
#1870
0clk
#1880
1clk
b11111111111111111111111011000110 cyc
0F
b1000 NB
#1890
0clk
#1900
1clk
b11111111111111111111111011000111 cyc
1F
b1001 NB
#1910
0clk
#1920
1clk
b11111111111111111111111011001000 cyc
0F
b1010 NB
#1930
0clk
#1940
1clk
b11111111111111111111111011001001 cyc
b1011 NB
#1950
0clk
#1960
1clk
b11111111111111111111111011001010 cyc
1F
b1100 NB
#1970
0clk
#1980
1clk
b11111111111111111111111011001011 cyc
0F
b1101 NB
0OB
#1990
0clk
#2000
1clk
b11111111111111111111111011001100 cyc
1F
b1110 NB
#2010
0clk
#2020
1clk
b11111111111111111111111011001101 cyc
0F
b1111 NB
#2030
0clk
#2040
1clk
b11111111111111111111111011001110 cyc
1F
b0000 NB
#2050
0clk
#2060
1clk
b11111111111111111111111011001111 cyc
0F
b0001 NB
#2070
0clk
#2080
1clk
b11111111111111111111111011010000 cyc
1F
b0010 NB
#2090
0clk
#2100
1clk
b11111111111111111111111011010001 cyc
b0011 NB
#2110
0clk
#2120
1clk
b11111111111111111111111011010010 cyc
0F
b0100 NB
#2130
0clk
#2140
1clk
b11111111111111111111111011010011 cyc
1F
b0101 NB
1OB
#2150
0clk
#2160
1clk
b11111111111111111111111011010100 cyc
0F
b0110 NB
#2170
0clk
#2180
1clk
b11111111111111111111111011010101 cyc
1F
b0111 NB
#2190
0clk
#2200
1clk
b11111111111111111111111011010110 cyc
0F
b1000 NB
#2210
0clk
#2220
1clk
b11111111111111111111111011010111 cyc
1F
b1001 NB
#2230
0clk
#2240
1clk
b11111111111111111111111011011000 cyc
0F
b1010 NB
#2250
0clk
#2260
1clk
b11111111111111111111111011011001 cyc
b1011 NB
#2270
0clk
#2280
1clk
b11111111111111111111111011011010 cyc
1F
b1100 NB
#2290
0clk
#2300
1clk
b11111111111111111111111011011011 cyc
0F
b1101 NB
0OB
#2310
0clk
#2320
1clk
b11111111111111111111111011011100 cyc
1F
b1110 NB
#2330
0clk
#2340
1clk
b11111111111111111111111011011101 cyc
0F
b1111 NB
#2350
0clk
#2360
1clk
b11111111111111111111111011011110 cyc
1F
b0000 NB
#2370
0clk
#2380
1clk
b11111111111111111111111011011111 cyc
0F
b0001 NB
#2390
0clk
#2400
1clk
b11111111111111111111111011100000 cyc
b0010 NB
#2410
0clk
#2420
1clk
b11111111111111111111111011100001 cyc
1F
b0011 NB
#2430
0clk
#2440
1clk
b11111111111111111111111011100010 cyc
0F
b0100 NB
#2450
0clk
#2460
1clk
b11111111111111111111111011100011 cyc
1F
1G
b0101 NB
1OB
#2470
0clk
#2480
1clk
b11111111111111111111111011100100 cyc
0F
b0110 NB
#2490
0clk
#2500
1clk
b11111111111111111111111011100101 cyc
1F
1H
b0111 NB
#2510
0clk
#2520
1clk
b11111111111111111111111011100110 cyc
0F
b1000 NB
#2530
0clk
#2540
1clk
b11111111111111111111111011100111 cyc
1F
b1001 NB
#2550
0clk
#2560
1clk
b11111111111111111111111011101000 cyc
b01000000 K
b1010 NB
#2570
0clk
#2580
1clk
b11111111111111111111111011101001 cyc
0F
b1011 NB
#2590
0clk
#2600
1clk
b11111111111111111111111011101010 cyc
1F
1L
b1100 NB
#2610
0clk
#2620
1clk
b11111111111111111111111011101011 cyc
0F
b1101 NB
0OB
#2630
0clk
#2640
1clk
b11111111111111111111111011101100 cyc
1F
0H
b1110 NB
#2650
0clk
#2660
1clk
b11111111111111111111111011101101 cyc
0F
0G
b11111111 K
0L
b1111 NB
#2670
0clk
#2680
1clk
b11111111111111111111111011101110 cyc
1F
b0000 NB
#2690
0clk
#2700
1clk
b11111111111111111111111011101111 cyc
0F
b0001 NB
#2710
0clk
#2720
1clk
b11111111111111111111111011110000 cyc
b0010 NB
#2730
0clk
#2740
1clk
b11111111111111111111111011110001 cyc
1F
b0011 NB
#2750
0clk
#2760
1clk
b11111111111111111111111011110010 cyc
0F
b0100 NB
#2770
0clk
#2780
1clk
b11111111111111111111111011110011 cyc
1F
b0101 NB
1OB
#2790
0clk
#2800
1clk
b11111111111111111111111011110100 cyc
0F
b0110 NB
#2810
0clk
#2820
1clk
b11111111111111111111111011110101 cyc
1F
b0111 NB
#2830
0clk
#2840
1clk
b11111111111111111111111011110110 cyc
0F
b1000 NB
#2850
0clk
#2860
1clk
b11111111111111111111111011110111 cyc
b1001 NB
#2870
0clk
#2880
1clk
b11111111111111111111111011111000 cyc
1F
b1010 NB
#2890
0clk
#2900
1clk
b11111111111111111111111011111001 cyc
0F
b1011 NB
#2910
0clk
#2920
1clk
b11111111111111111111111011111010 cyc
1F
b1100 NB
#2930
0clk
#2940
1clk
b11111111111111111111111011111011 cyc
0F
b1101 NB
0OB
#2950
0clk
#2960
1clk
b11111111111111111111111011111100 cyc
1F
b1110 NB
#2970
0clk
#2980
1clk
b11111111111111111111111011111101 cyc
0F
b1111 NB
#2990
0clk
#3000
1clk
b11111111111111111111111011111110 cyc
1F
b0000 NB
#3010
0clk
#3020
1clk
b11111111111111111111111011111111 cyc
b0001 NB
#3030
0clk
#3040
1clk
b11111111111111111111111100000000 cyc
0F
b0010 NB
#3050
0clk
#3060
1clk
b11111111111111111111111100000001 cyc
1F
b0011 NB
#3070
0clk
#3080
1clk
b11111111111111111111111100000010 cyc
0F
b0100 NB
#3090
0clk
#3100
1clk
b11111111111111111111111100000011 cyc
1F
b0101 NB
1OB
#3110
0clk
#3120
1clk
b11111111111111111111111100000100 cyc
0F
b0110 NB
#3130
0clk
#3140
1clk
b11111111111111111111111100000101 cyc
1F
b0111 NB
#3150
0clk
#3160
1clk
b11111111111111111111111100000110 cyc
0F
b1000 NB
#3170
0clk
#3180
1clk
b11111111111111111111111100000111 cyc
b1001 NB
#3190
0clk
#3200
1clk
b11111111111111111111111100001000 cyc
1F
b1010 NB
#3210
0clk
#3220
1clk
b11111111111111111111111100001001 cyc
0F
b1011 NB
#3230
0clk
#3240
1clk
b11111111111111111111111100001010 cyc
1F
b1100 NB
#3250
0clk
#3260
1clk
b11111111111111111111111100001011 cyc
0F
b1101 NB
0OB
#3270
0clk
#3280
1clk
b11111111111111111111111100001100 cyc
1F
b1110 NB
#3290
0clk
#3300
1clk
b11111111111111111111111100001101 cyc
0F
b1111 NB
#3310
0clk
#3320
1clk
b11111111111111111111111100001110 cyc
b0000 NB
#3330
0clk
#3340
1clk
b11111111111111111111111100001111 cyc
1F
b0001 NB
#3350
0clk
#3360
1clk
b11111111111111111111111100010000 cyc
0F
b0010 NB
#3370
0clk
#3380
1clk
b11111111111111111111111100010001 cyc
1F
b0011 NB
#3390
0clk
#3400
1clk
b11111111111111111111111100010010 cyc
0F
b0100 NB
#3410
0clk
#3420
1clk
b11111111111111111111111100010011 cyc
1F
b0101 NB
1OB
#3430
0clk
#3440
1clk
b11111111111111111111111100010100 cyc
0F
b011101000111100001011111011001010110111001100100010111110111001101110100001000000010000000100000001000000010000000100000 MB
b0110 NB
#3450
0clk
#3460
1clk
b11111111111111111111111100010101 cyc
1F
b0111 NB
#3470
0clk
#3480
1clk
b11111111111111111111111100010110 cyc
b1000 NB
#3490
0clk
#3500
1clk
b11111111111111111111111100010111 cyc
0F
b1001 NB
#3510
0clk
#3520
1clk
b11111111111111111111111100011000 cyc
1F
b1010 NB
#3530
0clk
#3540
1clk
b11111111111111111111111100011001 cyc
0F
b1011 NB
#3550
0clk
#3560
1clk
b11111111111111111111111100011010 cyc
1F
b1100 NB
#3570
0clk
#3580
1clk
b11111111111111111111111100011011 cyc
0F
b1101 NB
0OB
#3590
0clk
#3600
1clk
b11111111111111111111111100011100 cyc
1F
b1110 NB
#3610
0clk
#3620
1clk
b11111111111111111111111100011101 cyc
0F
b1111 NB
#3630
0clk
#3640
1clk
b11111111111111111111111100011110 cyc
b0000 NB
#3650
0clk
#3660
1clk
b11111111111111111111111100011111 cyc
1F
b0001 NB
#3670
0clk
#3680
1clk
b11111111111111111111111100100000 cyc
0F
b0010 NB
#3690
0clk
#3700
1clk
b11111111111111111111111100100001 cyc
1F
b0011 NB
#3710
0clk
#3720
1clk
b11111111111111111111111100100010 cyc
0F
b0100 NB
#3730
0clk
#3740
1clk
b11111111111111111111111100100011 cyc
1F
b0101 NB
1OB
#3750
0clk
#3760
1clk
b11111111111111111111111100100100 cyc
0F
b0110 NB
#3770
0clk
#3780
1clk
b11111111111111111111111100100101 cyc
b0111 NB
#3790
0clk
#3800
1clk
b11111111111111111111111100100110 cyc
1F
b1000 NB
#3810
0clk
#3820
1clk
b11111111111111111111111100100111 cyc
0F
b1001 NB
#3830
0clk
#3840
1clk
b11111111111111111111111100101000 cyc
1F
b1010 NB
#3850
0clk
#3860
1clk
b11111111111111111111111100101001 cyc
0F
b1011 NB
#3870
0clk
#3880
1clk
b11111111111111111111111100101010 cyc
1F
b1100 NB
#3890
0clk
#3900
1clk
b11111111111111111111111100101011 cyc
0F
b1101 NB
0OB
#3910
0clk
#3920
1clk
b11111111111111111111111100101100 cyc
1F
b1110 NB
#3930
0clk
#3940
1clk
b11111111111111111111111100101101 cyc
b1111 NB
#3950
0clk
#3960
1clk
b11111111111111111111111100101110 cyc
0F
b0000 NB
#3970
0clk
#3980
1clk
b11111111111111111111111100101111 cyc
1F
b0001 NB
#3990
0clk
#4000
1clk
b11111111111111111111111100110000 cyc
0F
b0010 NB
#4010
0clk
#4020
1clk
b11111111111111111111111100110001 cyc
1F
b0011 NB
#4030
0clk
#4040
1clk
b11111111111111111111111100110010 cyc
0F
b0100 NB
#4050
0clk
#4060
1clk
b11111111111111111111111100110011 cyc
1F
b0101 NB
1OB
#4070
0clk
#4080
1clk
b11111111111111111111111100110100 cyc
0F
b0110 NB
#4090
0clk
#4100
1clk
b11111111111111111111111100110101 cyc
b0111 NB
#4110
0clk
#4120
1clk
b11111111111111111111111100110110 cyc
1F
b1000 NB
#4130
0clk
#4140
1clk
b11111111111111111111111100110111 cyc
0F
b1001 NB
#4150
0clk
#4160
1clk
b11111111111111111111111100111000 cyc
1F
b1010 NB
#4170
0clk
#4180
1clk
b11111111111111111111111100111001 cyc
0F
b1011 NB
#4190
0clk
#4200
1clk
b11111111111111111111111100111010 cyc
1F
b1100 NB
#4210
0clk
#4220
1clk
b11111111111111111111111100111011 cyc
0F
b1101 NB
0OB
#4230
0clk
#4240
1clk
b11111111111111111111111100111100 cyc
b1110 NB
#4250
0clk
#4260
1clk
b11111111111111111111111100111101 cyc
1F
b1111 NB
#4270
0clk
#4280
1clk
b11111111111111111111111100111110 cyc
0F
b0000 NB
#4290
0clk
#4300
1clk
b11111111111111111111111100111111 cyc
1F
1G
b0001 NB
#4310
0clk
#4320
1clk
b11111111111111111111111101000000 cyc
0F
b0010 NB
#4330
0clk
#4340
1clk
b11111111111111111111111101000001 cyc
1F
1H
b0011 NB
#4350
0clk
#4360
1clk
b11111111111111111111111101000010 cyc
0F
b0100 NB
#4370
0clk
#4380
1clk
b11111111111111111111111101000011 cyc
1F
b0101 NB
1OB
#4390
0clk
#4400
1clk
b11111111111111111111111101000100 cyc
b01000000 K
b0110 NB
#4410
0clk
#4420
1clk
b11111111111111111111111101000101 cyc
0F
b0111 NB
#4430
0clk
#4440
1clk
b11111111111111111111111101000110 cyc
1F
1L
b1000 NB
#4450
0clk
#4460
1clk
b11111111111111111111111101000111 cyc
0F
b1001 NB
#4470
0clk
#4480
1clk
b11111111111111111111111101001000 cyc
1F
0H
b1010 NB
#4490
0clk
#4500
1clk
b11111111111111111111111101001001 cyc
0F
0G
b11111111 K
0L
b1011 NB
#4510
0clk
#4520
1clk
b11111111111111111111111101001010 cyc
1F
b1100 NB
#4530
0clk
#4540
1clk
b11111111111111111111111101001011 cyc
b1101 NB
0OB
#4550
0clk
#4560
1clk
b11111111111111111111111101001100 cyc
0F
b1110 NB
#4570
0clk
#4580
1clk
b11111111111111111111111101001101 cyc
1F
b1111 NB
#4590
0clk
#4600
1clk
b11111111111111111111111101001110 cyc
0F
b0000 NB
#4610
0clk
#4620
1clk
b11111111111111111111111101001111 cyc
1F
b0001 NB
#4630
0clk
#4640
1clk
b11111111111111111111111101010000 cyc
0F
b0010 NB
#4650
0clk
#4660
1clk
b11111111111111111111111101010001 cyc
1F
b0011 NB
#4670
0clk
#4680
1clk
b11111111111111111111111101010010 cyc
0F
b0100 NB
#4690
0clk
#4700
1clk
b11111111111111111111111101010011 cyc
b0101 NB
1OB
#4710
0clk
#4720
1clk
b11111111111111111111111101010100 cyc
1F
b0110 NB
#4730
0clk
#4740
1clk
b11111111111111111111111101010101 cyc
0F
b0111 NB
#4750
0clk
#4760
1clk
b11111111111111111111111101010110 cyc
1F
b1000 NB
#4770
0clk
#4780
1clk
b11111111111111111111111101010111 cyc
0F
b1001 NB
#4790
0clk
#4800
1clk
b11111111111111111111111101011000 cyc
1F
b1010 NB
#4810
0clk
#4820
1clk
b11111111111111111111111101011001 cyc
0F
b1011 NB
#4830
0clk
#4840
1clk
b11111111111111111111111101011010 cyc
1F
b1100 NB
#4850
0clk
#4860
1clk
b11111111111111111111111101011011 cyc
b1101 NB
0OB
#4870
0clk
#4880
1clk
b11111111111111111111111101011100 cyc
0F
b1110 NB
#4890
0clk
#4900
1clk
b11111111111111111111111101011101 cyc
1F
b1111 NB
#4910
0clk
#4920
1clk
b11111111111111111111111101011110 cyc
0F
b0000 NB
#4930
0clk
#4940
1clk
b11111111111111111111111101011111 cyc
1F
b0001 NB
#4950
0clk
#4960
1clk
b11111111111111111111111101100000 cyc
0F
b0010 NB
#4970
0clk
#4980
1clk
b11111111111111111111111101100001 cyc
1F
b0011 NB
#4990
0clk
#5000
1clk
b11111111111111111111111101100010 cyc
b0100 NB
#5010
0clk
#5020
1clk
b11111111111111111111111101100011 cyc
0F
b0101 NB
1OB
#5030
0clk
#5040
1clk
b11111111111111111111111101100100 cyc
1F
b0110 NB
#5050
0clk
#5060
1clk
b11111111111111111111111101100101 cyc
0F
b0111 NB
#5070
0clk
#5080
1clk
b11111111111111111111111101100110 cyc
1F
b1000 NB
#5090
0clk
#5100
1clk
b11111111111111111111111101100111 cyc
0F
b1001 NB
#5110
0clk
#5120
1clk
b11111111111111111111111101101000 cyc
1F
b1010 NB
#5130
0clk
#5140
1clk
b11111111111111111111111101101001 cyc
0F
b1011 NB
#5150
0clk
#5160
1clk
b11111111111111111111111101101010 cyc
b1100 NB
#5170
0clk
#5180
1clk
b11111111111111111111111101101011 cyc
1F
b1101 NB
0OB
#5190
0clk
#5200
1clk
b11111111111111111111111101101100 cyc
0F
b1110 NB
#5210
0clk
#5220
1clk
b11111111111111111111111101101101 cyc
1F
b1111 NB
#5230
0clk
#5240
1clk
b11111111111111111111111101101110 cyc
0F
b0000 NB
#5250
0clk
#5260
1clk
b11111111111111111111111101101111 cyc
1F
b0001 NB
#5270
0clk
#5280
1clk
b11111111111111111111111101110000 cyc
0F
b0010 NB
#5290
0clk
#5300
1clk
b11111111111111111111111101110001 cyc
1F
b0011 NB
#5310
0clk
#5320
1clk
b11111111111111111111111101110010 cyc
b0100 NB
#5330
0clk
#5340
1clk
b11111111111111111111111101110011 cyc
0F
b0101 NB
1OB
#5350
0clk
#5360
1clk
b11111111111111111111111101110100 cyc
1F
b0110 NB
#5370
0clk
#5380
1clk
b11111111111111111111111101110101 cyc
0F
b0111 NB
#5390
0clk
#5400
1clk
b11111111111111111111111101110110 cyc
1F
b1000 NB
#5410
0clk
#5420
1clk
b11111111111111111111111101110111 cyc
0F
b1001 NB
#5430
0clk
#5440
1clk
b11111111111111111111111101111000 cyc
1F
b1010 NB
#5450
0clk
#5460
1clk
b11111111111111111111111101111001 cyc
b1011 NB
#5470
0clk
#5480
1clk
b11111111111111111111111101111010 cyc
0F
b1100 NB
#5490
0clk
#5500
1clk
b11111111111111111111111101111011 cyc
1F
b1101 NB
0OB
#5510
0clk
#5520
1clk
b11111111111111111111111101111100 cyc
0F
b1110 NB
#5530
0clk
#5540
1clk
b11111111111111111111111101111101 cyc
1F
b1111 NB
#5550
0clk
#5560
1clk
b11111111111111111111111101111110 cyc
0F
b0000 NB
#5570
0clk
#5580
1clk
b11111111111111111111111101111111 cyc
1F
b0001 NB
#5590
0clk
#5600
1clk
b11111111111111111111111110000000 cyc
0F
b0010 NB
#5610
0clk
#5620
1clk
b11111111111111111111111110000001 cyc
b0011 NB
#5630
0clk
#5640
1clk
b11111111111111111111111110000010 cyc
1F
b0100 NB
#5650
0clk
#5660
1clk
b11111111111111111111111110000011 cyc
0F
b0101 NB
1OB
#5670
0clk
#5680
1clk
b11111111111111111111111110000100 cyc
1F
b0110 NB
#5690
0clk
#5700
1clk
b11111111111111111111111110000101 cyc
0F
b0111 NB
#5710
0clk
#5720
1clk
b11111111111111111111111110000110 cyc
1F
b1000 NB
#5730
0clk
#5740
1clk
b11111111111111111111111110000111 cyc
0F
b1001 NB
#5750
0clk
#5760
1clk
b11111111111111111111111110001000 cyc
1F
b1010 NB
#5770
0clk
#5780
1clk
b11111111111111111111111110001001 cyc
b1011 NB
#5790
0clk
#5800
1clk
b11111111111111111111111110001010 cyc
0F
b1100 NB
#5810
0clk
#5820
1clk
b11111111111111111111111110001011 cyc
1F
b1101 NB
0OB
#5830
0clk
#5840
1clk
b11111111111111111111111110001100 cyc
0F
b1110 NB
#5850
0clk
#5860
1clk
b11111111111111111111111110001101 cyc
1F
b1111 NB
#5870
0clk
#5880
1clk
b11111111111111111111111110001110 cyc
0F
b0000 NB
#5890
0clk
#5900
1clk
b11111111111111111111111110001111 cyc
1F
b0001 NB
#5910
0clk
#5920
1clk
b11111111111111111111111110010000 cyc
b0010 NB
#5930
0clk
#5940
1clk
b11111111111111111111111110010001 cyc
0F
b0011 NB
#5950
0clk
#5960
1clk
b11111111111111111111111110010010 cyc
1F
b0100 NB
#5970
0clk
#5980
1clk
b11111111111111111111111110010011 cyc
0F
b0101 NB
1OB
#5990
0clk
#6000
1clk
b11111111111111111111111110010100 cyc
1F
b0110 NB
#6010
0clk
#6020
1clk
b11111111111111111111111110010101 cyc
0F
b0111 NB
#6030
0clk
