synthesis/rev_debug1_2/IICE.vcd
$date
Sat Sep 02 13:40:27 2017
$end
$version
Identify 1.1
$end
$timescale
1 ns
$end
$comment
{Identify created VCD dump}
$end
$scope module m2s010_som $end
$var integer 32 cyc identify_cycle       $end
$var reg     1  clk identify_sampleclock $end
$scope module rtl $end
$scope module CommsFPGA_top_0 $end
$var reg 8 A apb3_rdata[7:0] $end
$var reg 1 B manchester_in $end
$var reg 1 C manch_out_p $end
$scope module behavioral $end
$var reg 9 D rx_fifo_dout[8:0] $end
$var reg 9 E rx_fifo_din_pipe[8:0] $end
$var reg 1 F rx_fifo_overflow $end
$scope module PROCESSOR_INTERFACE_INST $end
$var reg 1 G apb3_sel $end
$var reg 1 H apb3_enable $end
$var reg 8 I apb3_addr[7:0] $end
$var reg 8 J apb3_rdata[7:0] $end
$var reg 1 K apb3_ready $end
$var reg 1 L apb3_write $end
$var reg 1 M start_tx_fifo $end
$var reg 1 N rx_crc_error $end
$var reg 1 O int $end
$var reg 1 P tx_packet_complt $end
$var reg 1 Q rx_packet_complt $end
$var reg 1 R col_detect $end
$var reg 1 S rx_packet_avail_int $end
$scope module behavioral $end
$var reg 1 T itx_fifo_wr_en $end
$var reg 8 U control_reg[7:0] $end
$var reg 8 V status_reg[7:0] $end
$var reg 1 W irx_fifo_rd_en $end
$var reg 8 X int_reg[7:0] $end
$var reg 1 Y iup_eop $end
$var reg 3 Z up_eop_sync[2:0] $end
$var reg 1 AB iup_eop_cntdown_en $end
$var reg 8 BB rx_packet_depth[7:0] $end
$var reg 1 CB rx_packet_depth_status $end
$var reg 1 DB pkt_depth_tx_err $end
$scope module INTERRUPT_INST $end
$var reg 1 EB tx_fifo_underrun $end
$var reg 1 FB tx_fifo_overflow $end
$var reg 1 GB rx_fifo_underrun $end
$var reg 8 HB int_reg[7:0] $end
$var reg 1 IB int $end
$scope module behavioral $end
$var reg 1 JB irx_packet_avail_int $end
$var reg 1 KB block_int_until_rd $end
$upscope $end
$upscope $end
$upscope $end
$upscope $end
$scope module FIFOS_INST $end
$var reg 9 LB rx_fifo_dout[8:0] $end
$var reg 1 MB rx_fifo_empty $end
$var reg 1 NB rx_fifo_full $end
$var reg 1 OB rx_fifo_overflow $end
$var reg 1 PB rx_fifo_underrun $end
$scope module behavioral $end
$var reg 2 QB readfifo_write_ptr[1:0] $end
$var reg 2 RB readfifo_read_ptr[1:0] $end
$var reg 4 SB irx_fifo_wr_en[3:0] $end
$var reg 4 TB irx_fifo_rd_en[3:0] $end
$var reg 1 UB ififo_ptr_err $end
$upscope $end
$upscope $end
$scope module MANCHESTER_ENCODER_INST $end
$scope module behavioral $end
$var reg 1 VB man_data $end
$scope module TX_COLLISION_DETECTOR_INST $end
$var reg 1 WB tx_col_detect_en $end
$var reg 1 XB tx_collision_detect $end
$scope module behavioral $end
$var reg 8 YB rx_fifo_din_pipe_d1[7:0] $end
$var reg 8 ZB tx_fifo_dout_d5_synccompare[7:0] $end
$var reg 2 AC sync2rxclk_tx_packet_complt[1:0] $end
$var reg 2 BC sync2rxclk_tx_enable[1:0] $end
$upscope $end
$upscope $end
$scope module TRANSMIT_SM $end
$var reg 1 CC byte_clk_en $end
$var reg 1 DC clk_bit_5mhz $end
$var reg 2 EC manches_in_dly[1:0] $end
$var reg 1 FC start_tx_fifo $end
$scope module behavioral $end
$var reg 1 GC start_tx_fifo_s $end
$var reg 1 HC tx_idle_line_s $end
$var reg 1 IC tx_idle_line $end
$var reg 120 JC tx_state $end
$scope module TX_IDLE_LINE_DETECTOR $end
$var reg 1 KC idle_line $end
$scope module behavioral $end
$var reg 4 LC idle_debug_sm[3:0] $end
$var reg 1 MC idle_line_temp $end
$var reg 1 NC prbs_gen_reg0 $end
$upscope $end
$upscope $end
$upscope $end
$upscope $end
$upscope $end
$upscope $end
$scope module MANCHESTER_DECODER_INST $end
$scope module v1 $end
$scope module MANCHESTER_DECODER_ADAPTER_INST $end
$scope module v1 $end
$var reg 1 OC manches_in_s $end
$var reg 1 PC manches_in $end
$var reg 2 QC imanches_in_dly[1:0] $end
$var reg 4 RC clkdiv[3:0] $end
$var reg 1 SC inrz_data $end
$var reg 8 TC s2p_data[7:0] $end
$var reg 1 UC clock_adjust $end
$scope module RX_IDLE_LINE_DETECTOR $end
$var reg 1 VC idle_line $end
$scope module behavioral $end
$var reg 4 WC idle_debug_sm[3:0] $end
$var reg 1 XC idle_line_temp $end
$var reg 1 YC prbs_gen_reg0 $end
$upscope $end
$upscope $end
$upscope $end
$upscope $end
$scope module AFE_RX_STATE_MACHINE $end
$scope module behavioral $end
$var reg 136 ZC afe_rx_state $end
$upscope $end
$upscope $end
$scope module ReadFIFO_Write_SM_PROC $end
$var reg 1 AD sampler_clk1x_en $end
$var reg 1 BD rx_crc_error $end
$scope module behavioral $end
$var reg 16 CD rx_crc_data_calc[15:0] $end
$var reg 112 DD readfifo_wr_state $end
$upscope $end
$upscope $end
$upscope $end
$upscope $end
$upscope $end
$upscope $end
$upscope $end
$upscope $end
$enddefinitions $end
#0
1clk
b11111111111111111111100000000010 cyc
b11111111 A
1B
1C
b000000000 D
b000000000 E
0F
0G
0H
b00010100 I
b11111111 J
0K
0L
0M
0N
0O
0P
0Q
0R
0S
0T
b00000010 U
b00000001 V
0W
b00000000 X
0Y
b000 Z
0AB
b00000000 BB
0CB
0DB
0EB
0FB
0GB
b00000000 HB
0IB
0JB
0KB
b000000000 LB
1MB
0NB
0OB
0PB
b00 QB
b00 RB
b0000 SB
b0000 TB
0UB
0VB
0WB
0XB
b00000000 YB
b00000000 ZB
b00 AC
b00 BC
0CC
0DC
b00 EC
0FC
0GC
0HC
0IC
b011101000111100001011111011100000111001001100101011000010110110101100010011011000110010101011111011100110111010000100000 JC
0KC
b0000 LC
0MC
1NC
0OC
0PC
b00 QC
b0010 RC
0SC
b00000000 TC
0UC
0VC
b0000 WC
0XC
1YC
b0111001101110100011000010111001001110100010111110110001001101001011101000101111101110011011101000010000000100000001000000010000000100000 ZC
0AD
0BD
b1111111111111111 CD
b0110100101100100011011000110010100100000001000000010000000100000001000000010000000100000001000000010000000100000 DD
#10
0clk
#20
1clk
b11111111111111111111100000000011 cyc
0NC
b0011 RC
0YC
#30
0clk
#40
1clk
b11111111111111111111100000000100 cyc
b0100 RC
#50
0clk
#60
1clk
b11111111111111111111100000000101 cyc
0B
0C
1DC
b0101 RC
#70
0clk
#80
1clk
b11111111111111111111100000000110 cyc
1CC
b0110 RC
#90
0clk
#100
1clk
b11111111111111111111100000000111 cyc
1OC
b0111 RC
1AD
#110
0clk
#120
1clk
b11111111111111111111100000001000 cyc
1PC
b1000 RC
0AD
#130
0clk
#140
1clk
b11111111111111111111100000001001 cyc
b01 EC
b01 QC
b1001 RC
#150
0clk
#160
1clk
b11111111111111111111100000001010 cyc
b11 EC
1NC
b11 QC
b1010 RC
1YC
#170
0clk
#180
1clk
b11111111111111111111100000001011 cyc
b1011 RC
#190
0clk
#200
1clk
b11111111111111111111100000001100 cyc
1G
0NC
b1100 RC
0YC
#210
0clk
#220
1clk
b11111111111111111111100000001101 cyc
1B
1C
0DC
1NC
b1101 RC
1YC
#230
0clk
#240
1clk
b11111111111111111111100000001110 cyc
1H
0NC
b1110 RC
0YC
#250
0clk
#260
1clk
b11111111111111111111100000001111 cyc
0OC
b1111 RC
#270
0clk
#280
1clk
b11111111111111111111100000010000 cyc
b11111101 A
b01111111 J
1NC
0PC
b0000 RC
1YC
#290
0clk
#300
1clk
b11111111111111111111100000010001 cyc
b00000000 A
b00000000 J
b10 EC
0NC
b10 QC
b0001 RC
0YC
#310
0clk
#320
1clk
b11111111111111111111100000010010 cyc
b00 EC
1NC
b00 QC
b0010 RC
1YC
#330
0clk
#340
1clk
b11111111111111111111100000010011 cyc
1K
0NC
b0011 RC
0YC
#350
0clk
#360
1clk
b11111111111111111111100000010100 cyc
1NC
b0100 RC
1YC
#370
0clk
#380
1clk
b11111111111111111111100000010101 cyc
0G
0H
0NC
b0101 RC
0YC
#390
0clk
#400
1clk
b11111111111111111111100000010110 cyc
b11111111 A
0B
0C
b11111111 J
0K
0CC
1DC
1NC
b0110 RC
1YC
#410
0clk
#420
1clk
b11111111111111111111100000010111 cyc
b0111 RC
1AD
#430
0clk
#440
1clk
b11111111111111111111100000011000 cyc
0NC
1OC
b1000 RC
0YC
0AD
#450
0clk
#460
1clk
b11111111111111111111100000011001 cyc
1NC
1PC
b1001 RC
1YC
#470
0clk
#480
1clk
b11111111111111111111100000011010 cyc
b01 EC
0NC
b01 QC
b1010 RC
0YC
#490
0clk
#500
1clk
b11111111111111111111100000011011 cyc
b11 EC
b11 QC
b1011 RC
#510
0clk
#520
1clk
b11111111111111111111100000011100 cyc
1NC
b1100 RC
1YC
#530
0clk
#540
1clk
b11111111111111111111100000011101 cyc
1B
b1101 RC
1UC
#550
0clk
#560
1clk
b11111111111111111111100000011110 cyc
1C
0DC
0NC
0UC
0YC
#570
0clk
#580
1clk
b11111111111111111111100000011111 cyc
0OC
b1110 RC
#590
0clk
#600
1clk
b11111111111111111111100000100000 cyc
0PC
b1111 RC
#610
0clk
#620
1clk
b11111111111111111111100000100001 cyc
b10 EC
1NC
b10 QC
b0000 RC
1YC
#630
0clk
#640
1clk
b11111111111111111111100000100010 cyc
b00 EC
b00 QC
b0001 RC
#650
0clk
#660
1clk
b11111111111111111111100000100011 cyc
0NC
b0010 RC
0YC
#670
0clk
#680
1clk
b11111111111111111111100000100100 cyc
b0011 RC
#690
0clk
#700
1clk
b11111111111111111111100000100101 cyc
b0100 RC
#710
0clk
#720
1clk
b11111111111111111111100000100110 cyc
0B
0C
1DC
b0101 RC
#730
0clk
#740
1clk
b11111111111111111111100000100111 cyc
1NC
b0110 RC
1YC
#750
0clk
#760
1clk
b11111111111111111111100000101000 cyc
1OC
b0111 RC
1AD
#770
0clk
#780
1clk
b11111111111111111111100000101001 cyc
0NC
1PC
b1000 RC
0YC
0AD
#790
0clk
#800
1clk
b11111111111111111111100000101010 cyc
b01 EC
1NC
b01 QC
b1001 RC
1YC
#810
0clk
#820
1clk
b11111111111111111111100000101011 cyc
b11 EC
0NC
b11 QC
b1010 RC
0YC
#830
0clk
#840
1clk
b11111111111111111111100000101100 cyc
1NC
b1011 RC
1YC
#850
0clk
#860
1clk
b11111111111111111111100000101101 cyc
b1100 RC
#870
0clk
#880
1clk
b11111111111111111111100000101110 cyc
1B
1C
0DC
0NC
b1101 RC
0YC
#890
0clk
#900
1clk
b11111111111111111111100000101111 cyc
1NC
b1110 RC
1YC
#910
0clk
#920
1clk
b11111111111111111111100000110000 cyc
0NC
0OC
b1111 RC
0YC
#930
0clk
#940
1clk
b11111111111111111111100000110001 cyc
1NC
0PC
b0000 RC
1YC
#950
0clk
#960
1clk
b11111111111111111111100000110010 cyc
b10 EC
b10 QC
b0001 RC
#970
0clk
#980
1clk
b11111111111111111111100000110011 cyc
b00 EC
b00 QC
b0010 RC
#990
0clk
#1000
1clk
b11111111111111111111100000110100 cyc
b0011 RC
#1010
0clk
#1020
1clk
b11111111111111111111100000110101 cyc
0NC
b0100 RC
0YC
#1030
0clk
#1040
1clk
b11111111111111111111100000110110 cyc
0B
0C
1DC
b0101 RC
#1050
0clk
#1060
1clk
b11111111111111111111100000110111 cyc
b0110 RC
#1070
0clk
#1080
1clk
b11111111111111111111100000111000 cyc
1OC
b0111 RC
1AD
#1090
0clk
#1100
1clk
b11111111111111111111100000111001 cyc
1PC
b1000 RC
0AD
#1110
0clk
#1120
1clk
b11111111111111111111100000111010 cyc
b01 EC
b01 QC
b1001 RC
#1130
0clk
#1140
1clk
b11111111111111111111100000111011 cyc
b11 EC
1NC
b11 QC
b1010 RC
1YC
#1150
0clk
#1160
1clk
b11111111111111111111100000111100 cyc
b1011 RC
#1170
0clk
#1180
1clk
b11111111111111111111100000111101 cyc
b1100 RC
#1190
0clk
#1200
1clk
b11111111111111111111100000111110 cyc
1B
1C
0DC
0NC
b1101 RC
0YC
#1210
0clk
#1220
1clk
b11111111111111111111100000111111 cyc
1NC
b1110 RC
1YC
#1230
0clk
#1240
1clk
b11111111111111111111100001000000 cyc
0OC
b1111 RC
#1250
0clk
#1260
1clk
b11111111111111111111100001000001 cyc
0NC
0PC
b0000 RC
0YC
#1270
0clk
#1280
1clk
b11111111111111111111100001000010 cyc
b10 EC
b10 QC
b0001 RC
#1290
0clk
#1300
1clk
b11111111111111111111100001000011 cyc
b00 EC
1NC
b00 QC
b0010 RC
1YC
#1310
0clk
#1320
1clk
b11111111111111111111100001000100 cyc
0NC
b0011 RC
0YC
#1330
0clk
#1340
1clk
b11111111111111111111100001000101 cyc
b0100 RC
#1350
0clk
#1360
1clk
b11111111111111111111100001000110 cyc
b0101 RC
#1370
0clk
#1380
1clk
b11111111111111111111100001000111 cyc
0B
0C
1DC
1NC
b0110 RC
1YC
#1390
0clk
#1400
1clk
b11111111111111111111100001001000 cyc
b0111 RC
1AD
#1410
0clk
#1420
1clk
b11111111111111111111100001001001 cyc
1OC
b1000 RC
0AD
#1430
0clk
#1440
1clk
b11111111111111111111100001001010 cyc
0NC
1PC
b1001 RC
0YC
#1450
0clk
#1460
1clk
b11111111111111111111100001001011 cyc
b01 EC
1NC
b01 QC
b1010 RC
1YC
#1470
0clk
#1480
1clk
b11111111111111111111100001001100 cyc
b11 EC
0NC
b11 QC
b1011 RC
0YC
#1490
0clk
#1500
1clk
b11111111111111111111100001001101 cyc
1NC
b1100 RC
1YC
#1510
0clk
#1520
1clk
b11111111111111111111100001001110 cyc
1B
b1101 RC
1UC
#1530
0clk
#1540
1clk
b11111111111111111111100001001111 cyc
1C
0DC
0UC
#1550
0clk
#1560
1clk
b11111111111111111111100001010000 cyc
0NC
0OC
b1110 RC
0YC
#1570
0clk
#1580
1clk
b11111111111111111111100001010001 cyc
1NC
0PC
b1111 RC
1YC
#1590
0clk
#1600
1clk
b11111111111111111111100001010010 cyc
b10 EC
0NC
b10 QC
b0000 RC
0YC
#1610
0clk
#1620
1clk
b11111111111111111111100001010011 cyc
b00 EC
b00 QC
b0001 RC
#1630
0clk
#1640
1clk
b11111111111111111111100001010100 cyc
1NC
b0010 RC
1YC
#1650
0clk
#1660
1clk
b11111111111111111111100001010101 cyc
0NC
b0011 RC
0YC
#1670
0clk
#1680
1clk
b11111111111111111111100001010110 cyc
b0100 RC
#1690
0clk
#1700
1clk
b11111111111111111111100001010111 cyc
0B
0C
1DC
b0101 RC
#1710
0clk
#1720
1clk
b11111111111111111111100001011000 cyc
b0110 RC
#1730
0clk
#1740
1clk
b11111111111111111111100001011001 cyc
1NC
1OC
b0111 RC
1YC
1AD
#1750
0clk
#1760
1clk
b11111111111111111111100001011010 cyc
0NC
1PC
b1000 RC
0YC
0AD
#1770
0clk
#1780
1clk
b11111111111111111111100001011011 cyc
b01 EC
b01 QC
b1001 RC
#1790
0clk
#1800
1clk
b11111111111111111111100001011100 cyc
b11 EC
b11 QC
b1010 RC
#1810
0clk
#1820
1clk
b11111111111111111111100001011101 cyc
1NC
b1011 RC
1YC
#1830
0clk
#1840
1clk
b11111111111111111111100001011110 cyc
b1100 RC
#1850
0clk
#1860
1clk
b11111111111111111111100001011111 cyc
1B
1C
0DC
b1101 RC
#1870
0clk
#1880
1clk
b11111111111111111111100001100000 cyc
b1110 RC
#1890
0clk
#1900
1clk
b11111111111111111111100001100001 cyc
0OC
b1111 RC
#1910
0clk
#1920
1clk
b11111111111111111111100001100010 cyc
0PC
b0000 RC
#1930
0clk
#1940
1clk
b11111111111111111111100001100011 cyc
b10 EC
0NC
b10 QC
b0001 RC
0YC
#1950
0clk
#1960
1clk
b11111111111111111111100001100100 cyc
b00 EC
b00 QC
b0010 RC
#1970
0clk
#1980
1clk
b11111111111111111111100001100101 cyc
1NC
b0011 RC
1YC
#1990
0clk
#2000
1clk
b11111111111111111111100001100110 cyc
0NC
b0100 RC
0YC
#2010
0clk
#2020
1clk
b11111111111111111111100001100111 cyc
0B
0C
1DC
b0101 RC
#2030
0clk
#2040
1clk
b11111111111111111111100001101000 cyc
1G
1NC
b0110 RC
1YC
#2050
0clk
#2060
1clk
b11111111111111111111100001101001 cyc
0NC
1OC
b0111 RC
0YC
1AD
#2070
0clk
#2080
1clk
b11111111111111111111100001101010 cyc
1H
1NC
1PC
b1000 RC
1YC
0AD
#2090
0clk
#2100
1clk
b11111111111111111111100001101011 cyc
b01 EC
b01 QC
b1001 RC
#2110
0clk
#2120
1clk
b11111111111111111111100001101100 cyc
b11111101 A
b01111111 J
b11 EC
b11 QC
b1010 RC
#2130
0clk
#2140
1clk
b11111111111111111111100001101101 cyc
b00000000 A
b00000000 J
b1011 RC
#2150
0clk
#2160
1clk
b11111111111111111111100001101110 cyc
0NC
b1100 RC
0YC
#2170
0clk
#2180
1clk
b11111111111111111111100001101111 cyc
1B
1C
1K
0DC
b1101 RC
#2190
0clk
#2200
1clk
b11111111111111111111100001110000 cyc
1NC
b1110 RC
1YC
#2210
0clk
#2220
1clk
b11111111111111111111100001110001 cyc
0G
0H
0OC
b1111 RC
#2230
0clk
#2240
1clk
b11111111111111111111100001110010 cyc
b11111111 A
b11111111 J
0K
0NC
0PC
b0000 RC
0YC
#2250
0clk
#2260
1clk
b11111111111111111111100001110011 cyc
b10 EC
b10 QC
b0001 RC
#2270
0clk
#2280
1clk
b11111111111111111111100001110100 cyc
b00 EC
b00 QC
b0010 RC
#2290
0clk
#2300
1clk
b11111111111111111111100001110101 cyc
1NC
b0011 RC
1YC
#2310
0clk
#2320
1clk
b11111111111111111111100001110110 cyc
0NC
b0100 RC
0YC
#2330
0clk
#2340
1clk
b11111111111111111111100001110111 cyc
b0101 RC
#2350
0clk
#2360
1clk
b11111111111111111111100001111000 cyc
0B
0C
1DC
b0110 RC
#2370
0clk
#2380
1clk
b11111111111111111111100001111001 cyc
1NC
b0111 RC
1YC
1AD
#2390
0clk
#2400
1clk
b11111111111111111111100001111010 cyc
1OC
b1000 RC
0AD
#2410
0clk
#2420
1clk
b11111111111111111111100001111011 cyc
0NC
1PC
b1001 RC
0YC
#2430
0clk
#2440
1clk
b11111111111111111111100001111100 cyc
b01 EC
b01 QC
b1010 RC
#2450
0clk
#2460
1clk
b11111111111111111111100001111101 cyc
b11 EC
1NC
b11 QC
b1011 RC
1YC
#2470
0clk
#2480
1clk
b11111111111111111111100001111110 cyc
0NC
b1100 RC
0YC
#2490
0clk
#2500
1clk
b11111111111111111111100001111111 cyc
1B
1NC
b1101 RC
1UC
1YC
#2510
0clk
#2520
1clk
b11111111111111111111100010000000 cyc
1C
0DC
0NC
0UC
0YC
#2530
0clk
#2540
1clk
b11111111111111111111100010000001 cyc
0OC
b1110 RC
#2550
0clk
#2560
1clk
b11111111111111111111100010000010 cyc
1NC
0PC
b1111 RC
1YC
#2570
0clk
#2580
1clk
b11111111111111111111100010000011 cyc
b10 EC
b10 QC
b0000 RC
#2590
0clk
#2600
1clk
b11111111111111111111100010000100 cyc
b00 EC
b00 QC
b0001 RC
#2610
0clk
#2620
1clk
b11111111111111111111100010000101 cyc
b0010 RC
#2630
0clk
#2640
1clk
b11111111111111111111100010000110 cyc
0NC
b0011 RC
0YC
#2650
0clk
#2660
1clk
b11111111111111111111100010000111 cyc
b0100 RC
#2670
0clk
#2680
1clk
b11111111111111111111100010001000 cyc
0B
0C
1CC
1DC
b0101 RC
#2690
0clk
#2700
1clk
b11111111111111111111100010001001 cyc
1NC
b0110 RC
1YC
#2710
0clk
#2720
1clk
b11111111111111111111100010001010 cyc
0NC
1OC
b0111 RC
0YC
1AD
#2730
0clk
#2740
1clk
b11111111111111111111100010001011 cyc
1PC
b1000 RC
0AD
#2750
0clk
#2760
1clk
b11111111111111111111100010001100 cyc
b01 EC
b01 QC
b1001 RC
#2770
0clk
#2780
1clk
b11111111111111111111100010001101 cyc
b11 EC
b11 QC
b1010 RC
#2790
0clk
#2800
1clk
b11111111111111111111100010001110 cyc
1NC
b1011 RC
1YC
#2810
0clk
#2820
1clk
b11111111111111111111100010001111 cyc
0NC
b1100 RC
0YC
#2830
0clk
#2840
1clk
b11111111111111111111100010010000 cyc
1B
1C
0DC
1NC
b1101 RC
1YC
#2850
0clk
#2860
1clk
b11111111111111111111100010010001 cyc
0NC
b1110 RC
0YC
#2870
0clk
#2880
1clk
b11111111111111111111100010010010 cyc
0OC
b1111 RC
#2890
0clk
#2900
1clk
b11111111111111111111100010010011 cyc
0PC
b0000 RC
#2910
0clk
#2920
1clk
b11111111111111111111100010010100 cyc
b10 EC
1NC
b10 QC
b0001 RC
1YC
#2930
0clk
#2940
1clk
b11111111111111111111100010010101 cyc
b00 EC
b00 QC
b0010 RC
#2950
0clk
#2960
1clk
b11111111111111111111100010010110 cyc
b0011 RC
#2970
0clk
#2980
1clk
b11111111111111111111100010010111 cyc
0NC
b0100 RC
0YC
#2990
0clk
#3000
1clk
b11111111111111111111100010011000 cyc
0B
0C
1DC
b0101 RC
#3010
0clk
#3020
1clk
b11111111111111111111100010011001 cyc
0CC
b0110 RC
#3030
0clk
#3040
1clk
b11111111111111111111100010011010 cyc
1NC
1OC
b0111 RC
1YC
1AD
#3050
0clk
#3060
1clk
b11111111111111111111100010011011 cyc
1PC
b1000 RC
0AD
#3070
0clk
#3080
1clk
b11111111111111111111100010011100 cyc
b01 EC
0NC
b01 QC
b1001 RC
0YC
#3090
0clk
#3100
1clk
b11111111111111111111100010011101 cyc
b11 EC
b11 QC
b1010 RC
#3110
0clk
#3120
1clk
b11111111111111111111100010011110 cyc
b1011 RC
#3130
0clk
#3140
1clk
b11111111111111111111100010011111 cyc
b1100 RC
#3150
0clk
#3160
1clk
b11111111111111111111100010100000 cyc
1B
1C
0DC
1NC
b1101 RC
1YC
#3170
0clk
#3180
1clk
b11111111111111111111100010100001 cyc
b1110 RC
#3190
0clk
#3200
1clk
b11111111111111111111100010100010 cyc
0OC
b1111 RC
#3210
0clk
#3220
1clk
b11111111111111111111100010100011 cyc
0NC
0PC
b0000 RC
0YC
#3230
0clk
#3240
1clk
b11111111111111111111100010100100 cyc
b10 EC
1NC
b10 QC
b0001 RC
1YC
#3250
0clk
#3260
1clk
b11111111111111111111100010100101 cyc
b00 EC
b00 QC
b0010 RC
#3270
0clk
#3280
1clk
b11111111111111111111100010100110 cyc
0NC
b0011 RC
0YC
#3290
0clk
#3300
1clk
b11111111111111111111100010100111 cyc
1NC
b0100 RC
1YC
#3310
0clk
#3320
1clk
b11111111111111111111100010101000 cyc
0NC
b0101 RC
0YC
#3330
0clk
#3340
1clk
b11111111111111111111100010101001 cyc
0B
0C
1DC
b0110 RC
#3350
0clk
#3360
1clk
b11111111111111111111100010101010 cyc
b0111 RC
1AD
#3370
0clk
#3380
1clk
b11111111111111111111100010101011 cyc
1OC
b1000 RC
0AD
#3390
0clk
#3400
1clk
b11111111111111111111100010101100 cyc
1PC
b1001 RC
#3410
0clk
#3420
1clk
b11111111111111111111100010101101 cyc
b01 EC
1NC
b01 QC
b1010 RC
1YC
#3430
0clk
#3440
1clk
b11111111111111111111100010101110 cyc
b11 EC
b11 QC
b1011 RC
#3450
0clk
#3460
1clk
b11111111111111111111100010101111 cyc
0NC
b1100 RC
0YC
#3470
0clk
#3480
1clk
b11111111111111111111100010110000 cyc
1B
b1101 RC
1UC
#3490
0clk
#3500
1clk
b11111111111111111111100010110001 cyc
1C
0DC
0UC
#3510
0clk
#3520
1clk
b11111111111111111111100010110010 cyc
1NC
0OC
b1110 RC
1YC
#3530
0clk
#3540
1clk
b11111111111111111111100010110011 cyc
0PC
b1111 RC
#3550
0clk
#3560
1clk
b11111111111111111111100010110100 cyc
b10 EC
b10 QC
b0000 RC
#3570
0clk
#3580
1clk
b11111111111111111111100010110101 cyc
b00 EC
b00 QC
b0001 RC
#3590
0clk
#3600
1clk
b11111111111111111111100010110110 cyc
0NC
b0010 RC
0YC
#3610
0clk
#3620
1clk
b11111111111111111111100010110111 cyc
b0011 RC
#3630
0clk
#3640
1clk
b11111111111111111111100010111000 cyc
1NC
b0100 RC
1YC
#3650
0clk
#3660
1clk
b11111111111111111111100010111001 cyc
0B
0C
1DC
b0101 RC
#3670
0clk
#3680
1clk
b11111111111111111111100010111010 cyc
b0110 RC
#3690
0clk
#3700
1clk
b11111111111111111111100010111011 cyc
1OC
b0111 RC
1AD
#3710
0clk
#3720
1clk
b11111111111111111111100010111100 cyc
0NC
1PC
b1000 RC
0YC
0AD
#3730
0clk
#3740
1clk
b11111111111111111111100010111101 cyc
b01 EC
1NC
b01 QC
b1001 RC
1YC
#3750
0clk
#3760
1clk
b11111111111111111111100010111110 cyc
b11 EC
0NC
b11 QC
b1010 RC
0YC
#3770
0clk
#3780
1clk
b11111111111111111111100010111111 cyc
b1011 RC
#3790
0clk
#3800
1clk
b11111111111111111111100011000000 cyc
1NC
b1100 RC
1YC
#3810
0clk
#3820
1clk
b11111111111111111111100011000001 cyc
1B
1C
0DC
b1101 RC
#3830
0clk
#3840
1clk
b11111111111111111111100011000010 cyc
b1110 RC
#3850
0clk
#3860
1clk
b11111111111111111111100011000011 cyc
0NC
0OC
b1111 RC
0YC
#3870
0clk
#3880
1clk
b11111111111111111111100011000100 cyc
1G
1NC
0PC
b0000 RC
1YC
#3890
0clk
#3900
1clk
b11111111111111111111100011000101 cyc
b10 EC
b10 QC
b0001 RC
#3910
0clk
#3920
1clk
b11111111111111111111100011000110 cyc
1H
b00 EC
0NC
b00 QC
b0010 RC
0YC
#3930
0clk
#3940
1clk
b11111111111111111111100011000111 cyc
b0011 RC
#3950
0clk
#3960
1clk
b11111111111111111111100011001000 cyc
b01111111 J
b0100 RC
#3970
0clk
#3980
1clk
b11111111111111111111100011001001 cyc
b00000000 A
0B
0C
b00000000 J
1DC
1NC
b0101 RC
1YC
#3990
0clk
#4000
1clk
b11111111111111111111100011001010 cyc
b0110 RC
#4010
0clk
#4020
1clk
b11111111111111111111100011001011 cyc
1K
1OC
b0111 RC
1AD
#4030
0clk
#4040
1clk
b11111111111111111111100011001100 cyc
1PC
b1000 RC
0AD
#4050
0clk
#4060
1clk
b11111111111111111111100011001101 cyc
0G
0H
b01 EC
b01 QC
b1001 RC
#4070
0clk
#4080
1clk
b11111111111111111111100011001110 cyc
b11111111 A
b11111111 J
0K
b11 EC
0NC
b11 QC
b1010 RC
0YC
#4090
0clk
#4100
1clk
b11111111111111111111100011001111 cyc
1NC
b1011 RC
1YC
#4110
0clk
#4120
1clk
b11111111111111111111100011010000 cyc
b1100 RC
#4130
0clk
#4140
1clk
b11111111111111111111100011010001 cyc
1B
1C
0DC
0NC
b1101 RC
0YC
#4150
0clk
#4160
1clk
b11111111111111111111100011010010 cyc
b1110 RC
#4170
0clk
#4180
1clk
b11111111111111111111100011010011 cyc
0OC
b1111 RC
#4190
0clk
#4200
1clk
b11111111111111111111100011010100 cyc
1NC
0PC
b0000 RC
1YC
#4210
0clk
#4220
1clk
b11111111111111111111100011010101 cyc
b10 EC
b10 QC
b0001 RC
#4230
0clk
#4240
1clk
b11111111111111111111100011010110 cyc
b00 EC
b00 QC
b0010 RC
#4250
0clk
#4260
1clk
b11111111111111111111100011010111 cyc
b0011 RC
#4270
0clk
#4280
1clk
b11111111111111111111100011011000 cyc
b0100 RC
#4290
0clk
#4300
1clk
b11111111111111111111100011011001 cyc
0NC
b0101 RC
0YC
#4310
0clk
#4320
1clk
b11111111111111111111100011011010 cyc
0B
0C
1DC
b0110 RC
#4330
0clk
#4340
1clk
b11111111111111111111100011011011 cyc
1NC
b0111 RC
1YC
1AD
#4350
0clk
#4360
1clk
b11111111111111111111100011011100 cyc
0NC
1OC
b1000 RC
0YC
0AD
#4370
0clk
#4380
1clk
b11111111111111111111100011011101 cyc
1PC
b1001 RC
#4390
0clk
#4400
1clk
b11111111111111111111100011011110 cyc
b01 EC
1NC
b01 QC
b1010 RC
1YC
#4410
0clk
#4420
1clk
b11111111111111111111100011011111 cyc
b11 EC
b11 QC
b1011 RC
#4430
0clk
#4440
1clk
b11111111111111111111100011100000 cyc
b1100 RC
#4450
0clk
#4460
1clk
b11111111111111111111100011100001 cyc
1B
b1101 RC
1UC
#4470
0clk
#4480
1clk
b11111111111111111111100011100010 cyc
1C
0DC
0NC
0UC
0YC
#4490
0clk
#4500
1clk
b11111111111111111111100011100011 cyc
1NC
0OC
b1110 RC
1YC
#4510
0clk
#4520
1clk
b11111111111111111111100011100100 cyc
0NC
0PC
b1111 RC
0YC
#4530
0clk
#4540
1clk
b11111111111111111111100011100101 cyc
b10 EC
b10 QC
b0000 RC
#4550
0clk
#4560
1clk
b11111111111111111111100011100110 cyc
b00 EC
b00 QC
b0001 RC
#4570
0clk
#4580
1clk
b11111111111111111111100011100111 cyc
1NC
b0010 RC
1YC
#4590
0clk
#4600
1clk
b11111111111111111111100011101000 cyc
0NC
b0011 RC
0YC
#4610
0clk
#4620
1clk
b11111111111111111111100011101001 cyc
b0100 RC
#4630
0clk
#4640
1clk
b11111111111111111111100011101010 cyc
0B
0C
1DC
1NC
b0101 RC
1YC
#4650
0clk
#4660
1clk
b11111111111111111111100011101011 cyc
b0110 RC
#4670
0clk
#4680
1clk
b11111111111111111111100011101100 cyc
1OC
b0111 RC
1AD
#4690
0clk
#4700
1clk
b11111111111111111111100011101101 cyc
0NC
1PC
b1000 RC
0YC
0AD
#4710
0clk
#4720
1clk
b11111111111111111111100011101110 cyc
b01 EC
b01 QC
b1001 RC
#4730
0clk
#4740
1clk
b11111111111111111111100011101111 cyc
b11 EC
1NC
b11 QC
b1010 RC
1YC
#4750
0clk
#4760
1clk
b11111111111111111111100011110000 cyc
0NC
b1011 RC
0YC
#4770
0clk
#4780
1clk
b11111111111111111111100011110001 cyc
1NC
b1100 RC
1YC
