synthesis/rev_11_debugColl/IICE.vcd
$date
Tue Oct 24 10:05:10 2017
$end
$version
Identify 1.1
$end
$timescale
1 ns
$end
$comment
{Identify created VCD dump}
$end
$scope module m2s010_som $end
$var integer 32 cyc identify_cycle       $end
$var reg     1  clk identify_sampleclock $end
$scope module rtl $end
$scope module CommsFPGA_top_0 $end
$var reg 1 A manchester_in $end
$var reg 1 B manch_out_p $end
$scope module behavioral $end
$var reg 1 C tx_fifo_empty $end
$var reg 1 D tx_fifo_full $end
$var reg 1 E tx_fifo_wr_en $end
$var reg 1 F tx_fifo_rd_en $end
$var reg 1 G rx_fifo_rd_en $end
$var reg 1 H rx_fifo_txcoldetdis_wr_en $end
$var reg 9 I rx_fifo_dout[8:0] $end
$var reg 9 J rx_fifo_din_pipe[8:0] $end
$var reg 8 K tx_fifo_dout[7:0] $end
$var reg 1 L rx_fifo_empty $end
$var reg 1 M rx_fifo_full $end
$var reg 1 N rx_fifo_overflow $end
$var reg 1 O rx_fifo_underrun $end
$var reg 4 P rx_fifo_empty_v[3:0] $end
$var reg 1 Q idle_line_status $end
$scope module PROCESSOR_INTERFACE_INST $end
$var reg 1 R apb3_clk $end
$var reg 8 S apb3_addr[7:0] $end
$var reg 8 T apb3_wdata[7:0] $end
$var reg 8 U apb3_rdata[7:0] $end
$var reg 1 V start_tx_fifo $end
$var reg 1 W tx_fifo_wr_en $end
$var reg 1 X rx_fifo_rd_en $end
$var reg 1 Y tx_packet_complt $end
$var reg 1 Z rx_packet_complt $end
$var reg 1 AB col_detect $end
$var reg 1 BB up_eop $end
$scope module behavioral $end
$var reg 8 CB control_reg[7:0] $end
$var reg 8 DB status_reg[7:0] $end
$var reg 8 EB int_reg[7:0] $end
$var reg 3 FB up_eop_sync[2:0] $end
$var reg 1 GB iup_eop_cntdown_en $end
$var reg 8 HB rx_packet_depth[7:0] $end
$var reg 1 IB rx_packet_depth_status $end
$var reg 1 JB bw_debug_reg $end
$var reg 1 KB bw_debug_reg_rs $end
$var reg 1 LB rx_packet_complt_apb_en $end
$var reg 3 MB rx_packet_complt_apb[2:0] $end
$var reg 3 NB rx_packet_complt_cnt[2:0] $end
$var reg 1 OB rx_packet_complt_cnt_en $end
$scope module INTERRUPT_INST $end
$var reg 1 PB rx_packet_avail_int $end
$var reg 1 QB done_w_active_rx_fifo $end
$scope module behavioral $end
$var reg 1 RB tx_packet_complt_int $end
$var reg 1 SB col_detect_int $end
$var reg 1 TB tx_packet_complt_to_apb3_clk $end
$var reg 1 UB iint $end
$var reg 8 VB iint_reg[7:0] $end
$var reg 3 WB col_detect_d[2:0] $end
$var reg 1 XB col_detect_c $end
$var reg 1 YB tx_fifo_underrun_int_c $end
$var reg 1 ZB col_detect_int_c $end
$var reg 8 AC delay_to_post_int[7:0] $end
$upscope $end
$upscope $end
$upscope $end
$upscope $end
$scope module FIFOS_INST $end
$var reg 1 BC tx_fifo_overflow $end
$var reg 1 CC tx_fifo_underrun $end
$var reg 1 DC rx_fifo_wr_clk $end
$var reg 9 EC rx_fifo_dout[8:0] $end
$var reg 1 FC rx_fifo_empty $end
$var reg 1 GC rx_fifo_full $end
$var reg 1 HC rx_fifo_overflow $end
$var reg 1 IC rx_fifo_underrun $end
$var reg 1 JC rx_packet_avail_int $end
$var reg 1 KC up_eop $end
$scope module behavioral $end
$var reg 1 LC itx_fifo_empty $end
$var reg 1 MC itx_fifo_rst $end
$var reg 1 NC irx_fifo_rst $end
$var reg 2 OC readfifo_write_ptr[1:0] $end
$var reg 2 PC readfifo_read_ptr[1:0] $end
$var reg 4 QC irx_fifo_wr_en[3:0] $end
$var reg 4 RC irx_fifo_rd_en[3:0] $end
$var reg 4 SC irx_fifo_empty[3:0] $end
$var reg 4 TC irx_fifo_full[3:0] $end
$var reg 4 UC irx_fifo_overflow[3:0] $end
$var reg 4 VC irx_fifo_underrun[3:0] $end
$var reg 3 WC packet_available_clear_reg[2:0] $end
$var reg 1 XC ififo_ptr_err $end
$var reg 4 YC rx_fifo_reset_v[3:0] $end
$upscope $end
$upscope $end
$scope module MANCHESTER_ENCODER_INST $end
$var reg 1 ZC clk_bit_5mhz $end
$var reg 1 AD start_tx_fifo $end
$var reg 1 BD manchester_out $end
$scope module behavioral $end
$var reg 8 CD p2s_data[7:0] $end
$var reg 1 DD tx_dataen_d1 $end
$var reg 1 ED tx_dataen $end
$var reg 1 FD tx_preamble_pat_en $end
$scope module TX_COLLISION_DETECTOR_INST $end
$var reg 1 GD tx_collision_detect $end
$scope module behavioral $end
$var reg 8 HD rx_fifo_wr_en_d[7:0] $end
$var reg 8 ID rx_fifo_din_pipe_d1[7:0] $end
$var reg 8 JD tx_fifo_dout_d5_sync2rx[7:0] $end
$var reg 8 KD tx_fifo_dout_d5_synccompare[7:0] $end
$var reg 2 LD sync2rxclk_tx_packet_complt[1:0] $end
$var reg 2 MD sync2rxclk_tx_enable[1:0] $end
$var reg 4 ND tx_coll_detect_cnt[3:0] $end
$upscope $end
$upscope $end
$scope module TRANSMIT_SM $end
$var reg 1 OD tx_preamble $end
$var reg 1 PD tx_dataen $end
$var reg 1 QD tx_enable $end
$var reg 1 RD tx_packet_complt $end
$scope module behavioral $end
$var reg 1 SD itx_postamble $end
$var reg 1 TD collision_detect_sync10mhz_d $end
$var reg 1 UD coll_det_reset $end
$var reg 120 VD tx_state $end
$scope module TX_IDLE_LINE_DETECTOR $end
$var reg 1 WD idle_line $end
$scope module behavioral $end
$var reg 4 XD idle_debug_sm[3:0] $end
$var reg 1 YD idle_line_temp $end
$upscope $end
$upscope $end
$upscope $end
$upscope $end
$upscope $end
$upscope $end
$scope module MANCHESTER_DECODER_INST $end
$var reg 1 ZD rx_add_cmpr_en $end
$scope module v1 $end
$scope module MANCHESTER_DECODER_ADAPTER_INST $end
$var reg 1 AE clk1x_enable $end
$var reg 1 BE rx_packet_end_all $end
$scope module v1 $end
$var reg 1 CE manches_in_s $end
$var reg 1 DE manches_in $end
$var reg 2 EE imanches_in_dly[1:0] $end
$var reg 1 FE iidle_line $end
$var reg 4 GE clkdiv[3:0] $end
$var reg 1 HE isampler_clk1x_en $end
$var reg 1 IE irx_center_sample $end
$var reg 1 JE inrz_data $end
$var reg 8 KE s2p_data[7:0] $end
$var reg 1 LE manches_transition $end
$var reg 8 ME decoder_shiftreg[7:0] $end
$var reg 1 NE decoder_transition $end
$var reg 4 OE decoder_transition_d[3:0] $end
$var reg 4 PE manches_transition_d[3:0] $end
$var reg 1 QE clock_adjust $end
$var reg 2 RE manchester_in_d[1:0] $end
$scope module RX_IDLE_LINE_DETECTOR $end
$var reg 1 SE idle_line $end
$scope module behavioral $end
$var reg 4 TE idle_debug_sm[3:0] $end
$var reg 1 UE idle_line_temp $end
$upscope $end
$upscope $end
$upscope $end
$upscope $end
$scope module AFE_RX_STATE_MACHINE $end
$var reg 1 VE packet_avail $end
$scope module behavioral $end
$var reg 1 WE irx_packet_end_all $end
$var reg 136 XE afe_rx_state $end
$upscope $end
$upscope $end
$scope module ReadFIFO_Write_SM_PROC $end
$var reg 1 YE sampler_clk1x_en $end
$var reg 1 ZE packet_avail $end
$var reg 10 AF consumer_type1_reg[9:0] $end
$var reg 1 BF tx_collision_detect $end
$var reg 1 CF tx_col_detect_en $end
$var reg 8 DF rx_fifo_din[7:0] $end
$var reg 1 EF rx_fifo_wr_en $end
$var reg 1 FF rx_fifo_txcoldetdis_wr_en $end
$var reg 1 GF rx_crc_error $end
$var reg 1 HF rx_packet_complt $end
$var reg 1 IF hold_collision $end
$scope module behavioral $end
$var reg 12 JF rx_byte_cntr[11:0] $end
$var reg 12 KF rx_packet_length[11:0] $end
$var reg 10 LF consumer_type[9:0] $end
$var reg 1 MF irx_fifo_wr_en $end
$var reg 1 NF rx_inprocess_d1 $end
$var reg 16 OF rx_crc_data_calc[15:0] $end
$var reg 16 PF rx_crc_data_store[15:0] $end
$var reg 1 QF sm_advance_i $end
$var reg 2 RF rx_add_cmpr_en_d[1:0] $end
$var reg 112 SF readfifo_wr_state $end
$upscope $end
$upscope $end
$upscope $end
$upscope $end
$upscope $end
$upscope $end
$upscope $end
$upscope $end
$enddefinitions $end
#0
1clk
b11111111111111111111100011001110 cyc
1A
0B
1C
0D
0E
0F
0G
0H
b000000000 I
b000000010 J
b00000000 K
1L
0M
0N
0O
b1111 P
0Q
1R
b00010100 S
b00000000 T
b11111111 U
0V
0W
0X
0Y
0Z
0AB
0BB
b00000000 CB
b00000101 DB
b11000010 EB
b000 FB
0GB
b00000000 HB
0IB
1JB
0KB
0LB
b000 MB
b000 NB
0OB
1PB
0QB
1RB
0SB
0TB
1UB
b11000010 VB
b000 WB
0XB
0YB
0ZB
b00000000 AC
0BC
0CC
1DC
b000000000 EC
1FC
0GC
0HC
0IC
1JC
0KC
1LC
0MC
0NC
b01 OC
b01 PC
b0000 QC
b0000 RC
b1111 SC
b0000 TC
b0000 UC
b0000 VC
b111 WC
1XC
b0000 YC
0ZC
0AD
0BD
b00000000 CD
0DD
0ED
0FD
0GD
b00000000 HD
b00000000 ID
b00000000 JD
b00000000 KD
b00 LD
b00 MD
b0000 ND
0OD
0PD
0QD
0RD
0SD
0TD
1UD
b011010010110010001101100011001010010000000100000001000000010000000100000001000000010000000100000001000000010000000100000 VD
0WD
b0000 XD
0YD
1ZD
1AE
0BE
0CE
0DE
b00 EE
0FE
b1110 GE
0HE
0IE
0JE
b00011110 KE
0LE
b00111111 ME
0NE
b0000 OE
b0100 PE
0QE
b11 RE
0SE
b0000 TE
0UE
0VE
0WE
b0110010101100001011100100110110001111001010111110111010001100101011100100110110100100000001000000010000000100000001000000010000000100000 XE
0YE
0ZE
b0000001011 AF
0BF
0CF
b00011110 DF
0EF
0FF
0GF
0HF
0IF
b000000000000 JF
b000000000000 KF
b0000000000 LF
0MF
0NF
b1000111000110000 OF
b0000000000000000 PF
0QF
b11 RF
b0110010101100001011100100110110001111001010111110111010001100101011100100110110100100000001000000010000000100000 SF
#10
0clk
#20
1clk
b11111111111111111111100011001111 cyc
0A
0R
0JB
1ZC
1CE
1DE
b11 EE
b0101 GE
b11000000 ME
b0010 PE
b00 RE
#30
0clk
#40
1clk
b11111111111111111111100011010000 cyc
1A
1R
1JB
0ZC
0CE
0DE
b00 EE
b1101 GE
b00111100 KE
b00011111 ME
b1000 OE
b11 RE
b00111100 DF
#50
0clk
#60
1clk
b11111111111111111111100011010001 cyc
0R
0JB
1ZC
b0101 GE
1JE
b11100000 ME
b0000 PE
#70
0clk
#80
1clk
b11111111111111111111100011010010 cyc
0A
1R
1JB
0ZC
1CE
1DE
b11 EE
b1101 GE
b01111001 KE
b00011111 ME
b0010 PE
b00 RE
b01111001 DF
#90
0clk
#100
1clk
b11111111111111111111100011010011 cyc
0R
0JB
1ZC
b0101 GE
0JE
b11100000 ME
b0000 PE
#110
0clk
#120
1clk
b11111111111111111111100011010100 cyc
1A
1R
1JB
0ZC
0CE
0DE
b00 EE
b1101 GE
b11110010 KE
b00011111 ME
b0010 PE
b11 RE
b11110010 DF
#130
0clk
#140
1clk
b11111111111111111111100011010101 cyc
0R
0JB
1ZC
b0101 GE
1JE
b11100000 ME
b0000 PE
#150
0clk
#160
1clk
b11111111111111111111100011010110 cyc
0A
1R
1JB
0ZC
1CE
1DE
b11 EE
b1101 GE
b11100101 KE
b00011111 ME
b0010 PE
b00 RE
b11100101 DF
#170
0clk
#180
1clk
b11111111111111111111100011010111 cyc
1A
0R
0JB
1ZC
0CE
0DE
b00 EE
b0101 GE
1LE
b11100000 ME
b0000 PE
b11 RE
#190
0clk
#200
1clk
b11111111111111111111100011011000 cyc
0A
1R
1JB
0ZC
1CE
1DE
b11 EE
b1101 GE
b11001011 KE
0LE
b00011111 ME
b0001 PE
1QE
b00 RE
b11001011 DF
#210
0clk
#220
1clk
b11111111111111111111100011011001 cyc
1A
0R
0JB
1ZC
0CE
0DE
b00 EE
b0100 GE
1IE
1LE
b11110000 ME
b0100 OE
b0000 PE
0QE
b11 RE
#230
0clk
#240
1clk
b11111111111111111111100011011010 cyc
0A
1R
1JB
0ZC
1CE
1DE
b11 EE
b1011 GE
0IE
b10010111 KE
0LE
b00000111 ME
b0010 OE
b0001 PE
b00 RE
b10010111 DF
#250
0clk
#260
1clk
b11111111111111111111100011011011 cyc
1A
0R
0JB
1ZC
0CE
0DE
b00 EE
b0011 GE
1LE
b11111000 ME
b0000 PE
b11 RE
#270
0clk
#280
1clk
b11111111111111111111100011011100 cyc
0A
1R
1JB
0ZC
1CE
1DE
b11 EE
b1011 GE
b00101111 KE
b00000111 ME
b00 RE
b00101111 DF
#290
0clk
#300
1clk
b11111111111111111111100011011101 cyc
0R
0JB
1ZC
b0011 GE
0LE
b11111000 ME
#310
0clk
#320
1clk
b11111111111111111111100011011110 cyc
1A
1R
1JB
0ZC
0CE
0DE
b00 EE
b1011 GE
0JE
b01011110 KE
1LE
b00000111 ME
b11 RE
b01011110 DF
#330
0clk
#340
1clk
b11111111111111111111100011011111 cyc
0R
0JB
1ZC
b0011 GE
0LE
b11111000 ME
#350
0clk
#360
1clk
b11111111111111111111100011100000 cyc
0A
1R
1JB
0ZC
1CE
1DE
b11 EE
b1011 GE
1JE
b10111101 KE
1LE
b00000111 ME
b00 RE
b10111101 DF
#370
0clk
#380
1clk
b11111111111111111111100011100001 cyc
0R
0JB
1ZC
b0011 GE
0LE
b11111000 ME
#390
0clk
#400
1clk
b11111111111111111111100011100010 cyc
1A
1R
1JB
0ZC
0CE
0DE
b00 EE
b1011 GE
0JE
b01111010 KE
b00000111 ME
b11 RE
b01111010 DF
#410
0clk
#420
1clk
b11111111111111111111100011100011 cyc
0A
0R
0JB
1ZC
1CE
1DE
b11 EE
b0010 GE
b11111100 ME
b0001 OE
b00 RE
#430
0clk
#440
1clk
b11111111111111111111100011100100 cyc
1A
1JB
0ZC
0CE
0DE
b00 EE
b1010 GE
b11110100 KE
b00000011 ME
b11 RE
b11110100 DF
#450
0clk
#460
1clk
b11111111111111111111100011100101 cyc
1R
0JB
1ZC
b0010 GE
b11111100 ME
#470
0clk
#480
1clk
b11111111111111111111100011100110 cyc
0A
0R
1JB
0ZC
1CE
1DE
b11 EE
b1010 GE
1JE
b11101001 KE
b00000011 ME
b00 RE
b11101001 DF
#490
0clk
#500
1clk
b11111111111111111111100011100111 cyc
1A
1R
0JB
1ZC
0CE
b0010 GE
b11111100 ME
b11 RE
#510
0clk
#520
1clk
b11111111111111111111100011101000 cyc
0A
0R
1JB
0ZC
1CE
b1010 GE
b11010011 KE
b00000011 ME
b00 RE
b11010011 DF
#530
0clk
#540
1clk
b11111111111111111111100011101001 cyc
1R
0JB
1ZC
b0010 GE
b11111100 ME
#550
0clk
#560
1clk
b11111111111111111111100011101010 cyc
1A
0R
1JB
0ZC
0CE
0DE
b10 EE
b1010 GE
0JE
b10100110 KE
b00000011 ME
b11 RE
b10100110 DF
#570
0clk
#580
1clk
b11111111111111111111100011101011 cyc
0A
1R
0JB
1ZC
1CE
b00 EE
b0001 GE
b11111110 ME
1NE
b0000 OE
b00 RE
#590
0clk
#600
1clk
b11111111111111111111100011101100 cyc
1A
0R
1JB
0ZC
0CE
b10 EE
b1000 GE
b01001100 KE
b00000000 ME
0NE
b11 RE
b01001100 DF
#610
0clk
#620
1clk
b11111111111111111111100011101101 cyc
0A
1R
0JB
1ZC
1CE
b00 EE
b0000 GE
b11111111 ME
b00 RE
#630
0clk
#640
1clk
b11111111111111111111100011101110 cyc
1A
0R
1JB
0ZC
0CE
1DE
b11 EE
b1000 GE
b10011000 KE
b00000000 ME
b11 RE
b10011000 DF
#650
0clk
#660
1clk
b11111111111111111111100011101111 cyc
0A
1R
0JB
1ZC
1CE
0DE
b00 EE
b0000 GE
b11111111 ME
b00 RE
#670
0clk
#680
1clk
b11111111111111111111100011110000 cyc
1A
0R
1JB
0ZC
0CE
1DE
b11 EE
b1000 GE
b00110000 KE
b00000000 ME
b11 RE
b00110000 DF
#690
0clk
#700
1clk
b11111111111111111111100011110001 cyc
1R
0JB
0DE
b00 EE
b0000 GE
b11111111 ME
#710
0clk
#720
1clk
b11111111111111111111100011110010 cyc
0A
0R
1JB
1ZC
1CE
b1000 GE
1JE
b01100001 KE
b00000000 ME
b00 RE
b01100001 DF
#730
0clk
#740
1clk
b11111111111111111111100011110011 cyc
1R
0JB
0ZC
1DE
b11 EE
b0000 GE
b11111111 ME
#750
0clk
#760
1clk
b11111111111111111111100011110100 cyc
1A
0R
1JB
1ZC
b1000 GE
0JE
b11000010 KE
b00000000 ME
b01 RE
b11000010 DF
#770
0clk
#780
1clk
b11111111111111111111100011110101 cyc
1R
0JB
0ZC
0CE
0DE
b00 EE
b1111 GE
b11111111 ME
b1000 PE
b11 RE
#790
0clk
#800
1clk
b11111111111111111111100011110110 cyc
0A
0R
1JB
1ZC
b0111 GE
1HE
1JE
b10000000 ME
b0000 PE
b10 RE
1YE
#810
0clk
#820
1clk
b11111111111111111111100011110111 cyc
1R
0JB
0ZC
1CE
1DE
b11 EE
b1111 GE
0HE
b10000101 KE
b01111111 ME
b1000 PE
b00 RE
0YE
b10000101 DF
#830
0clk
#840
1clk
b11111111111111111111100011111000 cyc
0R
1JB
1ZC
0CE
0DE
b00 EE
b0110 GE
b10000000 ME
b0100 PE
b10 RE
#850
0clk
#860
1clk
b11111111111111111111100011111001 cyc
1R
0JB
0ZC
1CE
1DE
b11 EE
b1110 GE
b00001011 KE
b00111111 ME
b1000 PE
b00 RE
b00001011 DF
#870
0clk
#880
1clk
b11111111111111111111100011111010 cyc
1A
1JB
1ZC
b0110 GE
0JE
b11000000 ME
b0000 PE
b01 RE
#890
0clk
#900
1clk
b11111111111111111111100011111011 cyc
0R
0JB
0ZC
0CE
0DE
b00 EE
b1110 GE
b00010110 KE
b00111111 ME
b1000 PE
b11 RE
b00010110 DF
#910
0clk
#920
1clk
b11111111111111111111100011111100 cyc
0A
1R
1JB
1ZC
1CE
1DE
b11 EE
b0110 GE
b11000000 ME
b0100 PE
b00 RE
#930
0clk
#940
1clk
b11111111111111111111100011111101 cyc
1A
0R
0JB
0ZC
0CE
0DE
b00 EE
b1110 GE
b00101100 KE
b00111111 ME
b11 RE
b00101100 DF
#950
0clk
#960
1clk
b11111111111111111111100011111110 cyc
0A
1R
1JB
1ZC
1CE
1DE
b11 EE
b0110 GE
b11000000 ME
b00 RE
#970
0clk
#980
1clk
b11111111111111111111100011111111 cyc
1A
0R
0JB
0ZC
0CE
0DE
b00 EE
b1101 GE
b01011000 KE
b00111111 ME
b0010 PE
b11 RE
b01011000 DF
#990
0clk
#1000
1clk
b11111111111111111111100100000000 cyc
1R
1JB
1ZC
b0101 GE
1JE
b11100000 ME
b1000 OE
b0000 PE
#1010
0clk
#1020
1clk
b11111111111111111111100100000001 cyc
0A
0R
0JB
0ZC
1CE
1DE
b11 EE
b1101 GE
b10110001 KE
b00011111 ME
b0100 PE
b00 RE
b10110001 DF
#1030
0clk
#1040
1clk
b11111111111111111111100100000010 cyc
1R
1JB
1ZC
b0101 GE
0JE
b11100000 ME
b0000 PE
#1050
0clk
#1060
1clk
b11111111111111111111100100000011 cyc
1A
0R
0JB
0ZC
0CE
0DE
b00 EE
b1101 GE
b01100010 KE
b00011111 ME
b0010 PE
b11 RE
b01100010 DF
#1070
0clk
#1080
1clk
b11111111111111111111100100000100 cyc
0A
1R
1JB
1ZC
1CE
1DE
b11 EE
b0101 GE
b11100000 ME
b0001 PE
1QE
b00 RE
#1090
0clk
#1100
1clk
b11111111111111111111100100000101 cyc
1A
0R
0JB
0ZC
0CE
0DE
b00 EE
b1100 GE
1IE
b11000100 KE
b00001111 ME
b0100 OE
0QE
b11 RE
b11000100 DF
#1110
0clk
#1120
1clk
b11111111111111111111100100000110 cyc
1R
1JB
1ZC
b0100 GE
b11110000 ME
b0000 PE
#1130
0clk
#1140
1clk
b11111111111111111111100100000111 cyc
0A
0R
0JB
0ZC
1CE
1DE
b11 EE
b1100 GE
1JE
b10001001 KE
b00001111 ME
b0010 PE
b00 RE
b10001001 DF
#1150
0clk
#1160
1clk
b11111111111111111111100100001000 cyc
1A
1R
1JB
1ZC
0CE
0DE
b00 EE
b0100 GE
1LE
b11110000 ME
b0000 PE
b11 RE
#1170
0clk
#1180
1clk
b11111111111111111111100100001001 cyc
0A
0R
0JB
0ZC
1CE
1DE
b11 EE
b1011 GE
0IE
b00010011 KE
0LE
b00000111 ME
b0010 OE
b0001 PE
b00 RE
b00010011 DF
#1190
0clk
#1200
1clk
b11111111111111111111100100001010 cyc
1R
1JB
1ZC
b0011 GE
b11111000 ME
b0000 PE
#1210
0clk
#1220
1clk
b11111111111111111111100100001011 cyc
1A
0R
0JB
0ZC
0CE
0DE
b00 EE
b1011 GE
0JE
b00100110 KE
b00000111 ME
b0001 PE
b11 RE
b00100110 DF
#1230
0clk
#1240
1clk
b11111111111111111111100100001100 cyc
0A
1R
1JB
1ZC
1CE
1DE
b11 EE
b0011 GE
1LE
b11111000 ME
b0000 PE
b00 RE
#1250
0clk
#1260
1clk
b11111111111111111111100100001101 cyc
1A
0R
0JB
0ZC
0CE
0DE
b00 EE
b1011 GE
b01001100 KE
b00000111 ME
b11 RE
b01001100 DF
#1270
0clk
#1280
1clk
b11111111111111111111100100001110 cyc
0A
1R
1JB
1ZC
1CE
1DE
b11 EE
b0011 GE
b11111000 ME
b00 RE
#1290
0clk
#1300
1clk
b11111111111111111111100100001111 cyc
1A
0R
0JB
0ZC
0CE
0DE
b00 EE
b1011 GE
b10011000 KE
b00000111 ME
b11 RE
b10011000 DF
#1310
0clk
#1320
1clk
b11111111111111111111100100010000 cyc
1JB
1ZC
b0011 GE
0LE
b11111000 ME
#1330
0clk
#1340
1clk
b11111111111111111111100100010001 cyc
0A
1R
0JB
0ZC
1CE
1DE
b11 EE
b1011 GE
1JE
b00110001 KE
1LE
b00000111 ME
b00 RE
b00110001 DF
#1350
0clk
#1360
1clk
b11111111111111111111100100010010 cyc
1A
0R
1JB
1ZC
0CE
0DE
b10 EE
b0011 GE
0LE
b11111000 ME
b11 RE
#1370
0clk
#1380
1clk
b11111111111111111111100100010011 cyc
0A
1R
0JB
0ZC
1CE
1DE
b11 EE
b1011 GE
b01100011 KE
1LE
b00000111 ME
b00 RE
b01100011 DF
#1390
0clk
#1400
1clk
b11111111111111111111100100010100 cyc
0R
1JB
1ZC
b0011 GE
0LE
b11111000 ME
#1410
0clk
#1420
1clk
b11111111111111111111100100010101 cyc
1A
1R
0JB
0ZC
0CE
0DE
b00 EE
b1011 GE
0JE
b11000110 KE
b00000111 ME
b11 RE
b11000110 DF
#1430
0clk
#1440
1clk
b11111111111111111111100100010110 cyc
0R
1JB
1ZC
b0010 GE
b11111100 ME
b0001 OE
#1450
0clk
#1460
1clk
b11111111111111111111100100010111 cyc
0A
1R
0JB
0ZC
1CE
1DE
b11 EE
b1010 GE
1JE
b10001101 KE
b00000011 ME
b00 RE
b10001101 DF
#1470
0clk
#1480
1clk
b11111111111111111111100100011000 cyc
1A
0R
1JB
1ZC
0CE
b0010 GE
b11111100 ME
b11 RE
#1490
0clk
#1500
1clk
b11111111111111111111100100011001 cyc
0A
1R
0JB
0ZC
1CE
b1010 GE
b00011011 KE
b00000011 ME
b00 RE
b00011011 DF
#1510
0clk
#1520
1clk
b11111111111111111111100100011010 cyc
0R
1JB
1ZC
b0010 GE
b11111100 ME
#1530
0clk
#1540
1clk
b11111111111111111111100100011011 cyc
1A
1R
0JB
0ZC
0CE
0DE
b10 EE
b1010 GE
0JE
b00110110 KE
b00000011 ME
b11 RE
b00110110 DF
#1550
0clk
#1560
1clk
b11111111111111111111100100011100 cyc
0A
0R
1JB
1ZC
1CE
b00 EE
b0001 GE
b11111110 ME
1NE
b0000 OE
b00 RE
#1570
0clk
#1580
1clk
b11111111111111111111100100011101 cyc
1A
1R
0JB
0ZC
0CE
b10 EE
b1000 GE
b01101100 KE
b00000000 ME
0NE
b11 RE
b01101100 DF
#1590
0clk
#1600
1clk
b11111111111111111111100100011110 cyc
0R
1JB
1ZC
b00 EE
b0000 GE
b11111111 ME
#1610
0clk
#1620
1clk
b11111111111111111111100100011111 cyc
0A
1R
0JB
0ZC
1CE
1DE
b01 EE
b1000 GE
1JE
b11011001 KE
b00000000 ME
b00 RE
b11011001 DF
#1630
0clk
#1640
1clk
b11111111111111111111100100100000 cyc
0R
1JB
1ZC
b11 EE
b0000 GE
b11111111 ME
#1650
0clk
#1660
1clk
b11111111111111111111100100100001 cyc
1A
1R
0JB
0ZC
0CE
b1000 GE
0JE
b10110010 KE
b00000000 ME
b11 RE
b10110010 DF
#1670
0clk
#1680
1clk
b11111111111111111111100100100010 cyc
0A
0R
1JB
0DE
b00 EE
b0000 GE
b11111111 ME
b10 RE
#1690
0clk
#1700
1clk
b11111111111111111111100100100011 cyc
1A
1R
0JB
1ZC
1CE
1DE
b11 EE
b0111 GE
1HE
b00000000 ME
b1000 PE
b01 RE
1YE
#1710
0clk
#1720
1clk
b11111111111111111111100100100100 cyc
0A
0R
1JB
0ZC
0CE
0DE
b00 EE
b1111 GE
0HE
b01100100 KE
b01111111 ME
b10 RE
0YE
b01100100 DF
#1730
0clk
#1740
1clk
b11111111111111111111100100100101 cyc
1A
1R
0JB
1ZC
1CE
1DE
b11 EE
b0111 GE
1HE
b10000000 ME
b01 RE
1YE
#1750
0clk
#1760
1clk
b11111111111111111111100100100110 cyc
0R
1JB
0ZC
0CE
0DE
b00 EE
b1111 GE
0HE
b11001000 KE
b01111111 ME
b11 RE
0YE
b11001000 DF
#1770
0clk
#1780
1clk
b11111111111111111111100100100111 cyc
0A
0JB
1ZC
b0111 GE
1HE
1JE
b10000000 ME
b0000 PE
b10 RE
1YE
#1790
0clk
#1800
1clk
b11111111111111111111100100101000 cyc
1R
1JB
0ZC
1CE
1DE
b11 EE
b1111 GE
0HE
b10010001 KE
b01111111 ME
b1000 PE
b00 RE
0YE
b10010001 DF
#1810
0clk
#1820
1clk
b11111111111111111111100100101001 cyc
0R
0JB
1ZC
0CE
0DE
b00 EE
b0111 GE
1HE
b10000000 ME
b0010 PE
b10 RE
1YE
#1830
0clk
#1840
1clk
b11111111111111111111100100101010 cyc
1R
1JB
0ZC
1CE
1DE
b11 EE
b1111 GE
0HE
b00100011 KE
b01111111 ME
b1000 PE
b00 RE
0YE
b00100011 DF
#1850
0clk
#1860
1clk
b11111111111111111111100100101011 cyc
1A
0R
0JB
1ZC
b0111 GE
1HE
0JE
b10000000 ME
b0000 PE
1YE
#1870
0clk
#1880
1clk
b11111111111111111111100100101100 cyc
1R
1JB
0ZC
0CE
0DE
b00 EE
b1110 GE
0HE
b01000110 KE
b01111111 ME
b0100 PE
b11 RE
0YE
b01000110 DF
#1890
0clk
#1900
1clk
b11111111111111111111100100101101 cyc
0A
0R
0JB
1ZC
1CE
1DE
b11 EE
b0110 GE
b11000000 ME
b00 RE
#1910
0clk
#1920
1clk
b11111111111111111111100100101110 cyc
1A
1R
1JB
0ZC
0CE
0DE
b00 EE
b1110 GE
b10001100 KE
b00111111 ME
b11 RE
b10001100 DF
#1930
0clk
#1940
1clk
b11111111111111111111100100101111 cyc
0R
0JB
1ZC
b0110 GE
1JE
b11000000 ME
b0000 PE
#1950
0clk
#1960
1clk
b11111111111111111111100100110000 cyc
0A
1R
1JB
0ZC
1CE
1DE
b11 EE
b1110 GE
b00011001 KE
b00111111 ME
b0100 PE
b00 RE
b00011001 DF
#1970
0clk
#1980
1clk
b11111111111111111111100100110001 cyc
0R
0JB
1ZC
b0110 GE
0JE
b11000000 ME
b0000 PE
#1990
0clk
#2000
1clk
b11111111111111111111100100110010 cyc
1A
1R
1JB
0ZC
0CE
0DE
b00 EE
b1101 GE
b00110010 KE
b00111111 ME
b0010 PE
b11 RE
b00110010 DF
#2010
0clk
#2020
1clk
b11111111111111111111100100110011 cyc
0R
0JB
1ZC
b0101 GE
1JE
b11100000 ME
b1000 OE
b0000 PE
#2030
0clk
#2040
1clk
b11111111111111111111100100110100 cyc
0A
1R
1JB
0ZC
1CE
1DE
b11 EE
b1101 GE
b01100101 KE
b00011111 ME
b0010 PE
b00 RE
b01100101 DF
#2050
0clk
#2060
1clk
b11111111111111111111100100110101 cyc
0R
0JB
1ZC
b0101 GE
0JE
b11100000 ME
b0000 PE
#2070
0clk
#2080
1clk
b11111111111111111111100100110110 cyc
1A
1R
1JB
0ZC
0CE
0DE
b00 EE
b1101 GE
b11001010 KE
b00011111 ME
b0010 PE
b11 RE
b11001010 DF
#2090
0clk
#2100
1clk
b11111111111111111111100100110111 cyc
0R
0JB
1ZC
b0101 GE
1JE
b11100000 ME
b0000 PE
#2110
0clk
#2120
1clk
b11111111111111111111100100111000 cyc
0A
1R
1JB
0ZC
1CE
1DE
b11 EE
b1101 GE
b10010101 KE
b00011111 ME
b0010 PE
b00 RE
b10010101 DF
#2130
0clk
#2140
1clk
b11111111111111111111100100111001 cyc
1A
0R
0JB
1ZC
0CE
0DE
b00 EE
b0101 GE
1LE
b11100000 ME
b0000 PE
b11 RE
#2150
0clk
#2160
1clk
b11111111111111111111100100111010 cyc
0A
1R
1JB
0ZC
1CE
1DE
b11 EE
b1101 GE
b00101011 KE
0LE
b00011111 ME
b0001 PE
1QE
b00 RE
b00101011 DF
#2170
0clk
#2180
1clk
b11111111111111111111100100111011 cyc
0R
0JB
1ZC
b0100 GE
1IE
b11110000 ME
b0100 OE
b0000 PE
0QE
#2190
0clk
#2200
1clk
b11111111111111111111100100111100 cyc
1A
1R
1JB
0ZC
0CE
0DE
b00 EE
b1100 GE
0JE
b01010110 KE
b00001111 ME
b0001 PE
b11 RE
b01010110 DF
#2210
0clk
