synthesis/rev_debug1_1/IICE.vcd
$date
Tue Aug 29 09:17:12 2017
$end
$version
Identify 1.1
$end
$timescale
1 ns
$end
$comment
{Identify created VCD dump}
$end
$scope module m2s010_som $end
$var integer 32 cyc identify_cycle       $end
$var reg     1  clk identify_sampleclock $end
$scope module rtl $end
$scope module CommsFPGA_top_0 $end
$var reg 1 A manchester_in $end
$var reg 1 B manch_out_p $end
$scope module behavioral $end
$var reg 9 C rx_fifo_dout[8:0] $end
$var reg 9 D rx_fifo_din_pipe[8:0] $end
$var reg 1 E rx_fifo_overflow $end
$scope module PROCESSOR_INTERFACE_INST $end
$var reg 1 F apb3_clk $end
$var reg 1 G apb3_reset $end
$var reg 1 H apb3_sel $end
$var reg 1 I apb3_enable $end
$var reg 8 J apb3_addr[7:0] $end
$var reg 8 K apb3_wdata[7:0] $end
$var reg 8 L apb3_rdata[7:0] $end
$var reg 1 M apb3_ready $end
$var reg 1 N apb3_write $end
$var reg 1 O rx_crc_error $end
$var reg 1 P int $end
$var reg 1 Q tx_packet_complt $end
$var reg 1 R rx_packet_complt $end
$var reg 1 S col_detect $end
$var reg 1 T rx_packet_avail_int $end
$scope module behavioral $end
$var reg 1 U irx_fifo_rd_en $end
$var reg 8 V int_reg[7:0] $end
$var reg 1 W iup_eop $end
$var reg 3 X up_eop_sync[2:0] $end
$var reg 1 Y iup_eop_cntdown_en $end
$var reg 8 Z rx_packet_depth[7:0] $end
$var reg 1 AB rx_packet_depth_status $end
$scope module INTERRUPT_INST $end
$var reg 1 BB tx_fifo_underrun $end
$var reg 1 CB tx_fifo_overflow $end
$var reg 1 DB rx_fifo_underrun $end
$scope module behavioral $end
$var reg 1 EB irx_packet_avail_int $end
$var reg 1 FB block_int_until_rd $end
$upscope $end
$upscope $end
$upscope $end
$upscope $end
$scope module FIFOS_INST $end
$var reg 9 GB rx_fifo_dout[8:0] $end
$var reg 1 HB rx_fifo_empty $end
$var reg 1 IB rx_fifo_full $end
$var reg 1 JB rx_fifo_overflow $end
$var reg 1 KB rx_fifo_underrun $end
$scope module behavioral $end
$var reg 2 LB readfifo_write_ptr[1:0] $end
$var reg 2 MB readfifo_read_ptr[1:0] $end
$var reg 4 NB irx_fifo_wr_en[3:0] $end
$var reg 4 OB irx_fifo_rd_en[3:0] $end
$upscope $end
$upscope $end
$scope module MANCHESTER_ENCODER_INST $end
$scope module behavioral $end
$var reg 1 PB man_data $end
$scope module TRANSMIT_SM $end
$scope module behavioral $end
$var reg 120 QB tx_state $end
$upscope $end
$upscope $end
$upscope $end
$upscope $end
$scope module MANCHESTER_DECODER_INST $end
$scope module v1 $end
$scope module MANCHESTER_DECODER_ADAPTER_INST $end
$scope module v1 $end
$var reg 4 RB clkdiv[3:0] $end
$var reg 1 SB inrz_data $end
$var reg 8 TB s2p_data[7:0] $end
$var reg 1 UB clock_adjust $end
$upscope $end
$upscope $end
$scope module AFE_RX_STATE_MACHINE $end
$scope module behavioral $end
$var reg 136 VB afe_rx_state $end
$upscope $end
$upscope $end
$scope module ReadFIFO_Write_SM_PROC $end
$scope module behavioral $end
$var reg 112 WB readfifo_wr_state $end
$upscope $end
$upscope $end
$upscope $end
$upscope $end
$upscope $end
$upscope $end
$upscope $end
$upscope $end
$enddefinitions $end
#0
1clk
b11111111111111111111100000000010 cyc
1A
1B
b110101111 C
b000000010 D
0E
0F
0G
0H
0I
b00010100 J
b00000000 K
b11111111 L
0M
0N
0O
1P
0Q
0R
0S
1T
0U
b01000000 V
0W
b000 X
0Y
b00000100 Z
1AB
0BB
0CB
0DB
1EB
1FB
b110101111 GB
0HB
0IB
0JB
0KB
b00 LB
b00 MB
b0000 NB
b0000 OB
0PB
b011101000111100001011111011001000110000101110100011000010101111101100101011011100110010001011111011100110111010000110001 QB
b1111 RB
1SB
b00000010 TB
0UB
b0111000001100001011000110110101101100101011101000101111101101001011011100101111101110011011101000010000000100000001000000010000000100000 VB
b0110010001100001011101000110000101011111011000100111100101110100011001010111001100100000001000000010000000100000 WB
#10
0clk
#20
1clk
b11111111111111111111100000000011 cyc
1F
b0000 RB
#30
0clk
#40
1clk
b11111111111111111111100000000100 cyc
0A
0F
b0001 RB
#50
0clk
#60
1clk
b11111111111111111111100000000101 cyc
b0010 RB
#70
0clk
#80
1clk
b11111111111111111111100000000110 cyc
1F
b0011 RB
#90
0clk
#100
1clk
b11111111111111111111100000000111 cyc
0F
b0100 RB
#110
0clk
#120
1clk
b11111111111111111111100000001000 cyc
1F
1H
b0101 RB
1UB
#130
0clk
#140
1clk
b11111111111111111111100000001001 cyc
0F
0UB
#150
0clk
#160
1clk
b11111111111111111111100000001010 cyc
1F
b0110 RB
#170
0clk
#180
1clk
b11111111111111111111100000001011 cyc
0F
1I
b0111 RB
#190
0clk
#200
1clk
b11111111111111111111100000001100 cyc
b1000 RB
b00000101 TB
#210
0clk
#220
1clk
b11111111111111111111100000001101 cyc
0B
1F
b01000000 L
b1001 RB
#230
0clk
#240
1clk
b11111111111111111111100000001110 cyc
0F
b1010 RB
#250
0clk
#260
1clk
b11111111111111111111100000001111 cyc
1F
1M
b1011 RB
#270
0clk
#280
1clk
b11111111111111111111100000010000 cyc
0F
b1100 RB
#290
0clk
#300
1clk
b11111111111111111111100000010001 cyc
1F
0I
b1101 RB
0SB
#310
0clk
#320
1clk
b11111111111111111111100000010010 cyc
0F
0H
b11111111 L
0M
b1110 RB
#330
0clk
#340
1clk
b11111111111111111111100000010011 cyc
1F
b1111 RB
#350
0clk
#360
1clk
b11111111111111111111100000010100 cyc
1A
b0000 RB
#370
0clk
#380
1clk
b11111111111111111111100000010101 cyc
1B
0F
b0001 RB
#390
0clk
#400
1clk
b11111111111111111111100000010110 cyc
1F
b0010 RB
#410
0clk
#420
1clk
b11111111111111111111100000010111 cyc
0F
b0011 RB
#430
0clk
#440
1clk
b11111111111111111111100000011000 cyc
1F
b0100 RB
#450
0clk
#460
1clk
b11111111111111111111100000011001 cyc
0F
b0101 RB
#470
0clk
#480
1clk
b11111111111111111111100000011010 cyc
1F
b0110 RB
#490
0clk
#500
1clk
b11111111111111111111100000011011 cyc
0F
b0001 NB
b0111 RB
#510
0clk
#520
1clk
b11111111111111111111100000011100 cyc
b000000011 D
b0000 NB
b1000 RB
b00001010 TB
#530
0clk
#540
1clk
b11111111111111111111100000011101 cyc
0A
0B
1F
b1001 RB
#550
0clk
#560
1clk
b11111111111111111111100000011110 cyc
0F
b1010 RB
#570
0clk
#580
1clk
b11111111111111111111100000011111 cyc
1F
b1011 RB
#590
0clk
#600
1clk
b11111111111111111111100000100000 cyc
0F
b1100 RB
#610
0clk
#620
1clk
b11111111111111111111100000100001 cyc
1F
b1101 RB
1UB
#630
0clk
#640
1clk
b11111111111111111111100000100010 cyc
0F
0UB
#650
0clk
#660
1clk
b11111111111111111111100000100011 cyc
b1110 RB
#670
0clk
#680
1clk
b11111111111111111111100000100100 cyc
1A
1F
b1111 RB
#690
0clk
#700
1clk
b11111111111111111111100000100101 cyc
1B
0F
b0000 RB
#710
0clk
#720
1clk
b11111111111111111111100000100110 cyc
1F
b0001 RB
#730
0clk
#740
1clk
b11111111111111111111100000100111 cyc
0F
b0010 RB
#750
0clk
#760
1clk
b11111111111111111111100000101000 cyc
1F
b0011 RB
#770
0clk
#780
1clk
b11111111111111111111100000101001 cyc
0F
b0100 RB
#790
0clk
#800
1clk
b11111111111111111111100000101010 cyc
1F
b0101 RB
#810
0clk
#820
1clk
b11111111111111111111100000101011 cyc
b0110 RB
#830
0clk
#840
1clk
b11111111111111111111100000101100 cyc
0F
b0111 RB
#850
0clk
#860
1clk
b11111111111111111111100000101101 cyc
0A
0B
1F
b1000 RB
b00010100 TB
#870
0clk
#880
1clk
b11111111111111111111100000101110 cyc
0F
b1001 RB
#890
0clk
#900
1clk
b11111111111111111111100000101111 cyc
1F
b1010 RB
#910
0clk
#920
1clk
b11111111111111111111100000110000 cyc
0F
b1011 RB
#930
0clk
#940
1clk
b11111111111111111111100000110001 cyc
1F
b1100 RB
#950
0clk
#960
1clk
b11111111111111111111100000110010 cyc
0F
b1101 RB
#970
0clk
#980
1clk
b11111111111111111111100000110011 cyc
b1110 RB
#990
0clk
#1000
1clk
b11111111111111111111100000110100 cyc
1F
b1111 RB
#1010
0clk
#1020
1clk
b11111111111111111111100000110101 cyc
1A
1B
0F
b0000 RB
#1030
0clk
#1040
1clk
b11111111111111111111100000110110 cyc
1F
b0001 RB
#1050
0clk
#1060
1clk
b11111111111111111111100000110111 cyc
0F
b0010 RB
#1070
0clk
#1080
1clk
b11111111111111111111100000111000 cyc
1F
b0011 RB
#1090
0clk
#1100
1clk
b11111111111111111111100000111001 cyc
0F
b0100 RB
#1110
0clk
#1120
1clk
b11111111111111111111100000111010 cyc
b0101 RB
#1130
0clk
#1140
1clk
b11111111111111111111100000111011 cyc
1F
b0110 RB
#1150
0clk
#1160
1clk
b11111111111111111111100000111100 cyc
0F
b0111 RB
#1170
0clk
#1180
1clk
b11111111111111111111100000111101 cyc
0A
1F
b1000 RB
b00101000 TB
#1190
0clk
#1200
1clk
b11111111111111111111100000111110 cyc
0B
0F
b1001 RB
#1210
0clk
#1220
1clk
b11111111111111111111100000111111 cyc
1F
b1010 RB
#1230
0clk
#1240
1clk
b11111111111111111111100001000000 cyc
0F
b1011 RB
#1250
0clk
#1260
1clk
b11111111111111111111100001000001 cyc
1F
b1100 RB
#1270
0clk
#1280
1clk
b11111111111111111111100001000010 cyc
b1101 RB
1UB
#1290
0clk
#1300
1clk
b11111111111111111111100001000011 cyc
0F
0UB
#1310
0clk
#1320
1clk
b11111111111111111111100001000100 cyc
1F
b1110 RB
#1330
0clk
#1340
1clk
b11111111111111111111100001000101 cyc
1A
0F
b1111 RB
#1350
0clk
#1360
1clk
b11111111111111111111100001000110 cyc
1B
1F
b0000 RB
#1370
0clk
#1380
1clk
b11111111111111111111100001000111 cyc
0F
b0001 RB
#1390
0clk
#1400
1clk
b11111111111111111111100001001000 cyc
1F
b0010 RB
#1410
0clk
#1420
1clk
b11111111111111111111100001001001 cyc
0F
b0011 RB
#1430
0clk
#1440
1clk
b11111111111111111111100001001010 cyc
b0100 RB
#1450
0clk
#1460
1clk
b11111111111111111111100001001011 cyc
1F
b0101 RB
#1470
0clk
#1480
1clk
b11111111111111111111100001001100 cyc
0F
b0110 RB
#1490
0clk
#1500
1clk
b11111111111111111111100001001101 cyc
1F
b0111 RB
#1510
0clk
#1520
1clk
b11111111111111111111100001001110 cyc
0A
0B
0F
b1000 RB
b01010000 TB
#1530
0clk
#1540
1clk
b11111111111111111111100001001111 cyc
1F
b1001 RB
#1550
0clk
#1560
1clk
b11111111111111111111100001010000 cyc
0F
b1010 RB
#1570
0clk
#1580
1clk
b11111111111111111111100001010001 cyc
b1011 RB
#1590
0clk
#1600
1clk
b11111111111111111111100001010010 cyc
1F
b1100 RB
#1610
0clk
#1620
1clk
b11111111111111111111100001010011 cyc
0F
b1101 RB
#1630
0clk
#1640
1clk
b11111111111111111111100001010100 cyc
1F
b1110 RB
#1650
0clk
#1660
1clk
b11111111111111111111100001010101 cyc
0F
b1111 RB
#1670
0clk
#1680
1clk
b11111111111111111111100001010110 cyc
1A
1F
b0000 RB
#1690
0clk
#1700
1clk
b11111111111111111111100001010111 cyc
0F
b0001 RB
#1710
0clk
#1720
1clk
b11111111111111111111100001011000 cyc
1F
b0010 RB
#1730
0clk
#1740
1clk
b11111111111111111111100001011001 cyc
b0011 RB
#1750
0clk
#1760
1clk
b11111111111111111111100001011010 cyc
0F
b0100 RB
#1770
0clk
#1780
1clk
b11111111111111111111100001011011 cyc
1F
b0101 RB
#1790
0clk
#1800
1clk
b11111111111111111111100001011100 cyc
0F
b0110 RB
#1810
0clk
#1820
1clk
b11111111111111111111100001011101 cyc
1F
b0111 RB
#1830
0clk
#1840
1clk
b11111111111111111111100001011110 cyc
1B
0F
b1000 RB
b10100000 TB
#1850
0clk
#1860
1clk
b11111111111111111111100001011111 cyc
1F
b1001 RB
#1870
0clk
#1880
1clk
b11111111111111111111100001100000 cyc
0F
b1010 RB
#1890
0clk
#1900
1clk
b11111111111111111111100001100001 cyc
b1011 RB
#1910
0clk
#1920
1clk
b11111111111111111111100001100010 cyc
1F
b1100 RB
#1930
0clk
#1940
1clk
b11111111111111111111100001100011 cyc
0F
b1101 RB
1SB
#1950
0clk
#1960
1clk
b11111111111111111111100001100100 cyc
1F
1H
b1110 RB
#1970
0clk
#1980
1clk
b11111111111111111111100001100101 cyc
0F
b1111 RB
#1990
0clk
#2000
1clk
b11111111111111111111100001100110 cyc
0A
0B
1F
b0000 RB
#2010
0clk
#2020
1clk
b11111111111111111111100001100111 cyc
0F
1I
b0001 RB
#2030
0clk
#2040
1clk
b11111111111111111111100001101000 cyc
b0010 RB
#2050
0clk
#2060
1clk
b11111111111111111111100001101001 cyc
1F
b01000000 L
b0011 RB
#2070
0clk
#2080
1clk
b11111111111111111111100001101010 cyc
0F
b0100 RB
#2090
0clk
#2100
1clk
b11111111111111111111100001101011 cyc
1F
1M
b0101 RB
#2110
0clk
#2120
1clk
b11111111111111111111100001101100 cyc
0F
b0110 RB
#2130
0clk
#2140
1clk
b11111111111111111111100001101101 cyc
1F
0I
b0111 RB
#2150
0clk
#2160
1clk
b11111111111111111111100001101110 cyc
1A
0F
0H
b11111111 L
0M
b1000 RB
b01000001 TB
#2170
0clk
#2180
1clk
b11111111111111111111100001101111 cyc
1B
1F
b011101000111100001011111011001000110000101110100011000010101111101100101011011100110010001011111011100110111010000110010 QB
b1001 RB
#2190
0clk
#2200
1clk
b11111111111111111111100001110000 cyc
b1010 RB
#2210
0clk
#2220
1clk
b11111111111111111111100001110001 cyc
0F
b1011 RB
#2230
0clk
#2240
1clk
b11111111111111111111100001110010 cyc
1F
b1100 RB
#2250
0clk
#2260
1clk
b11111111111111111111100001110011 cyc
0F
b1101 RB
#2270
0clk
#2280
1clk
b11111111111111111111100001110100 cyc
1F
b1110 RB
#2290
0clk
#2300
1clk
b11111111111111111111100001110101 cyc
0F
b1111 RB
#2310
0clk
#2320
1clk
b11111111111111111111100001110110 cyc
0A
1F
b0000 RB
#2330
0clk
#2340
1clk
b11111111111111111111100001110111 cyc
0F
b0001 RB
#2350
0clk
#2360
1clk
b11111111111111111111100001111000 cyc
b0010 RB
#2370
0clk
#2380
1clk
b11111111111111111111100001111001 cyc
1F
b0011 RB
#2390
0clk
#2400
1clk
b11111111111111111111100001111010 cyc
0F
b0100 RB
#2410
0clk
#2420
1clk
b11111111111111111111100001111011 cyc
1F
b0101 RB
#2430
0clk
#2440
1clk
b11111111111111111111100001111100 cyc
0F
b0110 RB
#2450
0clk
#2460
1clk
b11111111111111111111100001111101 cyc
1F
b0111 RB
#2470
0clk
#2480
1clk
b11111111111111111111100001111110 cyc
0F
b1000 RB
b10000011 TB
#2490
0clk
#2500
1clk
b11111111111111111111100001111111 cyc
0B
b1001 RB
#2510
0clk
#2520
1clk
b11111111111111111111100010000000 cyc
1F
b1010 RB
#2530
0clk
#2540
1clk
b11111111111111111111100010000001 cyc
0F
b1011 RB
#2550
0clk
#2560
1clk
b11111111111111111111100010000010 cyc
1F
b1100 RB
#2570
0clk
#2580
1clk
b11111111111111111111100010000011 cyc
0F
b1101 RB
0SB
#2590
0clk
#2600
1clk
b11111111111111111111100010000100 cyc
1F
b1110 RB
#2610
0clk
#2620
1clk
b11111111111111111111100010000101 cyc
0F
b1111 RB
#2630
0clk
#2640
1clk
b11111111111111111111100010000110 cyc
1A
1F
b0000 RB
#2650
0clk
#2660
1clk
b11111111111111111111100010000111 cyc
b0001 RB
#2670
0clk
#2680
1clk
b11111111111111111111100010001000 cyc
0F
b0010 RB
#2690
0clk
#2700
1clk
b11111111111111111111100010001001 cyc
1F
b0011 RB
#2710
0clk
#2720
1clk
b11111111111111111111100010001010 cyc
0F
b0100 RB
#2730
0clk
#2740
1clk
b11111111111111111111100010001011 cyc
1F
b0101 RB
#2750
0clk
#2760
1clk
b11111111111111111111100010001100 cyc
0F
b0110 RB
#2770
0clk
#2780
1clk
b11111111111111111111100010001101 cyc
1F
b0111 RB
#2790
0clk
#2800
1clk
b11111111111111111111100010001110 cyc
0F
b1000 RB
b00000110 TB
#2810
0clk
#2820
1clk
b11111111111111111111100010001111 cyc
1B
b1001 RB
#2830
0clk
#2840
1clk
b11111111111111111111100010010000 cyc
1F
b1010 RB
#2850
0clk
#2860
1clk
b11111111111111111111100010010001 cyc
0F
b1011 RB
#2870
0clk
#2880
1clk
b11111111111111111111100010010010 cyc
1F
b1100 RB
#2890
0clk
#2900
1clk
b11111111111111111111100010010011 cyc
0F
b1101 RB
1SB
#2910
0clk
#2920
1clk
b11111111111111111111100010010100 cyc
1F
b1110 RB
#2930
0clk
#2940
1clk
b11111111111111111111100010010101 cyc
0F
b1111 RB
#2950
0clk
#2960
1clk
b11111111111111111111100010010110 cyc
b0000 RB
#2970
0clk
#2980
1clk
b11111111111111111111100010010111 cyc
0A
0B
1F
b0001 RB
#2990
0clk
#3000
1clk
b11111111111111111111100010011000 cyc
0F
b0010 RB
#3010
0clk
#3020
1clk
b11111111111111111111100010011001 cyc
1F
b0011 RB
#3030
0clk
#3040
1clk
b11111111111111111111100010011010 cyc
0F
b0100 RB
#3050
0clk
#3060
1clk
b11111111111111111111100010011011 cyc
1F
b0101 RB
1UB
#3070
0clk
#3080
1clk
b11111111111111111111100010011100 cyc
0F
0UB
#3090
0clk
#3100
1clk
b11111111111111111111100010011101 cyc
1F
b0110 RB
#3110
0clk
#3120
1clk
b11111111111111111111100010011110 cyc
b0001 NB
b0111 RB
#3130
0clk
#3140
1clk
b11111111111111111111100010011111 cyc
1A
b000000100 D
0F
b0000 NB
b1000 RB
b00001101 TB
#3150
0clk
#3160
1clk
b11111111111111111111100010100000 cyc
1B
1F
b1001 RB
#3170
0clk
#3180
1clk
b11111111111111111111100010100001 cyc
0F
b1010 RB
#3190
0clk
#3200
1clk
b11111111111111111111100010100010 cyc
1F
b1011 RB
#3210
0clk
#3220
1clk
b11111111111111111111100010100011 cyc
0F
b1100 RB
#3230
0clk
#3240
1clk
b11111111111111111111100010100100 cyc
1F
b1101 RB
#3250
0clk
#3260
1clk
b11111111111111111111100010100101 cyc
0F
b1110 RB
#3270
0clk
#3280
1clk
b11111111111111111111100010100110 cyc
b1111 RB
#3290
0clk
#3300
1clk
b11111111111111111111100010100111 cyc
0A
1F
b0000 RB
#3310
0clk
#3320
1clk
b11111111111111111111100010101000 cyc
0B
0F
b0001 RB
#3330
0clk
#3340
1clk
b11111111111111111111100010101001 cyc
1F
b0010 RB
#3350
0clk
#3360
1clk
b11111111111111111111100010101010 cyc
0F
b0011 RB
#3370
0clk
#3380
1clk
b11111111111111111111100010101011 cyc
1F
b0100 RB
#3390
0clk
#3400
1clk
b11111111111111111111100010101100 cyc
0F
b0101 RB
#3410
0clk
#3420
1clk
b11111111111111111111100010101101 cyc
b0110 RB
#3430
0clk
#3440
1clk
b11111111111111111111100010101110 cyc
1F
b0111 RB
#3450
0clk
#3460
1clk
b11111111111111111111100010101111 cyc
0F
b1000 RB
b00011011 TB
#3470
0clk
#3480
1clk
b11111111111111111111100010110000 cyc
1A
1B
1F
b1001 RB
#3490
0clk
#3500
1clk
b11111111111111111111100010110001 cyc
0F
b1010 RB
#3510
0clk
#3520
1clk
b11111111111111111111100010110010 cyc
1F
b1011 RB
#3530
0clk
#3540
1clk
b11111111111111111111100010110011 cyc
0F
b1100 RB
#3550
0clk
#3560
1clk
b11111111111111111111100010110100 cyc
1F
b1101 RB
1UB
#3570
0clk
#3580
1clk
b11111111111111111111100010110101 cyc
0UB
#3590
0clk
#3600
1clk
b11111111111111111111100010110110 cyc
0F
b1110 RB
#3610
0clk
#3620
1clk
b11111111111111111111100010110111 cyc
1F
b1111 RB
#3630
0clk
#3640
1clk
b11111111111111111111100010111000 cyc
0A
0B
0F
b0000 RB
#3650
0clk
#3660
1clk
b11111111111111111111100010111001 cyc
1F
b0001 RB
#3670
0clk
#3680
1clk
b11111111111111111111100010111010 cyc
0F
b0010 RB
#3690
0clk
#3700
1clk
b11111111111111111111100010111011 cyc
1F
b0011 RB
#3710
0clk
#3720
1clk
b11111111111111111111100010111100 cyc
0F
b0100 RB
#3730
0clk
#3740
1clk
b11111111111111111111100010111101 cyc
b0101 RB
#3750
0clk
#3760
1clk
b11111111111111111111100010111110 cyc
1F
b0110 RB
#3770
0clk
#3780
1clk
b11111111111111111111100010111111 cyc
0F
b0111 RB
#3790
0clk
#3800
1clk
b11111111111111111111100011000000 cyc
1A
1B
1F
1H
b1000 RB
b00110111 TB
#3810
0clk
#3820
1clk
b11111111111111111111100011000001 cyc
0F
b1001 RB
#3830
0clk
#3840
1clk
b11111111111111111111100011000010 cyc
1F
b1010 RB
#3850
0clk
#3860
1clk
b11111111111111111111100011000011 cyc
0F
1I
b1011 RB
#3870
0clk
#3880
1clk
b11111111111111111111100011000100 cyc
b1100 RB
#3890
0clk
#3900
1clk
b11111111111111111111100011000101 cyc
1F
b01000000 L
b1101 RB
#3910
0clk
#3920
1clk
b11111111111111111111100011000110 cyc
0F
b1110 RB
#3930
0clk
#3940
1clk
b11111111111111111111100011000111 cyc
1F
1M
b1111 RB
#3950
0clk
#3960
1clk
b11111111111111111111100011001000 cyc
0A
0B
0F
b0000 RB
#3970
0clk
#3980
1clk
b11111111111111111111100011001001 cyc
1F
0I
b0001 RB
#3990
0clk
#4000
1clk
b11111111111111111111100011001010 cyc
0F
0H
b11111111 L
0M
b0010 RB
#4010
0clk
#4020
1clk
b11111111111111111111100011001011 cyc
1F
b0011 RB
#4030
0clk
#4040
1clk
b11111111111111111111100011001100 cyc
b0100 RB
#4050
0clk
#4060
1clk
b11111111111111111111100011001101 cyc
0F
b0101 RB
#4070
0clk
#4080
1clk
b11111111111111111111100011001110 cyc
1F
b0110 RB
#4090
0clk
#4100
1clk
b11111111111111111111100011001111 cyc
0F
b0111 RB
#4110
0clk
#4120
1clk
b11111111111111111111100011010000 cyc
1A
1F
b1000 RB
b01101111 TB
#4130
0clk
#4140
1clk
b11111111111111111111100011010001 cyc
1B
0F
b1001 RB
#4150
0clk
#4160
1clk
b11111111111111111111100011010010 cyc
1F
b1010 RB
#4170
0clk
#4180
1clk
b11111111111111111111100011010011 cyc
0F
b1011 RB
#4190
0clk
#4200
1clk
b11111111111111111111100011010100 cyc
b1100 RB
#4210
0clk
#4220
1clk
b11111111111111111111100011010101 cyc
1F
b1101 RB
#4230
0clk
#4240
1clk
b11111111111111111111100011010110 cyc
0F
b1110 RB
#4250
0clk
#4260
1clk
b11111111111111111111100011010111 cyc
1F
b1111 RB
#4270
0clk
#4280
1clk
b11111111111111111111100011011000 cyc
0F
b0000 RB
#4290
0clk
#4300
1clk
b11111111111111111111100011011001 cyc
0A
1F
b0001 RB
#4310
0clk
#4320
1clk
b11111111111111111111100011011010 cyc
0F
b0010 RB
#4330
0clk
#4340
1clk
b11111111111111111111100011011011 cyc
b0011 RB
#4350
0clk
#4360
1clk
b11111111111111111111100011011100 cyc
1F
b0100 RB
#4370
0clk
#4380
1clk
b11111111111111111111100011011101 cyc
0F
b0101 RB
1UB
#4390
0clk
#4400
1clk
b11111111111111111111100011011110 cyc
1F
0UB
#4410
0clk
#4420
1clk
b11111111111111111111100011011111 cyc
0F
b0110 RB
#4430
0clk
#4440
1clk
b11111111111111111111100011100000 cyc
1F
b0111 RB
#4450
0clk
#4460
1clk
b11111111111111111111100011100001 cyc
0B
0F
b1000 RB
b11011111 TB
#4470
0clk
#4480
1clk
b11111111111111111111100011100010 cyc
1F
b1001 RB
#4490
0clk
#4500
1clk
b11111111111111111111100011100011 cyc
b1010 RB
#4510
0clk
#4520
1clk
b11111111111111111111100011100100 cyc
0F
b1011 RB
#4530
0clk
#4540
1clk
b11111111111111111111100011100101 cyc
1F
b1100 RB
#4550
0clk
#4560
1clk
b11111111111111111111100011100110 cyc
0F
b1101 RB
0SB
#4570
0clk
#4580
1clk
b11111111111111111111100011100111 cyc
1F
b1110 RB
#4590
0clk
#4600
1clk
b11111111111111111111100011101000 cyc
1A
0F
b1111 RB
#4610
0clk
#4620
1clk
b11111111111111111111100011101001 cyc
1B
1F
b0000 RB
#4630
0clk
#4640
1clk
b11111111111111111111100011101010 cyc
0F
b0001 RB
#4650
0clk
#4660
1clk
b11111111111111111111100011101011 cyc
b0010 RB
#4670
0clk
#4680
1clk
b11111111111111111111100011101100 cyc
1F
b0011 RB
#4690
0clk
#4700
1clk
b11111111111111111111100011101101 cyc
0F
b0100 RB
#4710
0clk
#4720
1clk
b11111111111111111111100011101110 cyc
1F
b0101 RB
#4730
0clk
#4740
1clk
b11111111111111111111100011101111 cyc
0F
b0110 RB
#4750
0clk
#4760
1clk
b11111111111111111111100011110000 cyc
1F
b0111 RB
#4770
0clk
#4780
1clk
b11111111111111111111100011110001 cyc
0A
0B
0F
b1000 RB
b10111110 TB
#4790
0clk
#4800
1clk
b11111111111111111111100011110010 cyc
b011101000111100001011111011100000110111101110011011101000110000101101101011000100110110001100101010111110111001101110100 QB
b1001 RB
#4810
0clk
#4820
1clk
b11111111111111111111100011110011 cyc
1F
b1010 RB
#4830
0clk
#4840
1clk
b11111111111111111111100011110100 cyc
0F
b1011 RB
#4850
0clk
#4860
1clk
b11111111111111111111100011110101 cyc
1F
b1100 RB
#4870
0clk
#4880
1clk
b11111111111111111111100011110110 cyc
0F
b1101 RB
#4890
0clk
#4900
1clk
b11111111111111111111100011110111 cyc
1F
b1110 RB
#4910
0clk
#4920
1clk
b11111111111111111111100011111000 cyc
0F
b1111 RB
#4930
0clk
#4940
1clk
b11111111111111111111100011111001 cyc
1A
1B
1F
b0000 RB
#4950
0clk
#4960
1clk
b11111111111111111111100011111010 cyc
b0001 RB
#4970
0clk
#4980
1clk
b11111111111111111111100011111011 cyc
0F
b0010 RB
#4990
0clk
#5000
1clk
b11111111111111111111100011111100 cyc
1F
b0011 RB
#5010
0clk
#5020
1clk
b11111111111111111111100011111101 cyc
0F
b0100 RB
#5030
0clk
#5040
1clk
b11111111111111111111100011111110 cyc
1F
b0101 RB
#5050
0clk
#5060
1clk
b11111111111111111111100011111111 cyc
0F
b0110 RB
#5070
0clk
#5080
1clk
b11111111111111111111100100000000 cyc
1F
b0111 RB
#5090
0clk
#5100
1clk
b11111111111111111111100100000001 cyc
b1000 RB
b01111100 TB
#5110
0clk
#5120
1clk
b11111111111111111111100100000010 cyc
0A
0B
0F
b1001 RB
#5130
0clk
#5140
1clk
b11111111111111111111100100000011 cyc
1F
b1010 RB
#5150
0clk
#5160
1clk
b11111111111111111111100100000100 cyc
0F
b1011 RB
#5170
0clk
#5180
1clk
b11111111111111111111100100000101 cyc
1F
b1100 RB
#5190
0clk
#5200
1clk
b11111111111111111111100100000110 cyc
0F
b1101 RB
1UB
#5210
0clk
#5220
1clk
b11111111111111111111100100000111 cyc
1F
0UB
#5230
0clk
#5240
1clk
b11111111111111111111100100001000 cyc
0F
b1110 RB
#5250
0clk
#5260
1clk
b11111111111111111111100100001001 cyc
1A
b1111 RB
#5270
0clk
#5280
1clk
b11111111111111111111100100001010 cyc
1F
b0000 RB
#5290
0clk
#5300
1clk
b11111111111111111111100100001011 cyc
0F
b0001 RB
#5310
0clk
#5320
1clk
b11111111111111111111100100001100 cyc
1F
b0010 RB
#5330
0clk
#5340
1clk
b11111111111111111111100100001101 cyc
0F
b0011 RB
#5350
0clk
#5360
1clk
b11111111111111111111100100001110 cyc
1F
b0100 RB
#5370
0clk
#5380
1clk
b11111111111111111111100100001111 cyc
0F
b0101 RB
#5390
0clk
#5400
1clk
b11111111111111111111100100010000 cyc
1F
b0110 RB
#5410
0clk
#5420
1clk
b11111111111111111111100100010001 cyc
b0111 RB
#5430
0clk
#5440
1clk
b11111111111111111111100100010010 cyc
1B
0F
b1000 RB
b11111000 TB
#5450
0clk
#5460
1clk
b11111111111111111111100100010011 cyc
1F
b1001 RB
#5470
0clk
#5480
1clk
b11111111111111111111100100010100 cyc
0F
b1010 RB
#5490
0clk
#5500
1clk
b11111111111111111111100100010101 cyc
1F
b1011 RB
#5510
0clk
#5520
1clk
b11111111111111111111100100010110 cyc
0F
b1100 RB
#5530
0clk
#5540
1clk
b11111111111111111111100100010111 cyc
1F
b1101 RB
1SB
#5550
0clk
#5560
1clk
b11111111111111111111100100011000 cyc
b1110 RB
#5570
0clk
#5580
1clk
b11111111111111111111100100011001 cyc
0F
b1111 RB
#5590
0clk
#5600
1clk
b11111111111111111111100100011010 cyc
0A
1F
b0000 RB
#5610
0clk
#5620
1clk
b11111111111111111111100100011011 cyc
0F
b0001 RB
#5630
0clk
#5640
1clk
b11111111111111111111100100011100 cyc
1F
b0010 RB
#5650
0clk
#5660
1clk
b11111111111111111111100100011101 cyc
0F
1H
b0011 RB
#5670
0clk
#5680
1clk
b11111111111111111111100100011110 cyc
1F
b0100 RB
#5690
0clk
#5700
1clk
b11111111111111111111100100011111 cyc
0F
1I
b0101 RB
#5710
0clk
#5720
1clk
b11111111111111111111100100100000 cyc
b0110 RB
#5730
0clk
#5740
1clk
b11111111111111111111100100100001 cyc
1F
b01000000 L
b0001 NB
b0111 RB
#5750
0clk
#5760
1clk
b11111111111111111111100100100010 cyc
0B
b000000101 D
0F
b0000 NB
b1000 RB
b11110001 TB
#5770
0clk
#5780
1clk
b11111111111111111111100100100011 cyc
1F
1M
b1001 RB
#5790
0clk
#5800
1clk
b11111111111111111111100100100100 cyc
0F
b1010 RB
#5810
0clk
#5820
1clk
b11111111111111111111100100100101 cyc
1F
0I
b1011 RB
#5830
0clk
#5840
1clk
b11111111111111111111100100100110 cyc
0F
0H
b11111111 L
0M
b1100 RB
