synthesis/060_MII/IICE.vcd
$date
Fri Mar 09 11:59:22 2018
$end
$version
Identify 1.1
$end
$timescale
1 ns
$end
$comment
{Identify created VCD dump}
$end
$scope module m2s010_som $end
$var integer 32 cyc identify_cycle       $end
$var reg     1  clk identify_sampleclock $end
$scope module rtl $end
$scope module CommsFPGA_top_0 $end
$var reg 1 A manchester_in $end
$var reg 1 B manch_out_p $end
$var reg 1 C mac_mii_mdc $end
$var reg 4 D mac_mii_txd[3:0] $end
$var reg 1 E mac_mii_tx_en $end
$var reg 4 F mac_mii_rxd[3:0] $end
$var reg 1 G mac_mii_rx_er $end
$var reg 1 H mac_mii_rx_dv $end
$var reg 1 I mac_mii_crs $end
$var reg 1 J mac_mii_col $end
$var reg 1 K mac_mii_rx_clk $end
$var reg 1 L mac_mii_tx_clk $end
$var reg 1 M mac_mii_mdo_en $end
$var reg 1 N mac_mii_mdo $end
$var reg 1 O mac_mii_mdi $end
$var reg 1 P d_mdo_en $end
$var reg 1 Q d_mdo $end
$var reg 1 R d_mdi $end
$var reg 4 S d_txd[3:0] $end
$var reg 4 T d_rxd[3:0] $end
$var reg 1 U d_mdc $end
$var reg 1 V d_txc $end
$var reg 1 W d_txen $end
$var reg 1 X d_rxc $end
$var reg 1 Y d_rxdv $end
$var reg 1 Z d_rxer $end
$var reg 1 AB d_crs $end
$scope module behavioral $end
$var reg 1 BB mii_tx_clk $end
$var reg 1 CB tx_enable $end
$var reg 1 DB mii_clk $end
$scope module MANCHESTER_ENCODER_2_INST $end
$var reg 1 EB bit_clk $end
$scope module behavioral $end
$var reg 4 FB p2s_data[3:0] $end
$scope module NIBBLE_TO_SERIAL_SM_INST $end
$scope module behavioral $end
$var reg 136 GB tx_state $end
$upscope $end
$upscope $end
$upscope $end
$upscope $end
$scope module MANCHESTER_DECODER2_INST $end
$var reg 1 HB mii_rx_en $end
$var reg 4 IB mii_rx_d[3:0] $end
$var reg 1 JB internal_loopback $end
$scope module v1 $end
$var reg 1 KB rx_byte_valid $end
$var reg 8 LB rx_byte_nibble_swap[7:0] $end
$var reg 1 MB clkdomain_buf_underflow $end
$var reg 1 NB clkdomain_buf_overrun $end
$var reg 1 OB clkdomain_buf_full $end
$var reg 1 PB clkdomain_buf_empty $end
$var reg 1 QB clkdomain_buf_rden $end
$var reg 4 RB fifo_read_sm[3:0] $end
$var reg 8 SB fifo_read_sm_del[7:0] $end
$var reg 1 TB aempty $end
$var reg 1 UB clkdomain_buf_notempty $end
$var reg 8 VB rx_s2p[7:0] $end
$scope module RECEIVE_STATE_MACHINE_INST $end
$var reg 1 WB rx_center_sample $end
$var reg 1 XB idle_line $end
$var reg 1 YB rx_byte_valid $end
$var reg 1 ZB clk1x_enable $end
$var reg 1 AC sfd_timeout $end
$scope module behavioral $end
$var reg 1 BC i_rx_packet_end_all $end
$var reg 1 CC i_start_bit_mask $end
$var reg 4 DC bit_cntr[3:0] $end
$var reg 16 EC long_bit_cntr[15:0] $end
$var reg 168 FC rx_state $end
$upscope $end
$upscope $end
$upscope $end
$upscope $end
$upscope $end
$upscope $end
$upscope $end
$upscope $end
$enddefinitions $end
#0
1clk
b11111111111111111111000000000010 cyc
0A
0B
0C
b0000 D
0E
b0000 F
0G
1H
1I
0J
1K
1L
0M
1N
0O
0P
0Q
1R
b1111 S
b0000 T
1U
0V
0W
0X
0Y
0Z
0AB
0BB
0CB
1DB
1EB
b0000 FB
b0110100101100100011011000110010100100000001000000010000000100000001000000010000000100000001000000010000000100000001000000010000000100000 GB
1HB
b0000 IB
0JB
0KB
b00000000 LB
0MB
0NB
0OB
0PB
1QB
b0010 RB
b00000000 SB
0TB
1UB
b00000000 VB
0WB
0XB
0YB
1ZB
0AC
0BC
0CC
b0111 DC
b0101110111010110 EC
b011000100111100101110100011001010101111101101001011011100101111101110011011101000010000000100000001000000010000000100000001000000010000000100000001000000010000000100000 FC
#10
0clk
#20
1clk
b11111111111111111111000000000011 cyc
1A
1V
0EB
b1000 DC
b0101110111010111 EC
#30
0clk
#40
1clk
b11111111111111111111000000000100 cyc
0A
1C
1X
1EB
b1001 DC
b0101110111011000 EC
#50
0clk
#60
1clk
b11111111111111111111000000000101 cyc
1A
0V
0EB
b1010 DC
b0101110111011001 EC
#70
0clk
#80
1clk
b11111111111111111111000000000110 cyc
0A
0C
0K
0L
0X
0DB
1EB
b1011 DC
b0101110111011010 EC
#90
0clk
#100
1clk
b11111111111111111111000000000111 cyc
1A
1V
0EB
b1100 DC
b0101110111011011 EC
#110
0clk
#120
1clk
b11111111111111111111000000001000 cyc
0A
1C
1X
1EB
b1101 DC
b0101110111011100 EC
#130
0clk
#140
1clk
b11111111111111111111000000001001 cyc
1A
0V
0EB
b1110 DC
b0101110111011101 EC
#150
0clk
#160
1clk
b11111111111111111111000000001010 cyc
0A
0C
1K
1L
0X
1DB
1EB
b1111 DC
b0101110111011110 EC
#170
0clk
#180
1clk
b11111111111111111111000000001011 cyc
1A
1V
0EB
b0000 DC
b0101110111011111 EC
#190
0clk
#200
1clk
b11111111111111111111000000001100 cyc
0A
1C
1X
1EB
b0001 DC
b0101110111100000 EC
#210
0clk
#220
1clk
b11111111111111111111000000001101 cyc
1A
0EB
b0010 DC
b0101110111100001 EC
#230
0clk
#240
1clk
b11111111111111111111000000001110 cyc
0A
0C
0K
0L
0V
0X
0DB
1EB
b0011 DC
b0101110111100010 EC
#250
0clk
#260
1clk
b11111111111111111111000000001111 cyc
1A
1V
0EB
b0100 DC
b0101110111100011 EC
#270
0clk
#280
1clk
b11111111111111111111000000010000 cyc
0A
1C
1X
1EB
b0101 DC
b0101110111100100 EC
#290
0clk
#300
1clk
b11111111111111111111000000010001 cyc
1A
0V
0EB
b0110 DC
b0101110111100101 EC
#310
0clk
#320
1clk
b11111111111111111111000000010010 cyc
0A
0C
1K
1L
0X
1DB
1EB
b0111 DC
b0101110111100110 EC
#330
0clk
#340
1clk
b11111111111111111111000000010011 cyc
1A
1V
0EB
b1000 DC
b0101110111100111 EC
#350
0clk
#360
1clk
b11111111111111111111000000010100 cyc
0A
1C
1X
1EB
b1001 DC
b0101110111101000 EC
#370
0clk
#380
1clk
b11111111111111111111000000010101 cyc
1A
0V
0EB
b1010 DC
b0101110111101001 EC
#390
0clk
#400
1clk
b11111111111111111111000000010110 cyc
0A
0C
0K
0L
0X
0DB
1EB
b1011 DC
b0101110111101010 EC
#410
0clk
#420
1clk
b11111111111111111111000000010111 cyc
1A
1V
0EB
b1100 DC
b0101110111101011 EC
#430
0clk
#440
1clk
b11111111111111111111000000011000 cyc
0A
1C
1X
1EB
b1101 DC
b0101110111101100 EC
#450
0clk
#460
1clk
b11111111111111111111000000011001 cyc
1A
0V
0EB
b1110 DC
b0101110111101101 EC
#470
0clk
#480
1clk
b11111111111111111111000000011010 cyc
0A
0C
1K
1L
0X
1DB
1EB
b1111 DC
b0101110111101110 EC
#490
0clk
#500
1clk
b11111111111111111111000000011011 cyc
1A
1V
0EB
b0000 DC
b0101110111101111 EC
#510
0clk
#520
1clk
b11111111111111111111000000011100 cyc
0A
1C
1X
1EB
b0001 DC
b0101110111110000 EC
#530
0clk
#540
1clk
b11111111111111111111000000011101 cyc
1A
0V
0EB
b0010 DC
b0101110111110001 EC
#550
0clk
#560
1clk
b11111111111111111111000000011110 cyc
0A
0C
0K
0L
0X
0DB
1EB
b0011 DC
b0101110111110010 EC
#570
0clk
#580
1clk
b11111111111111111111000000011111 cyc
1A
1V
0EB
b0100 DC
b0101110111110011 EC
#590
0clk
#600
1clk
b11111111111111111111000000100000 cyc
0A
1C
1X
1EB
b0101 DC
b0101110111110100 EC
#610
0clk
#620
1clk
b11111111111111111111000000100001 cyc
1A
0V
0EB
b0110 DC
b0101110111110101 EC
#630
0clk
#640
1clk
b11111111111111111111000000100010 cyc
0A
0C
1K
1L
0X
1DB
1EB
b0111 DC
b0101110111110110 EC
#650
0clk
#660
1clk
b11111111111111111111000000100011 cyc
1A
1V
0EB
b1000 DC
b0101110111110111 EC
#670
0clk
#680
1clk
b11111111111111111111000000100100 cyc
0A
1C
1X
1EB
b1001 DC
b0101110111111000 EC
#690
0clk
#700
1clk
b11111111111111111111000000100101 cyc
1A
0V
0EB
b1010 DC
b0101110111111001 EC
#710
0clk
#720
1clk
b11111111111111111111000000100110 cyc
0A
0C
0K
0L
0X
0DB
1EB
b1011 DC
b0101110111111010 EC
#730
0clk
#740
1clk
b11111111111111111111000000100111 cyc
1A
1V
0EB
b1100 DC
b0101110111111011 EC
#750
0clk
#760
1clk
b11111111111111111111000000101000 cyc
0A
1C
1X
1EB
b1101 DC
b0101110111111100 EC
#770
0clk
#780
1clk
b11111111111111111111000000101001 cyc
1A
0V
0EB
b1110 DC
b0101110111111101 EC
#790
0clk
#800
1clk
b11111111111111111111000000101010 cyc
0A
0C
1K
1L
0X
1DB
1EB
b1111 DC
b0101110111111110 EC
#810
0clk
#820
1clk
b11111111111111111111000000101011 cyc
1A
1V
0EB
b0000 DC
b0101110111111111 EC
#830
0clk
#840
1clk
b11111111111111111111000000101100 cyc
0A
1C
1X
1EB
b0001 DC
b0101111000000000 EC
#850
0clk
#860
1clk
b11111111111111111111000000101101 cyc
1A
0V
0EB
b0010 DC
b0101111000000001 EC
#870
0clk
#880
1clk
b11111111111111111111000000101110 cyc
0A
0C
0K
0L
0X
0DB
1EB
b0011 DC
b0101111000000010 EC
#890
0clk
#900
1clk
b11111111111111111111000000101111 cyc
1A
1C
1V
0EB
b0100 DC
b0101111000000011 EC
#910
0clk
#920
1clk
b11111111111111111111000000110000 cyc
0A
1X
1EB
b0101 DC
b0101111000000100 EC
#930
0clk
#940
1clk
b11111111111111111111000000110001 cyc
1A
0C
0V
0EB
b0110 DC
b0101111000000101 EC
#950
0clk
#960
1clk
b11111111111111111111000000110010 cyc
0A
1K
1L
0X
1DB
1EB
b0111 DC
b0101111000000110 EC
#970
0clk
#980
1clk
b11111111111111111111000000110011 cyc
1A
1C
1V
0EB
b1000 DC
b0101111000000111 EC
#990
0clk
#1000
1clk
b11111111111111111111000000110100 cyc
0A
1X
1EB
b1001 DC
b0101111000001000 EC
#1010
0clk
#1020
1clk
b11111111111111111111000000110101 cyc
1A
0C
0V
0EB
b1010 DC
b0101111000001001 EC
#1030
0clk
#1040
1clk
b11111111111111111111000000110110 cyc
0A
0K
0L
0X
0DB
1EB
b1011 DC
b0101111000001010 EC
#1050
0clk
#1060
1clk
b11111111111111111111000000110111 cyc
1A
1C
1V
0EB
b1100 DC
b0101111000001011 EC
#1070
0clk
#1080
1clk
b11111111111111111111000000111000 cyc
0A
1X
1EB
b1101 DC
b0101111000001100 EC
#1090
0clk
#1100
1clk
b11111111111111111111000000111001 cyc
1A
0C
0V
0EB
b1110 DC
b0101111000001101 EC
#1110
0clk
#1120
1clk
b11111111111111111111000000111010 cyc
0A
1K
1L
0X
1DB
1EB
b1111 DC
b0101111000001110 EC
#1130
0clk
#1140
1clk
b11111111111111111111000000111011 cyc
1A
1C
1V
0EB
b0000 DC
b0101111000001111 EC
#1150
0clk
#1160
1clk
b11111111111111111111000000111100 cyc
0A
1X
1EB
b0001 DC
b0101111000010000 EC
#1170
0clk
#1180
1clk
b11111111111111111111000000111101 cyc
1A
0C
0V
0EB
b0010 DC
b0101111000010001 EC
#1190
0clk
#1200
1clk
b11111111111111111111000000111110 cyc
0A
0K
0L
0X
0DB
1EB
b0011 DC
b0101111000010010 EC
#1210
0clk
#1220
1clk
b11111111111111111111000000111111 cyc
1A
1C
1V
0EB
b0100 DC
b0101111000010011 EC
#1230
0clk
#1240
1clk
b11111111111111111111000001000000 cyc
0A
1X
1EB
b0101 DC
b0101111000010100 EC
#1250
0clk
#1260
1clk
b11111111111111111111000001000001 cyc
1A
0C
0V
0EB
b0110 DC
b0101111000010101 EC
#1270
0clk
#1280
1clk
b11111111111111111111000001000010 cyc
0A
1K
1L
0X
1DB
1EB
b0111 DC
b0101111000010110 EC
#1290
0clk
#1300
1clk
b11111111111111111111000001000011 cyc
1A
1C
1V
0EB
b1000 DC
b0101111000010111 EC
#1310
0clk
#1320
1clk
b11111111111111111111000001000100 cyc
0A
1X
1EB
b1001 DC
b0101111000011000 EC
#1330
0clk
#1340
1clk
b11111111111111111111000001000101 cyc
1A
0C
0V
0EB
b1010 DC
b0101111000011001 EC
#1350
0clk
#1360
1clk
b11111111111111111111000001000110 cyc
0A
0K
0L
0X
0DB
1EB
b1011 DC
b0101111000011010 EC
#1370
0clk
#1380
1clk
b11111111111111111111000001000111 cyc
1A
1C
1V
0EB
b1100 DC
b0101111000011011 EC
#1390
0clk
#1400
1clk
b11111111111111111111000001001000 cyc
0A
1X
1EB
b1101 DC
b0101111000011100 EC
#1410
0clk
#1420
1clk
b11111111111111111111000001001001 cyc
1A
0C
0V
0EB
b1110 DC
b0101111000011101 EC
#1430
0clk
#1440
1clk
b11111111111111111111000001001010 cyc
0A
1K
1L
0X
1DB
1EB
b1111 DC
b0101111000011110 EC
#1450
0clk
#1460
1clk
b11111111111111111111000001001011 cyc
1A
1C
1V
0EB
b0000 DC
b0101111000011111 EC
#1470
0clk
#1480
1clk
b11111111111111111111000001001100 cyc
0A
1X
1EB
b0001 DC
b0101111000100000 EC
#1490
0clk
#1500
1clk
b11111111111111111111000001001101 cyc
1A
0C
0V
0EB
b0010 DC
b0101111000100001 EC
#1510
0clk
#1520
1clk
b11111111111111111111000001001110 cyc
0A
0K
0L
0X
0DB
1EB
b0011 DC
b0101111000100010 EC
#1530
0clk
#1540
1clk
b11111111111111111111000001001111 cyc
1A
1C
1V
0EB
b0100 DC
b0101111000100011 EC
#1550
0clk
#1560
1clk
b11111111111111111111000001010000 cyc
0A
1X
1EB
b0101 DC
b0101111000100100 EC
#1570
0clk
#1580
1clk
b11111111111111111111000001010001 cyc
1A
0C
0V
0EB
b0110 DC
b0101111000100101 EC
#1590
0clk
#1600
1clk
b11111111111111111111000001010010 cyc
0A
1K
1L
0X
1DB
1EB
b0111 DC
b0101111000100110 EC
#1610
0clk
#1620
1clk
b11111111111111111111000001010011 cyc
1A
1C
1V
0EB
b1000 DC
b0101111000100111 EC
#1630
0clk
#1640
1clk
b11111111111111111111000001010100 cyc
0A
1X
1EB
b1001 DC
b0101111000101000 EC
#1650
0clk
#1660
1clk
b11111111111111111111000001010101 cyc
1A
0C
0V
0EB
b1010 DC
b0101111000101001 EC
#1670
0clk
#1680
1clk
b11111111111111111111000001010110 cyc
0A
0K
0L
0X
0DB
1EB
b1011 DC
b0101111000101010 EC
#1690
0clk
#1700
1clk
b11111111111111111111000001010111 cyc
1A
1C
1V
0EB
b1100 DC
b0101111000101011 EC
#1710
0clk
#1720
1clk
b11111111111111111111000001011000 cyc
0A
1X
1EB
b1101 DC
b0101111000101100 EC
#1730
0clk
#1740
1clk
b11111111111111111111000001011001 cyc
1A
0C
0V
0EB
b1110 DC
b0101111000101101 EC
#1750
0clk
#1760
1clk
b11111111111111111111000001011010 cyc
0A
1K
1L
0X
1DB
1EB
b1111 DC
b0101111000101110 EC
#1770
0clk
#1780
1clk
b11111111111111111111000001011011 cyc
1A
1C
1V
0EB
b0000 DC
b0101111000101111 EC
#1790
0clk
#1800
1clk
b11111111111111111111000001011100 cyc
0A
1X
1EB
b0001 DC
b0101111000110000 EC
#1810
0clk
#1820
1clk
b11111111111111111111000001011101 cyc
1A
0C
0V
0EB
b0010 DC
b0101111000110001 EC
#1830
0clk
#1840
1clk
b11111111111111111111000001011110 cyc
0A
0K
0L
0X
0DB
1EB
b0011 DC
b0101111000110010 EC
#1850
0clk
#1860
1clk
b11111111111111111111000001011111 cyc
1A
1C
1V
0EB
b0100 DC
b0101111000110011 EC
#1870
0clk
#1880
1clk
b11111111111111111111000001100000 cyc
0A
1X
1EB
b0101 DC
b0101111000110100 EC
#1890
0clk
#1900
1clk
b11111111111111111111000001100001 cyc
1A
0C
0V
0EB
b0110 DC
b0101111000110101 EC
#1910
0clk
#1920
1clk
b11111111111111111111000001100010 cyc
0A
1K
1L
0X
1DB
1EB
b0111 DC
b0101111000110110 EC
#1930
0clk
#1940
1clk
b11111111111111111111000001100011 cyc
1A
1C
1V
0EB
b1000 DC
b0101111000110111 EC
#1950
0clk
#1960
1clk
b11111111111111111111000001100100 cyc
0A
1X
1EB
b1001 DC
b0101111000111000 EC
#1970
0clk
#1980
1clk
b11111111111111111111000001100101 cyc
1A
0C
0V
0EB
b1010 DC
b0101111000111001 EC
#1990
0clk
#2000
1clk
b11111111111111111111000001100110 cyc
0A
0K
0L
0X
0DB
1EB
b1011 DC
b0101111000111010 EC
#2010
0clk
#2020
1clk
b11111111111111111111000001100111 cyc
1A
1C
1V
0EB
b1100 DC
b0101111000111011 EC
#2030
0clk
#2040
1clk
b11111111111111111111000001101000 cyc
0A
1X
1EB
b1101 DC
b0101111000111100 EC
#2050
0clk
#2060
1clk
b11111111111111111111000001101001 cyc
1A
0C
0V
0EB
b1110 DC
b0101111000111101 EC
#2070
0clk
#2080
1clk
b11111111111111111111000001101010 cyc
0A
1K
1L
0X
1DB
1EB
b1111 DC
b0101111000111110 EC
#2090
0clk
#2100
1clk
b11111111111111111111000001101011 cyc
1A
1C
1V
0EB
b0000 DC
b0101111000111111 EC
#2110
0clk
#2120
1clk
b11111111111111111111000001101100 cyc
0A
1X
1EB
b0001 DC
b0101111001000000 EC
#2130
0clk
#2140
1clk
b11111111111111111111000001101101 cyc
1A
0C
0V
0EB
b0010 DC
b0101111001000001 EC
#2150
0clk
#2160
1clk
b11111111111111111111000001101110 cyc
0A
0K
0L
0X
0DB
1EB
b0011 DC
b0101111001000010 EC
#2170
0clk
#2180
1clk
b11111111111111111111000001101111 cyc
1A
1C
1V
0EB
b0100 DC
b0101111001000011 EC
#2190
0clk
#2200
1clk
b11111111111111111111000001110000 cyc
0A
1X
1EB
b0101 DC
b0101111001000100 EC
#2210
0clk
#2220
1clk
b11111111111111111111000001110001 cyc
1A
0C
0V
0EB
b0110 DC
b0101111001000101 EC
#2230
0clk
#2240
1clk
b11111111111111111111000001110010 cyc
0A
1K
1L
0X
1DB
1EB
b0111 DC
b0101111001000110 EC
#2250
0clk
#2260
1clk
b11111111111111111111000001110011 cyc
1A
1C
1V
0EB
b1000 DC
b0101111001000111 EC
#2270
0clk
#2280
1clk
b11111111111111111111000001110100 cyc
0A
1X
1EB
b1001 DC
b0101111001001000 EC
#2290
0clk
#2300
1clk
b11111111111111111111000001110101 cyc
1A
0C
0V
0EB
b1010 DC
b0101111001001001 EC
#2310
0clk
#2320
1clk
b11111111111111111111000001110110 cyc
0A
1C
0K
0L
0X
0DB
1EB
b1011 DC
b0101111001001010 EC
#2330
0clk
#2340
1clk
b11111111111111111111000001110111 cyc
1A
1V
0EB
b1100 DC
b0101111001001011 EC
#2350
0clk
#2360
1clk
b11111111111111111111000001111000 cyc
0A
0C
1X
1EB
b1101 DC
b0101111001001100 EC
#2370
0clk
#2380
1clk
b11111111111111111111000001111001 cyc
1A
0V
0EB
b1110 DC
b0101111001001101 EC
#2390
0clk
#2400
1clk
b11111111111111111111000001111010 cyc
0A
1C
1K
1L
0X
1DB
1EB
b1111 DC
b0101111001001110 EC
#2410
0clk
#2420
1clk
b11111111111111111111000001111011 cyc
1A
1V
0EB
b0000 DC
b0101111001001111 EC
#2430
0clk
#2440
1clk
b11111111111111111111000001111100 cyc
0A
0C
1X
1EB
b0001 DC
b0101111001010000 EC
#2450
0clk
#2460
1clk
b11111111111111111111000001111101 cyc
1A
0V
0EB
b0010 DC
b0101111001010001 EC
#2470
0clk
#2480
1clk
b11111111111111111111000001111110 cyc
0A
1C
0K
0L
0X
0DB
1EB
b0011 DC
b0101111001010010 EC
#2490
0clk
#2500
1clk
b11111111111111111111000001111111 cyc
1A
1V
0EB
b0100 DC
b0101111001010011 EC
#2510
0clk
#2520
1clk
b11111111111111111111000010000000 cyc
0A
0C
1X
1EB
b0101 DC
b0101111001010100 EC
#2530
0clk
#2540
1clk
b11111111111111111111000010000001 cyc
1A
0V
0EB
b0110 DC
b0101111001010101 EC
#2550
0clk
#2560
1clk
b11111111111111111111000010000010 cyc
0A
1C
1K
1L
0X
1DB
1EB
b0111 DC
b0101111001010110 EC
#2570
0clk
#2580
1clk
b11111111111111111111000010000011 cyc
1A
1V
0EB
b1000 DC
b0101111001010111 EC
#2590
0clk
#2600
1clk
b11111111111111111111000010000100 cyc
0A
0C
1X
1EB
b1001 DC
b0101111001011000 EC
#2610
0clk
#2620
1clk
b11111111111111111111000010000101 cyc
1A
0V
0EB
b1010 DC
b0101111001011001 EC
#2630
0clk
#2640
1clk
b11111111111111111111000010000110 cyc
0A
1C
0K
0L
0X
0DB
1EB
b1011 DC
b0101111001011010 EC
#2650
0clk
#2660
1clk
b11111111111111111111000010000111 cyc
1A
1V
0EB
b1100 DC
b0101111001011011 EC
#2670
0clk
#2680
1clk
b11111111111111111111000010001000 cyc
0A
0C
1X
1EB
b1101 DC
b0101111001011100 EC
#2690
0clk
#2700
1clk
b11111111111111111111000010001001 cyc
1A
0V
0EB
b1110 DC
b0101111001011101 EC
#2710
0clk
#2720
1clk
b11111111111111111111000010001010 cyc
0A
1C
1K
1L
0X
1DB
1EB
b1111 DC
b0101111001011110 EC
#2730
0clk
#2740
1clk
b11111111111111111111000010001011 cyc
1A
1V
0EB
b0000 DC
b0101111001011111 EC
#2750
0clk
#2760
1clk
b11111111111111111111000010001100 cyc
0A
0C
1X
1EB
b0001 DC
b0101111001100000 EC
#2770
0clk
#2780
1clk
b11111111111111111111000010001101 cyc
1A
0V
0EB
b0010 DC
b0101111001100001 EC
#2790
0clk
#2800
1clk
b11111111111111111111000010001110 cyc
0A
1C
0K
0L
0X
0DB
1EB
b0011 DC
b0101111001100010 EC
#2810
0clk
#2820
1clk
b11111111111111111111000010001111 cyc
1A
1V
0EB
b0100 DC
b0101111001100011 EC
#2830
0clk
#2840
1clk
b11111111111111111111000010010000 cyc
0A
0C
1X
1EB
b0101 DC
b0101111001100100 EC
#2850
0clk
#2860
1clk
b11111111111111111111000010010001 cyc
1A
0V
0EB
b0110 DC
b0101111001100101 EC
#2870
0clk
#2880
1clk
b11111111111111111111000010010010 cyc
0A
1C
1K
1L
0X
1DB
1EB
b0111 DC
b0101111001100110 EC
#2890
0clk
#2900
1clk
b11111111111111111111000010010011 cyc
1A
1V
0EB
b1000 DC
b0101111001100111 EC
#2910
0clk
#2920
1clk
b11111111111111111111000010010100 cyc
0A
0C
1X
1EB
b1001 DC
b0101111001101000 EC
#2930
0clk
#2940
1clk
b11111111111111111111000010010101 cyc
1A
0V
0EB
b1010 DC
b0101111001101001 EC
#2950
0clk
#2960
1clk
b11111111111111111111000010010110 cyc
0A
1C
0K
0L
0X
0DB
1EB
b1011 DC
b0101111001101010 EC
#2970
0clk
#2980
1clk
b11111111111111111111000010010111 cyc
1A
1V
0EB
b1100 DC
b0101111001101011 EC
#2990
0clk
#3000
1clk
b11111111111111111111000010011000 cyc
0A
0C
1X
1EB
b1101 DC
b0101111001101100 EC
#3010
0clk
#3020
1clk
b11111111111111111111000010011001 cyc
1A
0V
0EB
b1110 DC
b0101111001101101 EC
#3030
0clk
#3040
1clk
b11111111111111111111000010011010 cyc
0A
1C
1K
1L
0X
1DB
1EB
b1111 DC
b0101111001101110 EC
#3050
0clk
#3060
1clk
b11111111111111111111000010011011 cyc
1A
1V
0EB
b0000 DC
b0101111001101111 EC
#3070
0clk
#3080
1clk
b11111111111111111111000010011100 cyc
0A
0C
1X
1EB
b0001 DC
b0101111001110000 EC
#3090
0clk
#3100
1clk
b11111111111111111111000010011101 cyc
1A
0V
0EB
b0010 DC
b0101111001110001 EC
#3110
0clk
#3120
1clk
b11111111111111111111000010011110 cyc
0A
1C
0K
0L
0X
0DB
1EB
b0011 DC
b0101111001110010 EC
#3130
0clk
#3140
1clk
b11111111111111111111000010011111 cyc
1A
1V
0EB
b0100 DC
b0101111001110011 EC
#3150
0clk
#3160
1clk
b11111111111111111111000010100000 cyc
0A
0C
1X
1EB
b0101 DC
b0101111001110100 EC
#3170
0clk
#3180
1clk
b11111111111111111111000010100001 cyc
1A
0V
0EB
b0110 DC
b0101111001110101 EC
#3190
0clk
#3200
1clk
b11111111111111111111000010100010 cyc
0A
1C
1K
1L
0X
1DB
1EB
b0111 DC
b0101111001110110 EC
#3210
0clk
#3220
1clk
b11111111111111111111000010100011 cyc
1A
1V
0EB
b1000 DC
b0101111001110111 EC
#3230
0clk
#3240
1clk
b11111111111111111111000010100100 cyc
0A
0C
1X
1EB
b1001 DC
b0101111001111000 EC
#3250
0clk
#3260
1clk
b11111111111111111111000010100101 cyc
1A
0V
0EB
b1010 DC
b0101111001111001 EC
#3270
0clk
#3280
1clk
b11111111111111111111000010100110 cyc
0A
1C
0K
0L
0X
0DB
1EB
b1011 DC
b0101111001111010 EC
#3290
0clk
#3300
1clk
b11111111111111111111000010100111 cyc
1A
1V
0EB
b1100 DC
b0101111001111011 EC
#3310
0clk
#3320
1clk
b11111111111111111111000010101000 cyc
0A
0C
1X
1EB
b1101 DC
b0101111001111100 EC
#3330
0clk
#3340
1clk
b11111111111111111111000010101001 cyc
1A
0V
0EB
b1110 DC
b0101111001111101 EC
#3350
0clk
#3360
1clk
b11111111111111111111000010101010 cyc
0A
1C
1K
1L
0X
1DB
1EB
b1111 DC
b0101111001111110 EC
#3370
0clk
#3380
1clk
b11111111111111111111000010101011 cyc
1A
1V
0EB
b0000 DC
b0101111001111111 EC
#3390
0clk
#3400
1clk
b11111111111111111111000010101100 cyc
0A
0C
1X
1EB
b0001 DC
b0101111010000000 EC
#3410
0clk
#3420
1clk
b11111111111111111111000010101101 cyc
1A
0V
0EB
b0010 DC
b0101111010000001 EC
#3430
0clk
#3440
1clk
b11111111111111111111000010101110 cyc
0A
1C
0K
0L
0X
0DB
1EB
b0011 DC
b0101111010000010 EC
#3450
0clk
#3460
1clk
b11111111111111111111000010101111 cyc
1A
1V
0EB
b0100 DC
b0101111010000011 EC
#3470
0clk
#3480
1clk
b11111111111111111111000010110000 cyc
0A
0C
1X
1EB
b0101 DC
b0101111010000100 EC
#3490
0clk
#3500
1clk
b11111111111111111111000010110001 cyc
1A
0V
0EB
b0110 DC
b0101111010000101 EC
#3510
0clk
#3520
1clk
b11111111111111111111000010110010 cyc
0A
1C
1K
1L
0X
1DB
1EB
b0111 DC
b0101111010000110 EC
#3530
0clk
#3540
1clk
b11111111111111111111000010110011 cyc
1A
1V
0EB
b1000 DC
b0101111010000111 EC
#3550
0clk
#3560
1clk
b11111111111111111111000010110100 cyc
0A
0C
1X
1EB
b1001 DC
b0101111010001000 EC
#3570
0clk
#3580
1clk
b11111111111111111111000010110101 cyc
1A
0V
0EB
b1010 DC
b0101111010001001 EC
#3590
0clk
#3600
1clk
b11111111111111111111000010110110 cyc
0A
1C
0K
0L
0X
0DB
1EB
b1011 DC
b0101111010001010 EC
#3610
0clk
#3620
1clk
b11111111111111111111000010110111 cyc
1A
1V
0EB
b1100 DC
b0101111010001011 EC
#3630
0clk
#3640
1clk
b11111111111111111111000010111000 cyc
0A
0C
1X
1EB
b1101 DC
b0101111010001100 EC
#3650
0clk
#3660
1clk
b11111111111111111111000010111001 cyc
1A
0V
0EB
b1110 DC
b0101111010001101 EC
#3670
0clk
#3680
1clk
b11111111111111111111000010111010 cyc
0A
1C
1K
1L
0X
1DB
1EB
b1111 DC
b0101111010001110 EC
#3690
0clk
#3700
1clk
b11111111111111111111000010111011 cyc
1A
1V
0EB
b0000 DC
b0101111010001111 EC
#3710
0clk
#3720
1clk
b11111111111111111111000010111100 cyc
0A
0C
1X
1EB
b0001 DC
b0101111010010000 EC
#3730
0clk
#3740
1clk
b11111111111111111111000010111101 cyc
1A
1C
0V
0EB
b0010 DC
b0101111010010001 EC
#3750
0clk
#3760
1clk
b11111111111111111111000010111110 cyc
0A
0K
0L
0X
0DB
1EB
b0011 DC
b0101111010010010 EC
#3770
0clk
#3780
1clk
b11111111111111111111000010111111 cyc
1A
0C
1V
0EB
b0100 DC
b0101111010010011 EC
#3790
0clk
#3800
1clk
b11111111111111111111000011000000 cyc
0A
1X
1EB
b0101 DC
b0101111010010100 EC
#3810
0clk
#3820
1clk
b11111111111111111111000011000001 cyc
1A
1C
0V
0EB
b0110 DC
b0101111010010101 EC
#3830
0clk
#3840
1clk
b11111111111111111111000011000010 cyc
0A
1K
1L
0X
1DB
1EB
b0111 DC
b0101111010010110 EC
#3850
0clk
#3860
1clk
b11111111111111111111000011000011 cyc
1A
0C
1V
0EB
b1000 DC
b0101111010010111 EC
#3870
0clk
#3880
1clk
b11111111111111111111000011000100 cyc
0A
1X
1EB
b1001 DC
b0101111010011000 EC
#3890
0clk
#3900
1clk
b11111111111111111111000011000101 cyc
1A
1C
0V
0EB
b1010 DC
b0101111010011001 EC
#3910
0clk
#3920
1clk
b11111111111111111111000011000110 cyc
0A
0K
0L
0X
0DB
1EB
b1011 DC
b0101111010011010 EC
#3930
0clk
#3940
1clk
b11111111111111111111000011000111 cyc
1A
0C
1V
0EB
b1100 DC
b0101111010011011 EC
#3950
0clk
#3960
1clk
b11111111111111111111000011001000 cyc
0A
1X
1EB
b1101 DC
b0101111010011100 EC
#3970
0clk
#3980
1clk
b11111111111111111111000011001001 cyc
1A
1C
0V
0EB
b1110 DC
b0101111010011101 EC
#3990
0clk
#4000
1clk
b11111111111111111111000011001010 cyc
0A
1K
1L
0X
1DB
1EB
b1111 DC
b0101111010011110 EC
#4010
0clk
#4020
1clk
b11111111111111111111000011001011 cyc
1A
0C
1V
0EB
b0000 DC
b0101111010011111 EC
#4030
0clk
#4040
1clk
b11111111111111111111000011001100 cyc
0A
1X
1EB
b0001 DC
b0101111010100000 EC
