synthesis/FPGA_PHY_IRAIL_DEBUG/IICE.vcd
$date
Wed Jan 24 12:56:11 2018
$end
$version
Identify 1.1
$end
$timescale
1 ns
$end
$comment
{Identify created VCD dump}
$end
$scope module m2s010_som $end
$var integer 32 cyc identify_cycle       $end
$var reg     1  clk identify_sampleclock $end
$var reg 1 A d_rxc $end
$var reg 4 B d_rxd[3:0] $end
$var reg 1 C d_rxdv $end
$var reg 1 D d_txc $end
$var reg 1 E mii_dbg_phyn $end
$var reg 1 F d_mdc $end
$var reg 4 G d_txd[3:0] $end
$var reg 1 H d_txen $end
$var reg 1 I manch_out_n $end
$var reg 1 J manch_out_p $end
$scope module rtl $end
$scope module CommsFPGA_top_0 $end
$var reg 1 K bit_clk2x $end
$var reg 1 L manch_out_p $end
$var reg 1 M mac_mii_mdc $end
$var reg 4 N mac_mii_txd[3:0] $end
$var reg 1 O mac_mii_tx_en $end
$var reg 4 P mac_mii_rxd[3:0] $end
$var reg 1 Q mac_mii_rx_er $end
$var reg 1 R mac_mii_rx_dv $end
$var reg 1 S mac_mii_crs $end
$var reg 1 T mac_mii_col $end
$var reg 1 U mac_mii_rx_clk $end
$var reg 1 V mac_mii_tx_clk $end
$var reg 1 W mac_mii_mdo_en $end
$var reg 1 X mac_mii_mdo $end
$var reg 1 Y mac_mii_mdi $end
$var reg 1 Z d_mdo_en $end
$var reg 1 AB d_mdo $end
$var reg 1 BB d_mdi $end
$var reg 1 CB d_mdc $end
$var reg 1 DB d_txen $end
$scope module behavioral $end
$var reg 4 EB f_txd[3:0] $end
$var reg 4 FB f_rxd[3:0] $end
$var reg 1 GB f_mdc $end
$var reg 1 HB f_txc $end
$var reg 1 IB f_txen $end
$var reg 1 JB f_rxc $end
$var reg 1 KB f_rxdv $end
$var reg 1 LB f_mdo_en $end
$var reg 1 MB f_mdo $end
$var reg 1 NB f_mdi $end
$upscope $end
$upscope $end
$upscope $end
$upscope $end
$enddefinitions $end
#0
1clk
b11111111111111111111111001101000 cyc
1A
b0000 B
0C
1D
1E
1F
b1111 G
0H
1I
0J
0K
0L
0M
b0000 N
0O
b0000 P
0Q
0R
0S
0T
0U
0V
0W
1X
0Y
0Z
0AB
1BB
1CB
0DB
b0000 EB
b0000 FB
0GB
1HB
0IB
1JB
0KB
0LB
0MB
0NB
#10
0clk
#20
1clk
b11111111111111111111111001101001 cyc
#30
0clk
#40
1clk
b11111111111111111111111001101010 cyc
1K
1M
1GB
#50
0clk
#60
1clk
b11111111111111111111111001101011 cyc
0HB
0JB
#70
0clk
#80
1clk
b11111111111111111111111001101100 cyc
0K
#90
0clk
#100
1clk
b11111111111111111111111001101101 cyc
0M
0GB
#110
0clk
#120
1clk
b11111111111111111111111001101110 cyc
#130
0clk
#140
1clk
b11111111111111111111111001101111 cyc
1K
1M
1GB
#150
0clk
#160
1clk
b11111111111111111111111001110000 cyc
1HB
1JB
#170
0clk
#180
1clk
b11111111111111111111111001110001 cyc
0K
#190
0clk
#200
1clk
b11111111111111111111111001110010 cyc
0M
0GB
#210
0clk
#220
1clk
b11111111111111111111111001110011 cyc
#230
0clk
#240
1clk
b11111111111111111111111001110100 cyc
1K
1M
1GB
#250
0clk
#260
1clk
b11111111111111111111111001110101 cyc
0HB
0JB
#270
0clk
#280
1clk
b11111111111111111111111001110110 cyc
0K
#290
0clk
#300
1clk
b11111111111111111111111001110111 cyc
0M
0GB
#310
0clk
#320
1clk
b11111111111111111111111001111000 cyc
#330
0clk
#340
1clk
b11111111111111111111111001111001 cyc
1K
1M
1GB
#350
0clk
#360
1clk
b11111111111111111111111001111010 cyc
1HB
1JB
#370
0clk
#380
1clk
b11111111111111111111111001111011 cyc
0K
#390
0clk
#400
1clk
b11111111111111111111111001111100 cyc
0M
0GB
#410
0clk
#420
1clk
b11111111111111111111111001111101 cyc
#430
0clk
#440
1clk
b11111111111111111111111001111110 cyc
1K
1M
1GB
#450
0clk
#460
1clk
b11111111111111111111111001111111 cyc
0HB
0JB
#470
0clk
#480
1clk
b11111111111111111111111010000000 cyc
0K
#490
0clk
#500
1clk
b11111111111111111111111010000001 cyc
0M
0GB
#510
0clk
#520
1clk
b11111111111111111111111010000010 cyc
#530
0clk
#540
1clk
b11111111111111111111111010000011 cyc
1K
1M
1GB
#550
0clk
#560
1clk
b11111111111111111111111010000100 cyc
1HB
1JB
#570
0clk
#580
1clk
b11111111111111111111111010000101 cyc
0K
0M
0GB
#590
0clk
#600
1clk
b11111111111111111111111010000110 cyc
#610
0clk
#620
1clk
b11111111111111111111111010000111 cyc
#630
0clk
#640
1clk
b11111111111111111111111010001000 cyc
1K
1M
1GB
#650
0clk
#660
1clk
b11111111111111111111111010001001 cyc
0HB
0JB
#670
0clk
#680
1clk
b11111111111111111111111010001010 cyc
0K
0M
0GB
#690
0clk
#700
1clk
b11111111111111111111111010001011 cyc
#710
0clk
#720
1clk
b11111111111111111111111010001100 cyc
#730
0clk
#740
1clk
b11111111111111111111111010001101 cyc
1K
1M
1GB
#750
0clk
#760
1clk
b11111111111111111111111010001110 cyc
1HB
1JB
#770
0clk
#780
1clk
b11111111111111111111111010001111 cyc
0K
0M
0GB
#790
0clk
#800
1clk
b11111111111111111111111010010000 cyc
#810
0clk
#820
1clk
b11111111111111111111111010010001 cyc
#830
0clk
#840
1clk
b11111111111111111111111010010010 cyc
1K
1M
1GB
#850
0clk
#860
1clk
b11111111111111111111111010010011 cyc
0HB
0JB
#870
0clk
#880
1clk
b11111111111111111111111010010100 cyc
0K
0M
0GB
#890
0clk
#900
1clk
b11111111111111111111111010010101 cyc
#910
0clk
#920
1clk
b11111111111111111111111010010110 cyc
#930
0clk
#940
1clk
b11111111111111111111111010010111 cyc
1K
1M
1GB
#950
0clk
#960
1clk
b11111111111111111111111010011000 cyc
1HB
1JB
#970
0clk
#980
1clk
b11111111111111111111111010011001 cyc
0K
0M
0GB
#990
0clk
#1000
1clk
b11111111111111111111111010011010 cyc
#1010
0clk
#1020
1clk
b11111111111111111111111010011011 cyc
#1030
0clk
#1040
1clk
b11111111111111111111111010011100 cyc
1K
1M
1GB
#1050
0clk
#1060
1clk
b11111111111111111111111010011101 cyc
0HB
0JB
#1070
0clk
#1080
1clk
b11111111111111111111111010011110 cyc
0K
0M
0GB
#1090
0clk
#1100
1clk
b11111111111111111111111010011111 cyc
#1110
0clk
#1120
1clk
b11111111111111111111111010100000 cyc
#1130
0clk
#1140
1clk
b11111111111111111111111010100001 cyc
1K
1M
1GB
#1150
0clk
#1160
1clk
b11111111111111111111111010100010 cyc
1HB
1JB
#1170
0clk
#1180
1clk
b11111111111111111111111010100011 cyc
0K
0M
0GB
#1190
0clk
#1200
1clk
b11111111111111111111111010100100 cyc
#1210
0clk
#1220
1clk
b11111111111111111111111010100101 cyc
1M
#1230
0clk
#1240
1clk
b11111111111111111111111010100110 cyc
1K
1GB
#1250
0clk
#1260
1clk
b11111111111111111111111010100111 cyc
0HB
0JB
#1270
0clk
#1280
1clk
b11111111111111111111111010101000 cyc
0K
0M
0GB
#1290
0clk
#1300
1clk
b11111111111111111111111010101001 cyc
#1310
0clk
#1320
1clk
b11111111111111111111111010101010 cyc
1M
1GB
#1330
0clk
#1340
1clk
b11111111111111111111111010101011 cyc
1K
#1350
0clk
#1360
1clk
b11111111111111111111111010101100 cyc
1HB
1JB
#1370
0clk
#1380
1clk
b11111111111111111111111010101101 cyc
0K
0M
0GB
#1390
0clk
#1400
1clk
b11111111111111111111111010101110 cyc
#1410
0clk
#1420
1clk
b11111111111111111111111010101111 cyc
1M
1GB
#1430
0clk
#1440
1clk
b11111111111111111111111010110000 cyc
1K
#1450
0clk
#1460
1clk
b11111111111111111111111010110001 cyc
0HB
0JB
#1470
0clk
#1480
1clk
b11111111111111111111111010110010 cyc
0K
0M
0GB
#1490
0clk
#1500
1clk
b11111111111111111111111010110011 cyc
#1510
0clk
#1520
1clk
b11111111111111111111111010110100 cyc
1M
1GB
#1530
0clk
#1540
1clk
b11111111111111111111111010110101 cyc
1K
#1550
0clk
#1560
1clk
b11111111111111111111111010110110 cyc
1HB
1JB
#1570
0clk
#1580
1clk
b11111111111111111111111010110111 cyc
0K
0M
0GB
#1590
0clk
#1600
1clk
b11111111111111111111111010111000 cyc
#1610
0clk
#1620
1clk
b11111111111111111111111010111001 cyc
1M
1GB
#1630
0clk
#1640
1clk
b11111111111111111111111010111010 cyc
1K
#1650
0clk
#1660
1clk
b11111111111111111111111010111011 cyc
0HB
0JB
#1670
0clk
#1680
1clk
b11111111111111111111111010111100 cyc
0K
0M
0GB
#1690
0clk
#1700
1clk
b11111111111111111111111010111101 cyc
#1710
0clk
#1720
1clk
b11111111111111111111111010111110 cyc
1M
1GB
#1730
0clk
#1740
1clk
b11111111111111111111111010111111 cyc
1K
#1750
0clk
#1760
1clk
b11111111111111111111111011000000 cyc
1HB
1JB
#1770
0clk
#1780
1clk
b11111111111111111111111011000001 cyc
0K
0M
0GB
#1790
0clk
#1800
1clk
b11111111111111111111111011000010 cyc
#1810
0clk
#1820
1clk
b11111111111111111111111011000011 cyc
1M
1GB
#1830
0clk
#1840
1clk
b11111111111111111111111011000100 cyc
1K
#1850
0clk
#1860
1clk
b11111111111111111111111011000101 cyc
0HB
0JB
#1870
0clk
#1880
1clk
b11111111111111111111111011000110 cyc
0K
0M
0GB
#1890
0clk
#1900
1clk
b11111111111111111111111011000111 cyc
#1910
0clk
#1920
1clk
b11111111111111111111111011001000 cyc
1M
1GB
#1930
0clk
#1940
1clk
b11111111111111111111111011001001 cyc
1K
#1950
0clk
#1960
1clk
b11111111111111111111111011001010 cyc
0M
0GB
1HB
1JB
#1970
0clk
#1980
1clk
b11111111111111111111111011001011 cyc
0K
#1990
0clk
#2000
1clk
b11111111111111111111111011001100 cyc
#2010
0clk
#2020
1clk
b11111111111111111111111011001101 cyc
1M
1GB
#2030
0clk
#2040
1clk
b11111111111111111111111011001110 cyc
1K
#2050
0clk
#2060
1clk
b11111111111111111111111011001111 cyc
0M
0GB
0HB
0JB
#2070
0clk
#2080
1clk
b11111111111111111111111011010000 cyc
0K
#2090
0clk
#2100
1clk
b11111111111111111111111011010001 cyc
#2110
0clk
#2120
1clk
b11111111111111111111111011010010 cyc
1M
1GB
#2130
0clk
#2140
1clk
b11111111111111111111111011010011 cyc
1K
#2150
0clk
#2160
1clk
b11111111111111111111111011010100 cyc
0M
0GB
1HB
1JB
#2170
0clk
#2180
1clk
b11111111111111111111111011010101 cyc
0K
#2190
0clk
#2200
1clk
b11111111111111111111111011010110 cyc
#2210
0clk
#2220
1clk
b11111111111111111111111011010111 cyc
1M
1GB
#2230
0clk
#2240
1clk
b11111111111111111111111011011000 cyc
1K
#2250
0clk
#2260
1clk
b11111111111111111111111011011001 cyc
0M
0GB
0HB
0JB
#2270
0clk
#2280
1clk
b11111111111111111111111011011010 cyc
0K
#2290
0clk
#2300
1clk
b11111111111111111111111011011011 cyc
#2310
0clk
#2320
1clk
b11111111111111111111111011011100 cyc
1M
1GB
#2330
0clk
#2340
1clk
b11111111111111111111111011011101 cyc
1K
#2350
0clk
#2360
1clk
b11111111111111111111111011011110 cyc
0M
0GB
1HB
1JB
#2370
0clk
#2380
1clk
b11111111111111111111111011011111 cyc
0K
#2390
0clk
#2400
1clk
b11111111111111111111111011100000 cyc
#2410
0clk
#2420
1clk
b11111111111111111111111011100001 cyc
1M
1GB
#2430
0clk
#2440
1clk
b11111111111111111111111011100010 cyc
1K
#2450
0clk
#2460
1clk
b11111111111111111111111011100011 cyc
0M
0GB
0HB
0JB
#2470
0clk
#2480
1clk
b11111111111111111111111011100100 cyc
0K
#2490
0clk
#2500
1clk
b11111111111111111111111011100101 cyc
#2510
0clk
#2520
1clk
b11111111111111111111111011100110 cyc
1M
1GB
#2530
0clk
#2540
1clk
b11111111111111111111111011100111 cyc
1K
#2550
0clk
#2560
1clk
b11111111111111111111111011101000 cyc
0M
0GB
1HB
1JB
#2570
0clk
#2580
1clk
b11111111111111111111111011101001 cyc
0K
#2590
0clk
#2600
1clk
b11111111111111111111111011101010 cyc
1M
#2610
0clk
#2620
1clk
b11111111111111111111111011101011 cyc
1GB
#2630
0clk
#2640
1clk
b11111111111111111111111011101100 cyc
1K
#2650
0clk
#2660
1clk
b11111111111111111111111011101101 cyc
0M
0GB
0HB
0JB
#2670
0clk
#2680
1clk
b11111111111111111111111011101110 cyc
0K
#2690
0clk
#2700
1clk
b11111111111111111111111011101111 cyc
1M
1GB
#2710
0clk
#2720
1clk
b11111111111111111111111011110000 cyc
#2730
0clk
#2740
1clk
b11111111111111111111111011110001 cyc
1K
#2750
0clk
#2760
1clk
b11111111111111111111111011110010 cyc
0M
0GB
1HB
1JB
#2770
0clk
#2780
1clk
b11111111111111111111111011110011 cyc
0K
#2790
0clk
#2800
1clk
b11111111111111111111111011110100 cyc
1M
1GB
#2810
0clk
#2820
1clk
b11111111111111111111111011110101 cyc
#2830
0clk
#2840
1clk
b11111111111111111111111011110110 cyc
1K
#2850
0clk
#2860
1clk
b11111111111111111111111011110111 cyc
0M
0GB
0HB
0JB
#2870
0clk
#2880
1clk
b11111111111111111111111011111000 cyc
0K
#2890
0clk
#2900
1clk
b11111111111111111111111011111001 cyc
1M
1GB
#2910
0clk
#2920
1clk
b11111111111111111111111011111010 cyc
#2930
0clk
#2940
1clk
b11111111111111111111111011111011 cyc
1K
#2950
0clk
#2960
1clk
b11111111111111111111111011111100 cyc
0M
0GB
1HB
1JB
#2970
0clk
#2980
1clk
b11111111111111111111111011111101 cyc
0K
#2990
0clk
#3000
1clk
b11111111111111111111111011111110 cyc
1M
1GB
#3010
0clk
#3020
1clk
b11111111111111111111111011111111 cyc
#3030
0clk
#3040
1clk
b11111111111111111111111100000000 cyc
1K
#3050
0clk
#3060
1clk
b11111111111111111111111100000001 cyc
0M
0GB
0HB
0JB
#3070
0clk
#3080
1clk
b11111111111111111111111100000010 cyc
0K
#3090
0clk
#3100
1clk
b11111111111111111111111100000011 cyc
1M
1GB
#3110
0clk
#3120
1clk
b11111111111111111111111100000100 cyc
#3130
0clk
#3140
1clk
b11111111111111111111111100000101 cyc
1K
#3150
0clk
#3160
1clk
b11111111111111111111111100000110 cyc
0M
0GB
1HB
1JB
#3170
0clk
#3180
1clk
b11111111111111111111111100000111 cyc
0K
#3190
0clk
#3200
1clk
b11111111111111111111111100001000 cyc
1M
1GB
#3210
0clk
#3220
1clk
b11111111111111111111111100001001 cyc
#3230
0clk
#3240
1clk
b11111111111111111111111100001010 cyc
1K
#3250
0clk
#3260
1clk
b11111111111111111111111100001011 cyc
0M
0GB
0HB
0JB
#3270
0clk
#3280
1clk
b11111111111111111111111100001100 cyc
0K
#3290
0clk
#3300
1clk
b11111111111111111111111100001101 cyc
1M
1GB
#3310
0clk
#3320
1clk
b11111111111111111111111100001110 cyc
#3330
0clk
#3340
1clk
b11111111111111111111111100001111 cyc
1K
0M
0GB
#3350
0clk
#3360
1clk
b11111111111111111111111100010000 cyc
1HB
1JB
#3370
0clk
#3380
1clk
b11111111111111111111111100010001 cyc
0K
#3390
0clk
#3400
1clk
b11111111111111111111111100010010 cyc
1M
1GB
#3410
0clk
#3420
1clk
b11111111111111111111111100010011 cyc
#3430
0clk
#3440
1clk
b11111111111111111111111100010100 cyc
1K
0M
0GB
#3450
0clk
#3460
1clk
b11111111111111111111111100010101 cyc
0HB
0JB
#3470
0clk
#3480
1clk
b11111111111111111111111100010110 cyc
0K
#3490
0clk
#3500
1clk
b11111111111111111111111100010111 cyc
1M
1GB
#3510
0clk
#3520
1clk
b11111111111111111111111100011000 cyc
#3530
0clk
#3540
1clk
b11111111111111111111111100011001 cyc
1K
0M
0GB
#3550
0clk
#3560
1clk
b11111111111111111111111100011010 cyc
1HB
1JB
#3570
0clk
#3580
1clk
b11111111111111111111111100011011 cyc
0K
#3590
0clk
#3600
1clk
b11111111111111111111111100011100 cyc
1M
1GB
#3610
0clk
#3620
1clk
b11111111111111111111111100011101 cyc
#3630
0clk
#3640
1clk
b11111111111111111111111100011110 cyc
1K
0M
0GB
#3650
0clk
#3660
1clk
b11111111111111111111111100011111 cyc
0HB
0JB
#3670
0clk
#3680
1clk
b11111111111111111111111100100000 cyc
0K
#3690
0clk
#3700
1clk
b11111111111111111111111100100001 cyc
1M
1GB
#3710
0clk
#3720
1clk
b11111111111111111111111100100010 cyc
#3730
0clk
#3740
1clk
b11111111111111111111111100100011 cyc
1K
0M
0GB
#3750
0clk
#3760
1clk
b11111111111111111111111100100100 cyc
1HB
1JB
#3770
0clk
#3780
1clk
b11111111111111111111111100100101 cyc
0K
#3790
0clk
#3800
1clk
b11111111111111111111111100100110 cyc
1M
1GB
#3810
0clk
#3820
1clk
b11111111111111111111111100100111 cyc
#3830
0clk
#3840
1clk
b11111111111111111111111100101000 cyc
1K
0M
0GB
#3850
0clk
#3860
1clk
b11111111111111111111111100101001 cyc
0HB
0JB
#3870
0clk
#3880
1clk
b11111111111111111111111100101010 cyc
0K
#3890
0clk
#3900
1clk
b11111111111111111111111100101011 cyc
1M
1GB
#3910
0clk
#3920
1clk
b11111111111111111111111100101100 cyc
#3930
0clk
#3940
1clk
b11111111111111111111111100101101 cyc
1K
0M
0GB
#3950
0clk
#3960
1clk
b11111111111111111111111100101110 cyc
1HB
1JB
#3970
0clk
#3980
1clk
b11111111111111111111111100101111 cyc
0K
#3990
0clk
#4000
1clk
b11111111111111111111111100110000 cyc
1M
1GB
#4010
0clk
#4020
1clk
b11111111111111111111111100110001 cyc
#4030
0clk
#4040
1clk
b11111111111111111111111100110010 cyc
1K
0M
0GB
#4050
0clk
#4060
1clk
b11111111111111111111111100110011 cyc
0HB
0JB
#4070
0clk
#4080
1clk
b11111111111111111111111100110100 cyc
0K
1M
1GB
#4090
0clk
#4100
1clk
b11111111111111111111111100110101 cyc
#4110
0clk
#4120
1clk
b11111111111111111111111100110110 cyc
#4130
0clk
#4140
1clk
b11111111111111111111111100110111 cyc
1K
0M
0GB
#4150
0clk
#4160
1clk
b11111111111111111111111100111000 cyc
1HB
1JB
#4170
0clk
#4180
1clk
b11111111111111111111111100111001 cyc
0K
1M
1GB
#4190
0clk
#4200
1clk
b11111111111111111111111100111010 cyc
#4210
0clk
#4220
1clk
b11111111111111111111111100111011 cyc
#4230
0clk
#4240
1clk
b11111111111111111111111100111100 cyc
1K
0M
0GB
#4250
0clk
#4260
1clk
b11111111111111111111111100111101 cyc
0HB
0JB
#4270
0clk
#4280
1clk
b11111111111111111111111100111110 cyc
0K
1M
1GB
#4290
0clk
#4300
1clk
b11111111111111111111111100111111 cyc
#4310
0clk
#4320
1clk
b11111111111111111111111101000000 cyc
#4330
0clk
#4340
1clk
b11111111111111111111111101000001 cyc
1K
0M
0GB
#4350
0clk
#4360
1clk
b11111111111111111111111101000010 cyc
1HB
1JB
#4370
0clk
#4380
1clk
b11111111111111111111111101000011 cyc
0K
1M
1GB
#4390
0clk
#4400
1clk
b11111111111111111111111101000100 cyc
#4410
0clk
#4420
1clk
b11111111111111111111111101000101 cyc
#4430
0clk
#4440
1clk
b11111111111111111111111101000110 cyc
1K
0M
0GB
#4450
0clk
#4460
1clk
b11111111111111111111111101000111 cyc
0HB
0JB
#4470
0clk
#4480
1clk
b11111111111111111111111101001000 cyc
0K
1M
1GB
#4490
0clk
#4500
1clk
b11111111111111111111111101001001 cyc
#4510
0clk
#4520
1clk
b11111111111111111111111101001010 cyc
#4530
0clk
#4540
1clk
b11111111111111111111111101001011 cyc
1K
0M
0GB
#4550
0clk
#4560
1clk
b11111111111111111111111101001100 cyc
1HB
1JB
#4570
0clk
#4580
1clk
b11111111111111111111111101001101 cyc
0K
1M
1GB
#4590
0clk
#4600
1clk
b11111111111111111111111101001110 cyc
#4610
0clk
#4620
1clk
b11111111111111111111111101001111 cyc
#4630
0clk
#4640
1clk
b11111111111111111111111101010000 cyc
1K
0M
0GB
#4650
0clk
#4660
1clk
b11111111111111111111111101010001 cyc
0HB
0JB
#4670
0clk
#4680
1clk
b11111111111111111111111101010010 cyc
0K
1M
1GB
#4690
0clk
#4700
1clk
b11111111111111111111111101010011 cyc
#4710
0clk
#4720
1clk
b11111111111111111111111101010100 cyc
0M
#4730
0clk
#4740
1clk
b11111111111111111111111101010101 cyc
1K
0GB
#4750
0clk
#4760
1clk
b11111111111111111111111101010110 cyc
1HB
1JB
#4770
0clk
#4780
1clk
b11111111111111111111111101010111 cyc
0K
1M
1GB
#4790
0clk
#4800
1clk
b11111111111111111111111101011000 cyc
#4810
0clk
#4820
1clk
b11111111111111111111111101011001 cyc
0M
0GB
#4830
0clk
#4840
1clk
b11111111111111111111111101011010 cyc
1K
#4850
0clk
#4860
1clk
b11111111111111111111111101011011 cyc
0HB
0JB
#4870
0clk
#4880
1clk
b11111111111111111111111101011100 cyc
0K
1M
1GB
#4890
0clk
#4900
1clk
b11111111111111111111111101011101 cyc
#4910
0clk
#4920
1clk
b11111111111111111111111101011110 cyc
0M
0GB
#4930
0clk
#4940
1clk
b11111111111111111111111101011111 cyc
1K
#4950
0clk
#4960
1clk
b11111111111111111111111101100000 cyc
1HB
1JB
#4970
0clk
#4980
1clk
b11111111111111111111111101100001 cyc
0K
1M
1GB
#4990
0clk
#5000
1clk
b11111111111111111111111101100010 cyc
#5010
0clk
#5020
1clk
b11111111111111111111111101100011 cyc
0M
0GB
#5030
0clk
#5040
1clk
b11111111111111111111111101100100 cyc
1K
#5050
0clk
#5060
1clk
b11111111111111111111111101100101 cyc
0HB
0JB
#5070
0clk
#5080
1clk
b11111111111111111111111101100110 cyc
0K
1M
1GB
#5090
0clk
#5100
1clk
b11111111111111111111111101100111 cyc
#5110
0clk
#5120
1clk
b11111111111111111111111101101000 cyc
0M
0GB
#5130
0clk
#5140
1clk
b11111111111111111111111101101001 cyc
1K
#5150
0clk
#5160
1clk
b11111111111111111111111101101010 cyc
1HB
1JB
#5170
0clk
#5180
1clk
b11111111111111111111111101101011 cyc
0K
1M
1GB
#5190
0clk
#5200
1clk
b11111111111111111111111101101100 cyc
#5210
0clk
#5220
1clk
b11111111111111111111111101101101 cyc
0M
0GB
#5230
0clk
#5240
1clk
b11111111111111111111111101101110 cyc
1K
#5250
0clk
#5260
1clk
b11111111111111111111111101101111 cyc
0HB
0JB
#5270
0clk
#5280
1clk
b11111111111111111111111101110000 cyc
0K
1M
1GB
#5290
0clk
#5300
1clk
b11111111111111111111111101110001 cyc
#5310
0clk
#5320
1clk
b11111111111111111111111101110010 cyc
0M
0GB
#5330
0clk
#5340
1clk
b11111111111111111111111101110011 cyc
1K
#5350
0clk
#5360
1clk
b11111111111111111111111101110100 cyc
1HB
1JB
#5370
0clk
#5380
1clk
b11111111111111111111111101110101 cyc
0K
1M
1GB
#5390
0clk
#5400
1clk
b11111111111111111111111101110110 cyc
#5410
0clk
#5420
1clk
b11111111111111111111111101110111 cyc
0M
0GB
#5430
0clk
#5440
1clk
b11111111111111111111111101111000 cyc
1K
#5450
0clk
#5460
1clk
b11111111111111111111111101111001 cyc
1M
1GB
0HB
0JB
#5470
0clk
#5480
1clk
b11111111111111111111111101111010 cyc
0K
#5490
0clk
#5500
1clk
b11111111111111111111111101111011 cyc
#5510
0clk
#5520
1clk
b11111111111111111111111101111100 cyc
0M
0GB
#5530
0clk
#5540
1clk
b11111111111111111111111101111101 cyc
1K
#5550
0clk
#5560
1clk
b11111111111111111111111101111110 cyc
1M
1GB
1HB
1JB
#5570
0clk
#5580
1clk
b11111111111111111111111101111111 cyc
0K
#5590
0clk
#5600
1clk
b11111111111111111111111110000000 cyc
#5610
0clk
#5620
1clk
b11111111111111111111111110000001 cyc
0M
0GB
#5630
0clk
#5640
1clk
b11111111111111111111111110000010 cyc
1K
#5650
0clk
#5660
1clk
b11111111111111111111111110000011 cyc
1M
1GB
0HB
0JB
#5670
0clk
#5680
1clk
b11111111111111111111111110000100 cyc
0K
#5690
0clk
#5700
1clk
b11111111111111111111111110000101 cyc
#5710
0clk
#5720
1clk
b11111111111111111111111110000110 cyc
0M
0GB
#5730
0clk
#5740
1clk
b11111111111111111111111110000111 cyc
1K
#5750
0clk
#5760
1clk
b11111111111111111111111110001000 cyc
1M
1GB
1HB
1JB
#5770
0clk
#5780
1clk
b11111111111111111111111110001001 cyc
0K
#5790
0clk
#5800
1clk
b11111111111111111111111110001010 cyc
#5810
0clk
#5820
1clk
b11111111111111111111111110001011 cyc
0M
0GB
#5830
0clk
#5840
1clk
b11111111111111111111111110001100 cyc
1K
#5850
0clk
#5860
1clk
b11111111111111111111111110001101 cyc
1M
1GB
0HB
0JB
#5870
0clk
#5880
1clk
b11111111111111111111111110001110 cyc
0K
#5890
0clk
#5900
1clk
b11111111111111111111111110001111 cyc
#5910
0clk
#5920
1clk
b11111111111111111111111110010000 cyc
0M
0GB
#5930
0clk
#5940
1clk
b11111111111111111111111110010001 cyc
1K
#5950
0clk
#5960
1clk
b11111111111111111111111110010010 cyc
1M
1GB
1HB
1JB
#5970
0clk
#5980
1clk
b11111111111111111111111110010011 cyc
0K
#5990
0clk
#6000
1clk
b11111111111111111111111110010100 cyc
#6010
0clk
#6020
1clk
b11111111111111111111111110010101 cyc
0M
0GB
#6030
0clk
#6040
1clk
b11111111111111111111111110010110 cyc
1K
#6050
0clk
#6060
1clk
b11111111111111111111111110010111 cyc
1M
1GB
0HB
0JB
#6070
0clk
#6080
1clk
b11111111111111111111111110011000 cyc
0K
#6090
0clk
#6100
1clk
b11111111111111111111111110011001 cyc
0M
#6110
0clk
#6120
1clk
b11111111111111111111111110011010 cyc
0GB
#6130
0clk
#6140
1clk
b11111111111111111111111110011011 cyc
1K
#6150
0clk
#6160
1clk
b11111111111111111111111110011100 cyc
1M
1GB
1HB
1JB
#6170
0clk
#6180
1clk
b11111111111111111111111110011101 cyc
0K
#6190
0clk
#6200
1clk
b11111111111111111111111110011110 cyc
0M
0GB
#6210
0clk
#6220
1clk
b11111111111111111111111110011111 cyc
#6230
0clk
#6240
1clk
b11111111111111111111111110100000 cyc
1K
#6250
0clk
#6260
1clk
b11111111111111111111111110100001 cyc
1M
1GB
0HB
0JB
#6270
0clk
#6280
1clk
b11111111111111111111111110100010 cyc
0K
#6290
0clk
#6300
1clk
b11111111111111111111111110100011 cyc
0M
0GB
#6310
0clk
#6320
1clk
b11111111111111111111111110100100 cyc
#6330
0clk
#6340
1clk
b11111111111111111111111110100101 cyc
1K
#6350
0clk
#6360
1clk
b11111111111111111111111110100110 cyc
1M
1GB
1HB
1JB
#6370
0clk
#6380
1clk
b11111111111111111111111110100111 cyc
0K
#6390
0clk
#6400
1clk
b11111111111111111111111110101000 cyc
0M
0GB
#6410
0clk
#6420
1clk
b11111111111111111111111110101001 cyc
#6430
0clk
#6440
1clk
b11111111111111111111111110101010 cyc
1K
#6450
0clk
#6460
1clk
b11111111111111111111111110101011 cyc
1M
1GB
0HB
0JB
#6470
0clk
#6480
1clk
b11111111111111111111111110101100 cyc
0K
#6490
0clk
#6500
1clk
b11111111111111111111111110101101 cyc
0M
0GB
#6510
0clk
#6520
1clk
b11111111111111111111111110101110 cyc
#6530
0clk
#6540
1clk
b11111111111111111111111110101111 cyc
1K
#6550
0clk
#6560
1clk
b11111111111111111111111110110000 cyc
1M
1GB
1HB
1JB
#6570
0clk
#6580
1clk
b11111111111111111111111110110001 cyc
0K
#6590
0clk
#6600
1clk
b11111111111111111111111110110010 cyc
0M
0GB
#6610
0clk
#6620
1clk
b11111111111111111111111110110011 cyc
#6630
0clk
#6640
1clk
b11111111111111111111111110110100 cyc
1K
#6650
0clk
#6660
1clk
b11111111111111111111111110110101 cyc
1M
1GB
0HB
0JB
#6670
0clk
#6680
1clk
b11111111111111111111111110110110 cyc
0K
#6690
0clk
#6700
1clk
b11111111111111111111111110110111 cyc
0M
0GB
#6710
0clk
#6720
1clk
b11111111111111111111111110111000 cyc
#6730
0clk
#6740
1clk
b11111111111111111111111110111001 cyc
1K
#6750
0clk
#6760
1clk
b11111111111111111111111110111010 cyc
1M
1GB
1HB
1JB
#6770
0clk
#6780
1clk
b11111111111111111111111110111011 cyc
0K
#6790
0clk
#6800
1clk
b11111111111111111111111110111100 cyc
0M
0GB
#6810
0clk
#6820
1clk
b11111111111111111111111110111101 cyc
#6830
0clk
#6840
1clk
b11111111111111111111111110111110 cyc
1K
1M
1GB
#6850
0clk
#6860
1clk
b11111111111111111111111110111111 cyc
0HB
0JB
#6870
0clk
#6880
1clk
b11111111111111111111111111000000 cyc
0K
#6890
0clk
#6900
1clk
b11111111111111111111111111000001 cyc
0M
0GB
#6910
0clk
#6920
1clk
b11111111111111111111111111000010 cyc
#6930
0clk
#6940
1clk
b11111111111111111111111111000011 cyc
1K
1M
1GB
#6950
0clk
#6960
1clk
b11111111111111111111111111000100 cyc
1HB
1JB
#6970
0clk
#6980
1clk
b11111111111111111111111111000101 cyc
0K
#6990
0clk
#7000
1clk
b11111111111111111111111111000110 cyc
0M
0GB
#7010
0clk
#7020
1clk
b11111111111111111111111111000111 cyc
#7030
0clk
#7040
1clk
b11111111111111111111111111001000 cyc
1K
1M
1GB
#7050
0clk
#7060
1clk
b11111111111111111111111111001001 cyc
0HB
0JB
#7070
0clk
#7080
1clk
b11111111111111111111111111001010 cyc
0K
#7090
0clk
#7100
1clk
b11111111111111111111111111001011 cyc
0M
0GB
#7110
0clk
#7120
1clk
b11111111111111111111111111001100 cyc
#7130
0clk
#7140
1clk
b11111111111111111111111111001101 cyc
1K
1M
1GB
#7150
0clk
#7160
1clk
b11111111111111111111111111001110 cyc
1HB
1JB
#7170
0clk
#7180
1clk
b11111111111111111111111111001111 cyc
0K
#7190
0clk
#7200
1clk
b11111111111111111111111111010000 cyc
0M
0GB
#7210
0clk
