synthesis/rev_debug2ndxfer/IICE.vcd
$date
Fri Aug 18 11:30:10 2017
$end
$version
Identify 1.1
$end
$timescale
1 ns
$end
$comment
{Identify created VCD dump}
$end
$scope module m2s010_som $end
$var integer 32 cyc identify_cycle       $end
$var reg     1  clk identify_sampleclock $end
$scope module rtl $end
$scope module CommsFPGA_top_0 $end
$var reg 1 A sw_reset $end
$var reg 1 B bd_resetn $end
$var reg 1 C lock $end
$var reg 1 D drvr_en $end
$var reg 1 E manchester_in $end
$var reg 1 F manch_out_p $end
$scope module behavioral $end
$var reg 1 G reset $end
$var reg 1 H bd_reset $end
$var reg 9 I rx_fifo_din_pipe[8:0] $end
$var reg 8 J long_reset_cntr[7:0] $end
$scope module PROCESSOR_INTERFACE_INST $end
$var reg 8 K apb3_addr[7:0] $end
$var reg 8 L apb3_rdata[7:0] $end
$var reg 1 M apb3_ready $end
$var reg 1 N apb3_write $end
$var reg 1 O tx_fifo_wr_en $end
$var reg 1 P rx_fifo_rd_en $end
$var reg 1 Q tx_packet_complt $end
$var reg 1 R rx_packet_complt $end
$var reg 1 S col_detect $end
$var reg 1 T tx_fifo_full $end
$var reg 1 U tx_fifo_empty $end
$var reg 1 V rx_fifo_full $end
$var reg 1 W rx_fifo_empty $end
$scope module behavioral $end
$var reg 8 X control_reg[7:0] $end
$var reg 8 Y status_reg[7:0] $end
$var reg 8 Z int_reg[7:0] $end
$var reg 1 AB up_eop $end
$var reg 8 BB rx_packet_depth[7:0] $end
$var reg 1 CB rx_packet_depth_status $end
$scope module INTERRUPT_INST $end
$var reg 1 DB apb3_reset $end
$scope module behavioral $end
$var reg 1 EB rx_fifo_underrun_int $end
$var reg 1 FB rx_fifo_overflow_int $end
$var reg 1 GB int_reg_clr $end
$var reg 1 HB rx_crc_error_int $end
$var reg 6 IB up_eop_del[5:0] $end
$var reg 1 JB irx_packet_avail_int $end
$var reg 1 KB block_int_until_rd $end
$upscope $end
$upscope $end
$upscope $end
$upscope $end
$scope module FIFOS_INST $end
$var reg 1 LB rx_fifo_empty $end
$var reg 1 MB rx_fifo_full $end
$var reg 1 NB rx_fifo_overflow $end
$var reg 1 OB rx_fifo_underrun $end
$scope module behavioral $end
$var reg 1 PB itx_fifo_empty $end
$var reg 1 QB itx_fifo_rst $end
$var reg 1 RB irx_fifo_rst $end
$var reg 2 SB readfifo_write_ptr[1:0] $end
$var reg 2 TB readfifo_read_ptr[1:0] $end
$var reg 4 UB irx_fifo_empty[3:0] $end
$var reg 4 VB irx_fifo_full[3:0] $end
$var reg 3 WB packet_available_clear_reg[2:0] $end
$upscope $end
$upscope $end
$scope module MANCHESTER_ENCODER_INST $end
$var reg 1 XB tx_fifo_rd_en $end
$var reg 1 YB tx_enable $end
$var reg 1 ZB tx_preamble $end
$var reg 1 AC tx_collision_detect $end
$var reg 1 BC manchester_out $end
$scope module behavioral $end
$var reg 8 CC p2s_data[7:0] $end
$scope module TX_COLLISION_DETECTOR_INST $end
$var reg 1 DC rx_crc_byte_en $end
$var reg 1 EC tx_col_detect_en $end
$var reg 1 FC tx_collision_detect $end
$upscope $end
$scope module TRANSMIT_SM $end
$scope module behavioral $end
$var reg 1 GC start_tx_fifo_s $end
$var reg 1 HC tx_idle_line_s $end
$var reg 120 IC tx_state $end
$scope module TX_IDLE_LINE_DETECTOR $end
$var reg 2 JC manches_in_dly[1:0] $end
$var reg 1 KC idle_line $end
$var reg 1 LC tx_enable $end
$scope module behavioral $end
$var reg 16 MC idle_line_cntr[15:0] $end
$upscope $end
$upscope $end
$upscope $end
$upscope $end
$scope module TX_CRC_GEN_INST $end
$var reg 1 NC clk $end
$var reg 1 OC crc_en $end
$upscope $end
$upscope $end
$upscope $end
$scope module MANCHESTER_DECODER_INST $end
$scope module v1 $end
$scope module MANCHESTER_DECODER_ADAPTER_INST $end
$scope module v1 $end
$var reg 2 PC imanches_in_dly[1:0] $end
$var reg 4 QC clkdiv[3:0] $end
$var reg 1 RC irx_center_sample $end
$var reg 1 SC inrz_data $end
$scope module RX_IDLE_LINE_DETECTOR $end
$var reg 1 TC idle_line $end
$var reg 1 UC tx_enable $end
$scope module behavioral $end
$var reg 16 VC idle_line_cntr[15:0] $end
$upscope $end
$upscope $end
$upscope $end
$upscope $end
$scope module AFE_RX_STATE_MACHINE $end
$var reg 1 WC idle_line $end
$var reg 1 XC packet_avail $end
$var reg 1 YC rx_packet_avail $end
$scope module behavioral $end
$var reg 136 ZC afe_rx_state $end
$upscope $end
$upscope $end
$scope module ReadFIFO_Write_SM_PROC $end
$var reg 1 AD sampler_clk1x_en $end
$var reg 1 BD packet_avail $end
$scope module behavioral $end
$var reg 1 CD irx_packet_end $end
$var reg 1 DD irx_fifo_wr_en $end
$var reg 1 ED rx_inprocess $end
$var reg 1 FD hold_collision $end
$var reg 1 GD rx_crc_lowbyte_en $end
$var reg 1 HD sm_advance_i $end
$var reg 112 ID readfifo_wr_state $end
$scope module RX_CRC_GEN_INST $end
$var reg 1 JD crc_en $end
$var reg 16 KD crc_out[15:0] $end
$upscope $end
$upscope $end
$upscope $end
$upscope $end
$upscope $end
$upscope $end
$upscope $end
$upscope $end
$upscope $end
$enddefinitions $end
#0
1clk
b11111111111111111111100000000010 cyc
0A
1B
1C
0D
0E
0F
0G
0H
b011111111 I
b00011111 J
b00001100 K
b11111111 L
0M
0N
0O
0P
0Q
0R
0S
0T
1U
0V
0W
b00000000 X
b00010100 Y
b00000000 Z
0AB
b00000001 BB
1CB
0DB
0EB
0FB
0GB
0HB
b000000 IB
0JB
1KB
0LB
0MB
0NB
0OB
1PB
0QB
0RB
b00 SB
b11 TB
b0111 UB
b0000 VB
b000 WB
0XB
0YB
0ZB
0AC
0BC
b00000000 CC
0DC
0EC
0FC
0GC
1HC
b011010010110010001101100011001010010000000100000001000000010000000100000001000000010000000100000001000000010000000100000 IC
b11 JC
1KC
0LC
b0000011000000000 MC
0NC
0OC
b11 PC
b1000 QC
0RC
1SC
1TC
0UC
b0000011000000000 VC
1WC
0XC
0YC
b0110100101100100011011000110010100100000001000000010000000100000001000000010000000100000001000000010000000100000001000000010000000100000 ZC
0AD
0BD
0CD
0DD
0ED
0FD
0GD
0HD
b0110100101100100011011000110010100100000001000000010000000100000001000000010000000100000001000000010000000100000 ID
0JD
b1111111111111111 KD
#10
0clk
#20
1clk
b11111111111111111111100000000011 cyc
#30
0clk
#40
1clk
b11111111111111111111100000000100 cyc
1NC
#50
0clk
#60
1clk
b11111111111111111111100000000101 cyc
#70
0clk
#80
1clk
b11111111111111111111100000000110 cyc
#90
0clk
#100
1clk
b11111111111111111111100000000111 cyc
#110
0clk
#120
1clk
b11111111111111111111100000001000 cyc
#130
0clk
#140
1clk
b11111111111111111111100000001001 cyc
#150
0clk
#160
1clk
b11111111111111111111100000001010 cyc
b00000000 L
1P
#170
0clk
#180
1clk
b11111111111111111111100000001011 cyc
#190
0clk
#200
1clk
b11111111111111111111100000001100 cyc
1M
0P
#210
0clk
#220
1clk
b11111111111111111111100000001101 cyc
0NC
#230
0clk
#240
1clk
b11111111111111111111100000001110 cyc
#250
0clk
#260
1clk
b11111111111111111111100000001111 cyc
b11111111 L
0M
#270
0clk
#280
1clk
b11111111111111111111100000010000 cyc
#290
0clk
#300
1clk
b11111111111111111111100000010001 cyc
#310
0clk
#320
1clk
b11111111111111111111100000010010 cyc
#330
0clk
#340
1clk
b11111111111111111111100000010011 cyc
#350
0clk
#360
1clk
b11111111111111111111100000010100 cyc
#370
0clk
#380
1clk
b11111111111111111111100000010101 cyc
1NC
#390
0clk
#400
1clk
b11111111111111111111100000010110 cyc
#410
0clk
#420
1clk
b11111111111111111111100000010111 cyc
#430
0clk
#440
1clk
b11111111111111111111100000011000 cyc
#450
0clk
#460
1clk
b11111111111111111111100000011001 cyc
#470
0clk
#480
1clk
b11111111111111111111100000011010 cyc
#490
0clk
#500
1clk
b11111111111111111111100000011011 cyc
#510
0clk
#520
1clk
b11111111111111111111100000011100 cyc
b00000010 L
1P
#530
0clk
#540
1clk
b11111111111111111111100000011101 cyc
b00000000 L
0NC
#550
0clk
#560
1clk
b11111111111111111111100000011110 cyc
1M
0P
#570
0clk
#580
1clk
b11111111111111111111100000011111 cyc
#590
0clk
#600
1clk
b11111111111111111111100000100000 cyc
#610
0clk
#620
1clk
b11111111111111111111100000100001 cyc
b10100001 L
0M
#630
0clk
#640
1clk
b11111111111111111111100000100010 cyc
b11111111 L
#650
0clk
#660
1clk
b11111111111111111111100000100011 cyc
#670
0clk
#680
1clk
b11111111111111111111100000100100 cyc
#690
0clk
#700
1clk
b11111111111111111111100000100101 cyc
1NC
#710
0clk
#720
1clk
b11111111111111111111100000100110 cyc
#730
0clk
#740
1clk
b11111111111111111111100000100111 cyc
#750
0clk
#760
1clk
b11111111111111111111100000101000 cyc
#770
0clk
#780
1clk
b11111111111111111111100000101001 cyc
#790
0clk
#800
1clk
b11111111111111111111100000101010 cyc
#810
0clk
#820
1clk
b11111111111111111111100000101011 cyc
#830
0clk
#840
1clk
b11111111111111111111100000101100 cyc
#850
0clk
#860
1clk
b11111111111111111111100000101101 cyc
0NC
#870
0clk
#880
1clk
b11111111111111111111100000101110 cyc
1P
#890
0clk
#900
1clk
b11111111111111111111100000101111 cyc
b00000000 L
#910
0clk
#920
1clk
b11111111111111111111100000110000 cyc
#930
0clk
#940
1clk
b11111111111111111111100000110001 cyc
1M
0P
#950
0clk
#960
1clk
b11111111111111111111100000110010 cyc
#970
0clk
#980
1clk
b11111111111111111111100000110011 cyc
#990
0clk
#1000
1clk
b11111111111111111111100000110100 cyc
b11111111 L
0M
#1010
0clk
#1020
1clk
b11111111111111111111100000110101 cyc
1NC
#1030
0clk
#1040
1clk
b11111111111111111111100000110110 cyc
#1050
0clk
#1060
1clk
b11111111111111111111100000110111 cyc
#1070
0clk
#1080
1clk
b11111111111111111111100000111000 cyc
#1090
0clk
#1100
1clk
b11111111111111111111100000111001 cyc
#1110
0clk
#1120
1clk
b11111111111111111111100000111010 cyc
#1130
0clk
#1140
1clk
b11111111111111111111100000111011 cyc
#1150
0clk
#1160
1clk
b11111111111111111111100000111100 cyc
#1170
0clk
#1180
1clk
b11111111111111111111100000111101 cyc
#1190
0clk
#1200
1clk
b11111111111111111111100000111110 cyc
0NC
#1210
0clk
#1220
1clk
b11111111111111111111100000111111 cyc
#1230
0clk
#1240
1clk
b11111111111111111111100001000000 cyc
#1250
0clk
#1260
1clk
b11111111111111111111100001000001 cyc
b00000000 L
1P
#1270
0clk
#1280
1clk
b11111111111111111111100001000010 cyc
#1290
0clk
#1300
1clk
b11111111111111111111100001000011 cyc
1M
0P
#1310
0clk
#1320
1clk
b11111111111111111111100001000100 cyc
#1330
0clk
#1340
1clk
b11111111111111111111100001000101 cyc
#1350
0clk
#1360
1clk
b11111111111111111111100001000110 cyc
b11111111 L
0M
1NC
#1370
0clk
#1380
1clk
b11111111111111111111100001000111 cyc
#1390
0clk
#1400
1clk
b11111111111111111111100001001000 cyc
#1410
0clk
#1420
1clk
b11111111111111111111100001001001 cyc
#1430
0clk
#1440
1clk
b11111111111111111111100001001010 cyc
#1450
0clk
#1460
1clk
b11111111111111111111100001001011 cyc
#1470
0clk
#1480
1clk
b11111111111111111111100001001100 cyc
#1490
0clk
#1500
1clk
b11111111111111111111100001001101 cyc
#1510
0clk
#1520
1clk
b11111111111111111111100001001110 cyc
0NC
#1530
0clk
#1540
1clk
b11111111111111111111100001001111 cyc
#1550
0clk
#1560
1clk
b11111111111111111111100001010000 cyc
#1570
0clk
#1580
1clk
b11111111111111111111100001010001 cyc
#1590
0clk
#1600
1clk
b11111111111111111111100001010010 cyc
#1610
0clk
#1620
1clk
b11111111111111111111100001010011 cyc
b10010010 L
1P
#1630
0clk
#1640
1clk
b11111111111111111111100001010100 cyc
b00000000 L
#1650
0clk
#1660
1clk
b11111111111111111111100001010101 cyc
#1670
0clk
#1680
1clk
b11111111111111111111100001010110 cyc
1M
0P
1NC
#1690
0clk
#1700
1clk
b11111111111111111111100001010111 cyc
#1710
0clk
#1720
1clk
b11111111111111111111100001011000 cyc
0M
#1730
0clk
#1740
1clk
b11111111111111111111100001011001 cyc
b11111111 L
#1750
0clk
#1760
1clk
b11111111111111111111100001011010 cyc
#1770
0clk
#1780
1clk
b11111111111111111111100001011011 cyc
#1790
0clk
#1800
1clk
b11111111111111111111100001011100 cyc
#1810
0clk
#1820
1clk
b11111111111111111111100001011101 cyc
#1830
0clk
#1840
1clk
b11111111111111111111100001011110 cyc
0NC
#1850
0clk
#1860
1clk
b11111111111111111111100001011111 cyc
#1870
0clk
#1880
1clk
b11111111111111111111100001100000 cyc
#1890
0clk
#1900
1clk
b11111111111111111111100001100001 cyc
#1910
0clk
#1920
1clk
b11111111111111111111100001100010 cyc
#1930
0clk
#1940
1clk
b11111111111111111111100001100011 cyc
#1950
0clk
#1960
1clk
b11111111111111111111100001100100 cyc
#1970
0clk
#1980
1clk
b11111111111111111111100001100101 cyc
#1990
0clk
#2000
1clk
b11111111111111111111100001100110 cyc
1NC
#2010
0clk
#2020
1clk
b11111111111111111111100001100111 cyc
#2030
0clk
#2040
1clk
b11111111111111111111100001101000 cyc
#2050
0clk
#2060
1clk
b11111111111111111111100001101001 cyc
#2070
0clk
#2080
1clk
b11111111111111111111100001101010 cyc
b10010010 L
1P
#2090
0clk
#2100
1clk
b11111111111111111111100001101011 cyc
b00000000 L
#2110
0clk
#2120
1clk
b11111111111111111111100001101100 cyc
#2130
0clk
#2140
1clk
b11111111111111111111100001101101 cyc
1M
0P
#2150
0clk
#2160
1clk
b11111111111111111111100001101110 cyc
#2170
0clk
#2180
1clk
b11111111111111111111100001101111 cyc
0M
0NC
#2190
0clk
#2200
1clk
b11111111111111111111100001110000 cyc
b11111111 L
#2210
0clk
#2220
1clk
b11111111111111111111100001110001 cyc
#2230
0clk
#2240
1clk
b11111111111111111111100001110010 cyc
#2250
0clk
#2260
1clk
b11111111111111111111100001110011 cyc
#2270
0clk
#2280
1clk
b11111111111111111111100001110100 cyc
#2290
0clk
#2300
1clk
b11111111111111111111100001110101 cyc
#2310
0clk
#2320
1clk
b11111111111111111111100001110110 cyc
#2330
0clk
#2340
1clk
b11111111111111111111100001110111 cyc
1NC
#2350
0clk
#2360
1clk
b11111111111111111111100001111000 cyc
#2370
0clk
#2380
1clk
b11111111111111111111100001111001 cyc
#2390
0clk
#2400
1clk
b11111111111111111111100001111010 cyc
#2410
0clk
#2420
1clk
b11111111111111111111100001111011 cyc
#2430
0clk
#2440
1clk
b11111111111111111111100001111100 cyc
#2450
0clk
#2460
1clk
b11111111111111111111100001111101 cyc
b00000000 L
1P
#2470
0clk
#2480
1clk
b11111111111111111111100001111110 cyc
#2490
0clk
#2500
1clk
b11111111111111111111100001111111 cyc
1M
0P
0NC
#2510
0clk
#2520
1clk
b11111111111111111111100010000000 cyc
#2530
0clk
#2540
1clk
b11111111111111111111100010000001 cyc
#2550
0clk
#2560
1clk
b11111111111111111111100010000010 cyc
b11111111 L
0M
#2570
0clk
#2580
1clk
b11111111111111111111100010000011 cyc
#2590
0clk
#2600
1clk
b11111111111111111111100010000100 cyc
#2610
0clk
#2620
1clk
b11111111111111111111100010000101 cyc
#2630
0clk
#2640
1clk
b11111111111111111111100010000110 cyc
#2650
0clk
#2660
1clk
b11111111111111111111100010000111 cyc
1NC
#2670
0clk
#2680
1clk
b11111111111111111111100010001000 cyc
#2690
0clk
#2700
1clk
b11111111111111111111100010001001 cyc
#2710
0clk
#2720
1clk
b11111111111111111111100010001010 cyc
#2730
0clk
#2740
1clk
b11111111111111111111100010001011 cyc
#2750
0clk
#2760
1clk
b11111111111111111111100010001100 cyc
#2770
0clk
#2780
1clk
b11111111111111111111100010001101 cyc
#2790
0clk
#2800
1clk
b11111111111111111111100010001110 cyc
#2810
0clk
#2820
1clk
b11111111111111111111100010001111 cyc
b00000010 L
1P
0NC
#2830
0clk
#2840
1clk
b11111111111111111111100010010000 cyc
b00000000 L
#2850
0clk
#2860
1clk
b11111111111111111111100010010001 cyc
1M
0P
#2870
0clk
#2880
1clk
b11111111111111111111100010010010 cyc
#2890
0clk
#2900
1clk
b11111111111111111111100010010011 cyc
#2910
0clk
#2920
1clk
b11111111111111111111100010010100 cyc
b00100001 L
0M
#2930
0clk
#2940
1clk
b11111111111111111111100010010101 cyc
b11111111 L
#2950
0clk
#2960
1clk
b11111111111111111111100010010110 cyc
#2970
0clk
#2980
1clk
b11111111111111111111100010010111 cyc
1NC
#2990
0clk
#3000
1clk
b11111111111111111111100010011000 cyc
#3010
0clk
#3020
1clk
b11111111111111111111100010011001 cyc
#3030
0clk
#3040
1clk
b11111111111111111111100010011010 cyc
#3050
0clk
#3060
1clk
b11111111111111111111100010011011 cyc
#3070
0clk
#3080
1clk
b11111111111111111111100010011100 cyc
#3090
0clk
#3100
1clk
b11111111111111111111100010011101 cyc
#3110
0clk
#3120
1clk
b11111111111111111111100010011110 cyc
#3130
0clk
#3140
1clk
b11111111111111111111100010011111 cyc
#3150
0clk
#3160
1clk
b11111111111111111111100010100000 cyc
0NC
#3170
0clk
#3180
1clk
b11111111111111111111100010100001 cyc
1P
#3190
0clk
#3200
1clk
b11111111111111111111100010100010 cyc
b00000000 L
#3210
0clk
#3220
1clk
b11111111111111111111100010100011 cyc
#3230
0clk
#3240
1clk
b11111111111111111111100010100100 cyc
1M
0P
#3250
0clk
#3260
1clk
b11111111111111111111100010100101 cyc
#3270
0clk
#3280
1clk
b11111111111111111111100010100110 cyc
#3290
0clk
#3300
1clk
b11111111111111111111100010100111 cyc
b11111111 L
0M
#3310
0clk
#3320
1clk
b11111111111111111111100010101000 cyc
1NC
#3330
0clk
#3340
1clk
b11111111111111111111100010101001 cyc
#3350
0clk
#3360
1clk
b11111111111111111111100010101010 cyc
#3370
0clk
#3380
1clk
b11111111111111111111100010101011 cyc
#3390
0clk
#3400
1clk
b11111111111111111111100010101100 cyc
#3410
0clk
#3420
1clk
b11111111111111111111100010101101 cyc
#3430
0clk
#3440
1clk
b11111111111111111111100010101110 cyc
#3450
0clk
#3460
1clk
b11111111111111111111100010101111 cyc
#3470
0clk
#3480
1clk
b11111111111111111111100010110000 cyc
0NC
#3490
0clk
#3500
1clk
b11111111111111111111100010110001 cyc
#3510
0clk
#3520
1clk
b11111111111111111111100010110010 cyc
#3530
0clk
#3540
1clk
b11111111111111111111100010110011 cyc
#3550
0clk
#3560
1clk
b11111111111111111111100010110100 cyc
b00000000 L
1P
#3570
0clk
#3580
1clk
b11111111111111111111100010110101 cyc
#3590
0clk
#3600
1clk
b11111111111111111111100010110110 cyc
1M
0P
#3610
0clk
#3620
1clk
b11111111111111111111100010110111 cyc
#3630
0clk
#3640
1clk
b11111111111111111111100010111000 cyc
1NC
#3650
0clk
#3660
1clk
b11111111111111111111100010111001 cyc
b11111111 L
0M
#3670
0clk
#3680
1clk
b11111111111111111111100010111010 cyc
#3690
0clk
#3700
1clk
b11111111111111111111100010111011 cyc
#3710
0clk
#3720
1clk
b11111111111111111111100010111100 cyc
#3730
0clk
#3740
1clk
b11111111111111111111100010111101 cyc
#3750
0clk
#3760
1clk
b11111111111111111111100010111110 cyc
#3770
0clk
#3780
1clk
b11111111111111111111100010111111 cyc
#3790
0clk
#3800
1clk
b11111111111111111111100011000000 cyc
0NC
#3810
0clk
#3820
1clk
b11111111111111111111100011000001 cyc
#3830
0clk
#3840
1clk
b11111111111111111111100011000010 cyc
#3850
0clk
#3860
1clk
b11111111111111111111100011000011 cyc
#3870
0clk
#3880
1clk
b11111111111111111111100011000100 cyc
#3890
0clk
#3900
1clk
b11111111111111111111100011000101 cyc
#3910
0clk
#3920
1clk
b11111111111111111111100011000110 cyc
b10011010 L
1P
#3930
0clk
#3940
1clk
b11111111111111111111100011000111 cyc
b00000000 L
#3950
0clk
#3960
1clk
b11111111111111111111100011001000 cyc
1NC
#3970
0clk
#3980
1clk
b11111111111111111111100011001001 cyc
1M
0P
#3990
0clk
#4000
1clk
b11111111111111111111100011001010 cyc
#4010
0clk
#4020
1clk
b11111111111111111111100011001011 cyc
0M
#4030
0clk
#4040
1clk
b11111111111111111111100011001100 cyc
b11111111 L
#4050
0clk
#4060
1clk
b11111111111111111111100011001101 cyc
#4070
0clk
#4080
1clk
b11111111111111111111100011001110 cyc
#4090
0clk
#4100
1clk
b11111111111111111111100011001111 cyc
#4110
0clk
#4120
1clk
b11111111111111111111100011010000 cyc
#4130
0clk
#4140
1clk
b11111111111111111111100011010001 cyc
0NC
#4150
0clk
#4160
1clk
b11111111111111111111100011010010 cyc
#4170
0clk
#4180
1clk
b11111111111111111111100011010011 cyc
#4190
0clk
#4200
1clk
b11111111111111111111100011010100 cyc
#4210
0clk
#4220
1clk
b11111111111111111111100011010101 cyc
#4230
0clk
#4240
1clk
b11111111111111111111100011010110 cyc
#4250
0clk
#4260
1clk
b11111111111111111111100011010111 cyc
#4270
0clk
#4280
1clk
b11111111111111111111100011011000 cyc
#4290
0clk
#4300
1clk
b11111111111111111111100011011001 cyc
b00000000 L
1P
1NC
#4310
0clk
#4320
1clk
b11111111111111111111100011011010 cyc
#4330
0clk
#4340
1clk
b11111111111111111111100011011011 cyc
1M
0P
#4350
0clk
#4360
1clk
b11111111111111111111100011011100 cyc
#4370
0clk
#4380
1clk
b11111111111111111111100011011101 cyc
#4390
0clk
#4400
1clk
b11111111111111111111100011011110 cyc
b11111111 L
0M
#4410
0clk
#4420
1clk
b11111111111111111111100011011111 cyc
#4430
0clk
#4440
1clk
b11111111111111111111100011100000 cyc
#4450
0clk
#4460
1clk
b11111111111111111111100011100001 cyc
0NC
#4470
0clk
#4480
1clk
b11111111111111111111100011100010 cyc
#4490
0clk
#4500
1clk
b11111111111111111111100011100011 cyc
#4510
0clk
#4520
1clk
b11111111111111111111100011100100 cyc
#4530
0clk
#4540
1clk
b11111111111111111111100011100101 cyc
#4550
0clk
#4560
1clk
b11111111111111111111100011100110 cyc
#4570
0clk
#4580
1clk
b11111111111111111111100011100111 cyc
#4590
0clk
#4600
1clk
b11111111111111111111100011101000 cyc
#4610
0clk
#4620
1clk
b11111111111111111111100011101001 cyc
1NC
#4630
0clk
#4640
1clk
b11111111111111111111100011101010 cyc
#4650
0clk
#4660
1clk
b11111111111111111111100011101011 cyc
b00010010 L
1P
#4670
0clk
#4680
1clk
b11111111111111111111100011101100 cyc
b00000000 L
#4690
0clk
#4700
1clk
b11111111111111111111100011101101 cyc
1M
0P
#4710
0clk
#4720
1clk
b11111111111111111111100011101110 cyc
#4730
0clk
#4740
1clk
b11111111111111111111100011101111 cyc
#4750
0clk
#4760
1clk
b11111111111111111111100011110000 cyc
b00100001 L
0M
#4770
0clk
#4780
1clk
b11111111111111111111100011110001 cyc
b11111111 L
0NC
#4790
0clk
#4800
1clk
b11111111111111111111100011110010 cyc
#4810
0clk
#4820
1clk
b11111111111111111111100011110011 cyc
#4830
0clk
#4840
1clk
b11111111111111111111100011110100 cyc
#4850
0clk
#4860
1clk
b11111111111111111111100011110101 cyc
#4870
0clk
#4880
1clk
b11111111111111111111100011110110 cyc
#4890
0clk
#4900
1clk
b11111111111111111111100011110111 cyc
#4910
0clk
#4920
1clk
b11111111111111111111100011111000 cyc
#4930
0clk
#4940
1clk
b11111111111111111111100011111001 cyc
1NC
#4950
0clk
#4960
1clk
b11111111111111111111100011111010 cyc
#4970
0clk
#4980
1clk
b11111111111111111111100011111011 cyc
#4990
0clk
#5000
1clk
b11111111111111111111100011111100 cyc
#5010
0clk
#5020
1clk
b11111111111111111111100011111101 cyc
1P
#5030
0clk
#5040
1clk
b11111111111111111111100011111110 cyc
b00000000 L
#5050
0clk
#5060
1clk
b11111111111111111111100011111111 cyc
#5070
0clk
#5080
1clk
b11111111111111111111100100000000 cyc
1M
0P
#5090
0clk
#5100
1clk
b11111111111111111111100100000001 cyc
#5110
0clk
#5120
1clk
b11111111111111111111100100000010 cyc
0NC
#5130
0clk
#5140
1clk
b11111111111111111111100100000011 cyc
b11111111 L
0M
#5150
0clk
#5160
1clk
b11111111111111111111100100000100 cyc
#5170
0clk
#5180
1clk
b11111111111111111111100100000101 cyc
#5190
0clk
#5200
1clk
b11111111111111111111100100000110 cyc
#5210
0clk
#5220
1clk
b11111111111111111111100100000111 cyc
#5230
0clk
#5240
1clk
b11111111111111111111100100001000 cyc
#5250
0clk
#5260
1clk
b11111111111111111111100100001001 cyc
#5270
0clk
#5280
1clk
b11111111111111111111100100001010 cyc
1NC
#5290
0clk
#5300
1clk
b11111111111111111111100100001011 cyc
#5310
0clk
#5320
1clk
b11111111111111111111100100001100 cyc
#5330
0clk
#5340
1clk
b11111111111111111111100100001101 cyc
#5350
0clk
#5360
1clk
b11111111111111111111100100001110 cyc
#5370
0clk
#5380
1clk
b11111111111111111111100100001111 cyc
#5390
0clk
#5400
1clk
b11111111111111111111100100010000 cyc
b00000000 L
1P
#5410
0clk
#5420
1clk
b11111111111111111111100100010001 cyc
#5430
0clk
#5440
1clk
b11111111111111111111100100010010 cyc
1M
0P
0NC
#5450
0clk
#5460
1clk
b11111111111111111111100100010011 cyc
#5470
0clk
#5480
1clk
b11111111111111111111100100010100 cyc
#5490
0clk
#5500
1clk
b11111111111111111111100100010101 cyc
b11111111 L
0M
#5510
0clk
#5520
1clk
b11111111111111111111100100010110 cyc
#5530
0clk
#5540
1clk
b11111111111111111111100100010111 cyc
#5550
0clk
#5560
1clk
b11111111111111111111100100011000 cyc
#5570
0clk
#5580
1clk
b11111111111111111111100100011001 cyc
#5590
0clk
#5600
1clk
b11111111111111111111100100011010 cyc
1NC
#5610
0clk
#5620
1clk
b11111111111111111111100100011011 cyc
#5630
0clk
#5640
1clk
b11111111111111111111100100011100 cyc
#5650
0clk
#5660
1clk
b11111111111111111111100100011101 cyc
#5670
0clk
#5680
1clk
b11111111111111111111100100011110 cyc
#5690
0clk
#5700
1clk
b11111111111111111111100100011111 cyc
#5710
0clk
#5720
1clk
b11111111111111111111100100100000 cyc
#5730
0clk
#5740
1clk
b11111111111111111111100100100001 cyc
#5750
0clk
#5760
1clk
b11111111111111111111100100100010 cyc
b11011010 L
1P
0NC
#5770
0clk
#5780
1clk
b11111111111111111111100100100011 cyc
b00000000 L
#5790
0clk
#5800
1clk
b11111111111111111111100100100100 cyc
#5810
0clk
#5820
1clk
b11111111111111111111100100100101 cyc
1M
0P
#5830
0clk
#5840
1clk
b11111111111111111111100100100110 cyc
#5850
0clk
#5860
1clk
b11111111111111111111100100100111 cyc
0M
#5870
0clk
#5880
1clk
b11111111111111111111100100101000 cyc
b11111111 L
#5890
0clk
#5900
1clk
b11111111111111111111100100101001 cyc
#5910
0clk
#5920
1clk
b11111111111111111111100100101010 cyc
1NC
#5930
0clk
#5940
1clk
b11111111111111111111100100101011 cyc
#5950
0clk
#5960
1clk
b11111111111111111111100100101100 cyc
#5970
0clk
#5980
1clk
b11111111111111111111100100101101 cyc
#5990
0clk
#6000
1clk
b11111111111111111111100100101110 cyc
#6010
0clk
#6020
1clk
b11111111111111111111100100101111 cyc
#6030
0clk
#6040
1clk
b11111111111111111111100100110000 cyc
#6050
0clk
#6060
1clk
b11111111111111111111100100110001 cyc
#6070
0clk
#6080
1clk
b11111111111111111111100100110010 cyc
#6090
0clk
#6100
1clk
b11111111111111111111100100110011 cyc
0NC
#6110
0clk
#6120
1clk
b11111111111111111111100100110100 cyc
#6130
0clk
#6140
1clk
b11111111111111111111100100110101 cyc
b00000000 L
1P
#6150
0clk
#6160
1clk
b11111111111111111111100100110110 cyc
#6170
0clk
#6180
1clk
b11111111111111111111100100110111 cyc
1M
0P
#6190
0clk
#6200
1clk
b11111111111111111111100100111000 cyc
#6210
0clk
#6220
1clk
b11111111111111111111100100111001 cyc
#6230
0clk
#6240
1clk
b11111111111111111111100100111010 cyc
b11111111 L
0M
#6250
0clk
#6260
1clk
b11111111111111111111100100111011 cyc
1NC
#6270
0clk
#6280
1clk
b11111111111111111111100100111100 cyc
#6290
0clk
#6300
1clk
b11111111111111111111100100111101 cyc
#6310
0clk
#6320
1clk
b11111111111111111111100100111110 cyc
#6330
0clk
#6340
1clk
b11111111111111111111100100111111 cyc
#6350
0clk
#6360
1clk
b11111111111111111111100101000000 cyc
#6370
0clk
#6380
1clk
b11111111111111111111100101000001 cyc
#6390
0clk
#6400
1clk
b11111111111111111111100101000010 cyc
#6410
0clk
#6420
1clk
b11111111111111111111100101000011 cyc
0NC
#6430
0clk
#6440
1clk
b11111111111111111111100101000100 cyc
#6450
0clk
#6460
1clk
b11111111111111111111100101000101 cyc
#6470
0clk
#6480
1clk
b11111111111111111111100101000110 cyc
#6490
0clk
#6500
1clk
b11111111111111111111100101000111 cyc
b00010010 L
1P
#6510
0clk
#6520
1clk
b11111111111111111111100101001000 cyc
b00000000 L
#6530
0clk
#6540
1clk
b11111111111111111111100101001001 cyc
1M
0P
#6550
0clk
#6560
1clk
b11111111111111111111100101001010 cyc
#6570
0clk
#6580
1clk
b11111111111111111111100101001011 cyc
1NC
#6590
0clk
#6600
1clk
b11111111111111111111100101001100 cyc
b00100001 L
0M
#6610
0clk
#6620
1clk
b11111111111111111111100101001101 cyc
b11111111 L
#6630
0clk
#6640
1clk
b11111111111111111111100101001110 cyc
#6650
0clk
#6660
1clk
b11111111111111111111100101001111 cyc
#6670
0clk
#6680
1clk
b11111111111111111111100101010000 cyc
#6690
0clk
#6700
1clk
b11111111111111111111100101010001 cyc
#6710
0clk
#6720
1clk
b11111111111111111111100101010010 cyc
#6730
0clk
#6740
1clk
b11111111111111111111100101010011 cyc
0NC
#6750
0clk
#6760
1clk
b11111111111111111111100101010100 cyc
#6770
0clk
#6780
1clk
b11111111111111111111100101010101 cyc
